cpu/riscv5stagedemo/ALU/tb_alu.vcd
$date
	Sun Nov 02 14:01:50 2025
$end
$version
	Icarus Verilog
$end
$timescale
	1ps
$end
$scope module tb_alu $end
$var wire 1 ! zero_flag $end
$var wire 1 " less_than_u $end
$var wire 1 # less_than $end
$var wire 32 $ alu_result [31:0] $end
$var parameter 4 % ALU_ADD $end
$var parameter 4 & ALU_AND $end
$var parameter 4 ' ALU_DIV $end
$var parameter 4 ( ALU_DIVU $end
$var parameter 4 ) ALU_MUL $end
$var parameter 4 * ALU_MULH $end
$var parameter 4 + ALU_OR $end
$var parameter 4 , ALU_REM $end
$var parameter 4 - ALU_REMU $end
$var parameter 4 . ALU_SLL $end
$var parameter 4 / ALU_SLT $end
$var parameter 4 0 ALU_SLTU $end
$var parameter 4 1 ALU_SRA $end
$var parameter 4 2 ALU_SRL $end
$var parameter 4 3 ALU_SUB $end
$var parameter 4 4 ALU_XOR $end
$var reg 4 5 alu_control [3:0] $end
$var reg 32 6 in1 [31:0] $end
$var reg 32 7 in2 [31:0] $end
$var integer 32 8 failed [31:0] $end
$var integer 32 9 passed [31:0] $end
$scope module uut $end
$var wire 4 : alu_control [3:0] $end
$var wire 32 ; in1 [31:0] $end
$var wire 32 < in1_signed [31:0] $end
$var wire 32 = in2 [31:0] $end
$var wire 32 > in2_signed [31:0] $end
$var wire 1 ! zero_flag $end
$var wire 64 ? mul_result_unsigned [63:0] $end
$var wire 64 @ mul_result_signed [63:0] $end
$var wire 1 " less_than_u $end
$var wire 1 # less_than $end
$var parameter 4 A ALU_ADD $end
$var parameter 4 B ALU_AND $end
$var parameter 4 C ALU_DIV $end
$var parameter 4 D ALU_DIVU $end
$var parameter 4 E ALU_MUL $end
$var parameter 4 F ALU_MULH $end
$var parameter 4 G ALU_OR $end
$var parameter 4 H ALU_REM $end
$var parameter 4 I ALU_REMU $end
$var parameter 4 J ALU_SLL $end
$var parameter 4 K ALU_SLT $end
$var parameter 4 L ALU_SLTU $end
$var parameter 4 M ALU_SRA $end
$var parameter 4 N ALU_SRL $end
$var parameter 4 O ALU_SUB $end
$var parameter 4 P ALU_XOR $end
$var reg 32 Q alu_result [31:0] $end
$upscope $end
$scope task check_result $end
$var reg 32 R exp [31:0] $end
$var reg 1600 S operation_name [1600:1] $end
$upscope $end
$upscope $end
$enddefinitions $end
$comment Show the parameter values. $end
$dumpall
b100 P
b1 O
b110 N
b111 M
b1001 L
b1000 K
b101 J
b1111 I
b1110 H
b11 G
b1011 F
b1010 E
b1101 D
b1100 C
b10 B
b0 A
b100 4
b1 3
b110 2
b111 1
b1001 0
b1000 /
b101 .
b1111 -
b1110 ,
b11 +
b1011 *
b1010 )
b1101 (
b1100 '
b10 &
b0 %
$end
#0
$dumpvars
b10000010100010001000100001110100010000000110001001100000010000000101011001000000011001000110000 S
b11110 R
b11110 Q
b11001000 @
b11001000 ?
b10100 >
b10100 =
b1010 <
b1010 ;
b0 :
b0 9
b0 8
b10100 7
b1010 6
b0 5
b11110 $
1#
1"
0!
$end
#1000
1!
b0 $
b0 Q
b10000010100010001000100001110100010000000110000011110000100011001000110010001100100011001000110010001100100011001000110001000000010101100100000001100010010000000101000011011110111011001100101011100100110011001101100011011110111011100101001 S
b0 R
b1 7
b1 =
b1 >
b1111111111111111111111111111111111111111111111111111111111111111 @
b11111111111111111111111111111111 ?
0"
b11111111111111111111111111111111 6
b11111111111111111111111111111111 ;
b11111111111111111111111111111111 <
b1 9
#2000
0!
b11110 $
b11110 Q
b10100110101010101000010001110100010000000110101001100000010000000101101001000000011001000110000 S
b11110 R
b1 5
b1 :
b10100 7
b10100 =
b10100 >
b1111101000 @
b1111101000 ?
0#
b110010 6
b110010 ;
b110010 <
b10 9
#3000
b11111111111111111111111111111111 $
b11111111111111111111111111111111 Q
b1010011010101010100001000111010001000000011000000100000001011010010000000110001001000000010100001110101011011100110010001100101011100100110011001101100011011110111011100101001 S
b11111111111111111111111111111111 R
b1 7
b1 =
b1 >
b0 @
b0 ?
1#
1"
b0 6
b0 ;
b0 <
b11 9
#4000
b11110000111100000000000000000000 $
b11110000111100000000000000000000 Q
b1000001010011100100010000111010001000000011000001111000010001100011000001000110001100000100011000110000010001100011000000100000001001100010000000110000011110000100011001000110010001100100011000110000001100000011000000110000 S
b11110000111100000000000000000000 R
b10 5
b10 :
b11111111111111110000000000000000 7
b11111111111111110000000000000000 =
b11111111111111110000000000000000 >
b11110000111100001111000100000000000000000000 @
b1111000011101111111111111111111100001111000100000000000000000000 ?
1"
b11110000111100001111000011110000 6
b11110000111100001111000011110000 ;
b11110000111100001111000011110000 <
b100 9
#5000
b11111111111111111111111111111111 $
b11111111111111111111111111111111 Q
b10011110101001000111010001000000011000001111000010001100011000001000110001100000100011000110000010001100011000000100000011111000010000000110000011110000011000001000110001100000100011000110000010001100011000001000110 S
b11111111111111111111111111111111 R
b11 5
b11 :
b1111111100011101001110110101100101101010010011000010111000010000 @
b111000101100010010100110100001101010010011000010111000010000 ?
0"
b1111000011110000111100001111 7
b1111000011110000111100001111 =
b1111000011110000111100001111 >
b101 9
#6000
b1011000010011110101001000111010001000000011000001111000010000010100000101000001010000010100000101000001010000010100000100100000010111100010000000110000011110000011010100110101001101010011010100110101001101010011010100110101 S
b100 5
b100 :
b1010101010101010101010101010101 7
b1010101010101010101010101010101 =
b1010101010101010101010101010101 >
b1110001110001110001110001110001101110001110001110001110001110010 @
b11100011100011100011100011100001110001110001110001110001110010 ?
b10101010101010101010101010101010 6
b10101010101010101010101010101010 ;
b10101010101010101010101010101010 <
b110 9
#7000
1!
b0 $
b0 Q
b1011000010011110101001000111010001000000011000001111000001100010011001000110011001101000011010100110110001101110011100000100000010111100010000000110000011110000011000100110010001100110011010000110101001101100011011100111000 S
b0 R
0#
b10010001101000101011001111000 7
b10010001101000101011001111000 =
b10010001101000101011001111000 >
b101001011011001101101110000011101111101001101100001000000 @
b101001011011001101101110000011101111101001101100001000000 ?
0"
b10010001101000101011001111000 6
b10010001101000101011001111000 ;
b10010001101000101011001111000 <
b111 9
#8000
0!
b10000 $
b10000 Q
b1010011010011000100110000111010001000000011000001111000001100010010000000111100001111000010000000110100 S
b10000 R
b101 5
b101 :
b100 7
b100 =
b100 >
b100 @
b100 ?
1#
1"
b1 6
b1 ;
b1 <
b1000 9
#9000
b11100000000000000000000000000000 $
b11100000000000000000000000000000 Q
b101001101001100010011000011101000100000001100000111100001000110001100000011000000110000001100000011000000110000001100000010000000111100001111000010000000110001 S
b11100000000000000000000000000000 R
b1 7
b1 =
b1 >
b1111111111111111111111111111111111110000000000000000000000000000 @
b11110000000000000000000000000000 ?
0"
b11110000000000000000000000000000 6
b11110000000000000000000000000000 ;
b11110000000000000000000000000000 <
b1001 9
#10000
b1000000000000000000000000000000 $
b1000000000000000000000000000000 Q
b10100110101001001001100001110100010000000110000011110000011100000110000001100000011000000110000001100000011000000110000001000000011111000111110001000000011000100100000001010000110110001101111011001110110100101100011011000010110110000101001 S
b1000000000000000000000000000000 R
b110 5
b110 :
b1111111111111111111111111111111110000000000000000000000000000000 @
b10000000000000000000000000000000 ?
b10000000000000000000000000000000 6
b10000000000000000000000000000000 ;
b10000000000000000000000000000000 <
b1010 9
#11000
b1111000000000000000000000000 $
b1111000000000000000000000000 Q
b10100110101001001001100001110100010000000110000011110000100011000110000001100000011000000110000001100000011000000110000001000000011111000111110001000000011010000100000001010000110110001101111011001110110100101100011011000010110110000101001 S
b1111000000000000000000000000 R
b100 7
b100 =
b100 >
b1111111111111111111111111111111111000000000000000000000000000000 @
b1111000000000000000000000000000000 ?
b11110000000000000000000000000000 6
b11110000000000000000000000000000 ;
b11110000000000000000000000000000 <
b1011 9
#12000
b11000000000000000000000000000000 $
b11000000000000000000000000000000 Q
b1010011010100100100000100111010001000000011000001111000001110000011000000110000001100000011000000110000001100000011000000100000001111100011111000111110001000000011000100100000001010000110000101110010011010010111010001101000011011010110010101110100011010010110001100101001 S
b11000000000000000000000000000000 R
b111 5
b111 :
b1 7
b1 =
b1 >
b1111111111111111111111111111111110000000000000000000000000000000 @
b10000000000000000000000000000000 ?
b10000000000000000000000000000000 6
b10000000000000000000000000000000 ;
b10000000000000000000000000000000 <
b1100 9
#13000
b11111111000000000000000000000000 $
b11111111000000000000000000000000 Q
b1010011010100100100000100111010001000000011000001111000010001100011000000110000001100000011000000110000001100000011000000100000001111100011111000111110001000000011010000100000001010000110000101110010011010010111010001101000011011010110010101110100011010010110001100101001 S
b11111111000000000000000000000000 R
b100 7
b100 =
b100 >
b1111111111111111111111111111111111000000000000000000000000000000 @
b1111000000000000000000000000000000 ?
b11110000000000000000000000000000 6
b11110000000000000000000000000000 ;
b11110000000000000000000000000000 <
b1101 9
#14000
b1 $
b1 Q
b10100110100110001010100001110100010000000110001001100000010000000111100001000000011001000110000001000000010100001110011011010010110011101101110011001010110010000101001 S
b1 R
b1000 5
b1000 :
1"
b10100 7
b10100 =
b10100 >
b11001000 @
b11001000 ?
1#
b1010 6
b1010 ;
b1010 <
b1110 9
#15000
1!
b0 $
b0 Q
b10100110100110001010100001110100010000000110010001100000010000000111100001000000011000100110000001000000010100001110011011010010110011101101110011001010110010000101001 S
b0 R
b1010 7
b1010 =
b1010 >
b11001000 @
b11001000 ?
0#
0"
b10100 6
b10100 ;
b10100 <
b1111 9
#16000
0!
b1 $
b1 Q
b101001101001100010101000011101000100000001011010011000100100000001111000010000000110001001000000010100001110011011010010110011101101110011001010110010000101001 S
b1 R
b1 7
b1 =
b1 >
b1111111111111111111111111111111111111111111111111111111111111111 @
b11111111111111111111111111111111 ?
1#
b11111111111111111111111111111111 6
b11111111111111111111111111111111 ;
b11111111111111111111111111111111 <
b10000 9
#17000
b10100110100110001010100010101010011101000100000001100010011000000100000001111000010000000110010001100000010000000101000011101010110111001110011011010010110011101101110011001010110010000101001 S
b1001 5
b1001 :
1"
b10100 7
b10100 =
b10100 >
b11001000 @
b11001000 ?
1#
b1010 6
b1010 ;
b1010 <
b10001 9
#18000
1!
b0 $
b0 Q
b1010011010011000101010001010101001110100010000000110000011110000100011001000110010001100100011001000110010001100100011001000110001000000011110000100000001100010010000000101000011101010110111001110011011010010110011101101110011001010110010000101001 S
b0 R
b1 7
b1 =
b1 >
b1111111111111111111111111111111111111111111111111111111111111111 @
b11111111111111111111111111111111 ?
0"
b11111111111111111111111111111111 6
b11111111111111111111111111111111 ;
b11111111111111111111111111111111 <
b10010 9
#19000
0!
b100111000100000 $
b100111000100000 Q
b100110101010101010011000011101000100000001100010011000000110000001000000010101000100000001100100011000000110000 S
b100111000100000 R
b1010 5
b1010 :
1"
b11001000 7
b11001000 =
b11001000 >
b100111000100000 @
b100111000100000 ?
1#
b1100100 6
b1100100 ;
b1100100 <
b10011 9
#20000
1!
b0 $
b0 Q
b1001101010101010100110000111010001000000011000001111000001100010011000000110000001100000011000000100000001010100010000000110000011110000011000100110000001100000011000000110000001000000010100001101100011011110111011101100101011100100010000000110011001100100010110101100010011010010111010000101001 S
b0 R
b10000000000000000 7
b10000000000000000 =
b10000000000000000 >
b100000000000000000000000000000000 @
b100000000000000000000000000000000 ?
0#
0"
b10000000000000000 6
b10000000000000000 ;
b10000000000000000 <
b10100 9
#21000
0!
b1 $
b1 Q
b100110101010101010011000100100000111010001000000011000001111000001100010011000000110000001100000011000000100000001010100010000000110000011110000011000100110000001100000011000000110000001000000010100001110101011100000111000001100101011100100010000000110011001100100010110101100010011010010111010000101001 S
b1 R
b1011 5
b1011 :
b10101 9
#22000
1!
b0 $
b0 Q
b10011010101010101001100010010000011101000100000001010000010110100110001001010010010000000101010001000000010100000101101001100010010100100100000011100110110100101100111011011100110010101100100 S
b0 R
b11111111111111111111111111111111 7
b11111111111111111111111111111111 =
b11111111111111111111111111111111 >
b1 @
b1111111111111111111111111111111000000000000000000000000000000001 ?
0#
b11111111111111111111111111111111 6
b11111111111111111111111111111111 ;
b11111111111111111111111111111111 <
b10110 9
#23000
0!
b1010 $
b1010 Q
b1000100010010010101011000111010001000000011000100110000001100000010000000101111001000000011000100110000 S
b1010 R
b1100 5
b1100 :
b1010 7
b1010 =
b1010 >
b1111101000 @
b1111101000 ?
0"
b1100100 6
b1100100 ;
b1100100 <
b10111 9
#24000
b100001 $
b100001 Q
b10001000100100101010110001110100010000000110001001100000011000000100000001011110010000000110011 S
b100001 R
b100101100 @
b100101100 ?
b11 7
b11 =
b11 >
b11000 9
#25000
b11111111111111111111111111111111 $
b11111111111111111111111111111111 Q
b1000100010010010101011000111010001000000011000100110000001100000010000000101111001000000011000000100000001010000111001001100101011101000111010101110010011011100111001100100000001011010011000100101001 S
b11111111111111111111111111111111 R
b0 @
b0 ?
b0 7
b0 =
b0 >
b11001 9
#26000
b1 $
b1 Q
b10100100100010101001101001110100010000000110001001100000011000000100000001001010010000000110011 S
b1 R
b1110 5
b1110 :
b100101100 @
b100101100 ?
b11 7
b11 =
b11 >
b11010 9
#27000
b1100100 $
b1100100 Q
b1010010010001010100110100111010001000000011000100110000001100000010000000100101001000000011000000100000001010000111001001100101011101000111010101110010011011100111001100100000011001000110100101110110011010010110010001100101011011100110010000101001 S
b1100100 R
b0 @
b0 ?
b0 7
b0 =
b0 >
b11011 9
#28000
b1010 $
b1010 Q
b100010001001001010101100101010100111010001000000011000100110000001100000010000000101111001000000011000100110000 S
b1010 R
b1101 5
b1101 :
b1111101000 @
b1111101000 ?
b1010 7
b1010 =
b1010 >
b11100 9
#29000
b1111111111111111111111111111111 $
b1111111111111111111111111111111 Q
b100010001001001010101100101010100111010001000000011000001111000010001100100011001000110010001100100011001000110010001100100011000100000001011110010000000110010 S
b1111111111111111111111111111111 R
b10 7
b10 =
b10 >
b1111111111111111111111111111111111111111111111111111111111111110 @
b111111111111111111111111111111110 ?
1#
b11111111111111111111111111111111 6
b11111111111111111111111111111111 ;
b11111111111111111111111111111111 <
b11101 9
#30000
b11111111111111111111111111111111 $
b11111111111111111111111111111111 Q
b1000100010010010101011001010101001110100010000000110001001100000011000000100000001011110010000000110000001000000010100001110010011001010111010001110101011100100110111001110011001000000011000001111000010001100100011001000110010001100100011001000110010001100100011000101001 S
b11111111111111111111111111111111 R
b0 7
b0 =
b0 >
b0 @
b0 ?
0#
b1100100 6
b1100100 ;
b1100100 <
b11110 9
#31000
b1 $
b1 Q
b1010010010001010100110101010101001110100010000000110001001100000011000000100000001001010010000000110011 S
b1 R
b1111 5
b1111 :
b100101100 @
b100101100 ?
b11 7
b11 =
b11 >
b11111 9
#32000
1!
b0 $
b0 Q
b1 5
b1 :
b1010 7
b1010 =
b1010 >
b1100100 @
b1100100 ?
b1010 6
b1010 ;
b1010 <
b100000 9
#33000
0!
b11110 $
b11110 Q
b0 5
b0 :
b11001000 @
b11001000 ?
1#
1"
b10100 7
b10100 =
b10100 >
b100001 9
#34000
b100010 9
#35000
b100011 9
