ascon_top_tb_v1.log
VCD info: dumpfile tb_ascon_CORE.vcd opened for output.
================================================================
  tb_ascon_CORE v2.0  --  ASCON-128 verification
================================================================
  KEY   = 000102030405060708090a0b0c0d0e0f
  NONCE = 101112131415161718191a1b1c1d1e1f
  AD    = 4153434f4e  (ASCON 5B)
  PT    = 6173636f6e  (ascon 5B)
================================================================

================================================================
  TEST 1: ASCON-128 Encryption  (9-step trace)
================================================================
  [95000] load  INIT_PERM     post=0 fin=0 dom=0 src=00 ad_last_r=0
  [95000] perm_start INIT_PERM     rounds=12
         x0=00001000808c0001 x1=0706050403020100 x2=0f0e0d0c0b0a0908 x3=1716151413121110 x4=1f1e1d1c1b1a1918
  [115000] load  POST_INIT     post=1 fin=0 dom=0 src=10 ad_last_r=0
  [115000] perm_done  x0=cde34900cdfce2c8 x3=620599fcd928dbac x4=3d3290a90ed3b02f
  [125000] load  AD_LOAD       post=0 fin=0 dom=0 src=01 ad_last_r=0
         x0=cde34900cdfce2c8 x1=948cba141a58c1cb x2=1fec9b5dae69b43a x3=65039cf8da2adaac x4=323c9da505d9b927
  [125000] perm_start AD_LOAD       rounds=6
         x0=cde3484e82bfb189 x1=948cba141a58c1cb x2=1fec9b5dae69b43a x3=65039cf8da2adaac x4=323c9da505d9b927
  [145000] load  AD_PERM       post=0 fin=0 dom=0 src=10 ad_last_r=0
  [145000] perm_done  x0=42d93fee5a0f47de x3=e11d0d15b0ab3c80 x4=c83ddd7717715691
  [155000] load  DOM_SEP       post=0 fin=0 dom=1 src=10 ad_last_r=0
         x0=42d93fee5a0f47de x1=29075cca761cd79c x2=2eea2b1ed8749b20 x3=e11d0d15b0ab3c80 x4=c83ddd7717715691
  [165000] load  DATA_LOAD     post=0 fin=0 dom=0 src=01 ad_last_r=0
         x0=42d93fee5a0f47de x1=29075cca761cd79c x2=2eea2b1ed8749b20 x3=e11d0d15b0ab3c80 x4=483ddd7717715691
  [175000] load  PRE_FIN       post=0 fin=1 dom=0 src=10 ad_last_r=0
         x0=42d93e80356c34bf x1=29075cca761cd79c x2=2eea2b1ed8749b20 x3=e11d0d15b0ab3c80 x4=483ddd7717715691
  [175000] perm_start PRE_FIN       rounds=12
  [175000] data_out = bf346c35803ed9420000000000000000
         x0=42d93e80356c34bf x1=29075cca761cd79c x2=29ec2e1adb769a20 x3=ee130019bba13588 x4=483ddd7717715691
  [195000] load  FIN_PERM      post=0 fin=0 dom=0 src=10 ad_last_r=0
  [195000] perm_done  x0=d7a162635426f17d x3=3a21b25bd14a5cc4 x4=3b5d8f59b8442a3f
         x0=d7a162635426f17d x1=f09ba08542d371f2 x2=ede6f785d0bdad1f x3=3a21b25bd14a5cc4 x4=3b5d8f59b8442a3f
  [215000] tag_out  = c45d48d25fb7273d37234eb355825334
  [225000] tag_out  = c45d48d25fb7273d37234eb355825334
  [225000] DONE

  CT and TAG:
  [PASS]                         CT  (5B) = bf346c3580
  [PASS]                    TAG (128-bit) = c45d48d25fb7273d37234eb355825334

================================================================
  TEST 2: ASCON-128 Decryption  (tag_match = 1)
================================================================
  [365000] load  INIT_PERM     post=0 fin=0 dom=0 src=00 ad_last_r=0
  [365000] perm_start INIT_PERM     rounds=12
         x0=00001000808c0001 x1=0706050403020100 x2=0f0e0d0c0b0a0908 x3=1716151413121110 x4=1f1e1d1c1b1a1918
  [385000] load  POST_INIT     post=1 fin=0 dom=0 src=10 ad_last_r=0
  [385000] perm_done  x0=cde34900cdfce2c8 x3=620599fcd928dbac x4=3d3290a90ed3b02f
  [395000] load  AD_LOAD       post=0 fin=0 dom=0 src=01 ad_last_r=0
         x0=cde34900cdfce2c8 x1=948cba141a58c1cb x2=1fec9b5dae69b43a x3=65039cf8da2adaac x4=323c9da505d9b927
  [395000] perm_start AD_LOAD       rounds=6
         x0=cde3484e82bfb189 x1=948cba141a58c1cb x2=1fec9b5dae69b43a x3=65039cf8da2adaac x4=323c9da505d9b927
  [415000] load  AD_PERM       post=0 fin=0 dom=0 src=10 ad_last_r=0
  [415000] perm_done  x0=42d93fee5a0f47de x3=e11d0d15b0ab3c80 x4=c83ddd7717715691
  [425000] load  DOM_SEP       post=0 fin=0 dom=1 src=10 ad_last_r=0
         x0=42d93fee5a0f47de x1=29075cca761cd79c x2=2eea2b1ed8749b20 x3=e11d0d15b0ab3c80 x4=c83ddd7717715691
  [435000] load  DATA_LOAD     post=0 fin=0 dom=0 src=01 ad_last_r=0
         x0=42d93fee5a0f47de x1=29075cca761cd79c x2=2eea2b1ed8749b20 x3=e11d0d15b0ab3c80 x4=483ddd7717715691
  [445000] load  PRE_FIN       post=0 fin=1 dom=0 src=10 ad_last_r=0
         x0=42d93e80356c34bf x1=29075cca761cd79c x2=2eea2b1ed8749b20 x3=e11d0d15b0ab3c80 x4=483ddd7717715691
  [445000] perm_start PRE_FIN       rounds=12
  [445000] data_out = 6173636f6e3fd9420000000000000000
         x0=42d93e80356c34bf x1=29075cca761cd79c x2=29ec2e1adb769a20 x3=ee130019bba13588 x4=483ddd7717715691
  [465000] load  FIN_PERM      post=0 fin=0 dom=0 src=10 ad_last_r=0
  [465000] perm_done  x0=d7a162635426f17d x3=3a21b25bd14a5cc4 x4=3b5d8f59b8442a3f
         x0=d7a162635426f17d x1=f09ba08542d371f2 x2=ede6f785d0bdad1f x3=3a21b25bd14a5cc4 x4=3b5d8f59b8442a3f
  [485000] tag_out  = c45d48d25fb7273d37234eb355825334
  [495000] tag_out  = c45d48d25fb7273d37234eb355825334
  [505000] tag_out  = c45d48d25fb7273d37234eb355825334
  [505000] DONE
  Cycles: 17
  [PASS]                         PT  (5B) = 6173636f6e
  [PASS]                        tag_match = 1

================================================================
  TEST 3: Tampered ciphertext  (tag_match = 0)
================================================================
  [645000] load  INIT_PERM     post=0 fin=0 dom=0 src=00 ad_last_r=0
  [645000] perm_start INIT_PERM     rounds=12
         x0=00001000808c0001 x1=0706050403020100 x2=0f0e0d0c0b0a0908 x3=1716151413121110 x4=1f1e1d1c1b1a1918
  [665000] load  POST_INIT     post=1 fin=0 dom=0 src=10 ad_last_r=0
  [665000] perm_done  x0=cde34900cdfce2c8 x3=620599fcd928dbac x4=3d3290a90ed3b02f
  [675000] load  AD_LOAD       post=0 fin=0 dom=0 src=01 ad_last_r=0
         x0=cde34900cdfce2c8 x1=948cba141a58c1cb x2=1fec9b5dae69b43a x3=65039cf8da2adaac x4=323c9da505d9b927
  [675000] perm_start AD_LOAD       rounds=6
         x0=cde3484e82bfb189 x1=948cba141a58c1cb x2=1fec9b5dae69b43a x3=65039cf8da2adaac x4=323c9da505d9b927
  [695000] load  AD_PERM       post=0 fin=0 dom=0 src=10 ad_last_r=0
  [695000] perm_done  x0=42d93fee5a0f47de x3=e11d0d15b0ab3c80 x4=c83ddd7717715691
  [705000] load  DOM_SEP       post=0 fin=0 dom=1 src=10 ad_last_r=0
         x0=42d93fee5a0f47de x1=29075cca761cd79c x2=2eea2b1ed8749b20 x3=e11d0d15b0ab3c80 x4=c83ddd7717715691
  [715000] load  DATA_LOAD     post=0 fin=0 dom=0 src=01 ad_last_r=0
         x0=42d93fee5a0f47de x1=29075cca761cd79c x2=2eea2b1ed8749b20 x3=e11d0d15b0ab3c80 x4=483ddd7717715691
  [725000] load  PRE_FIN       post=0 fin=1 dom=0 src=10 ad_last_r=0
         x0=42d93e81356c34bf x1=29075cca761cd79c x2=2eea2b1ed8749b20 x3=e11d0d15b0ab3c80 x4=483ddd7717715691
  [725000] perm_start PRE_FIN       rounds=12
  [725000] data_out = 6173636f6f3fd9420000000000000000
         x0=42d93e81356c34bf x1=29075cca761cd79c x2=29ec2e1adb769a20 x3=ee130019bba13588 x4=483ddd7717715691
  [745000] load  FIN_PERM      post=0 fin=0 dom=0 src=10 ad_last_r=0
  [745000] perm_done  x0=cb1540f6abc02155 x3=7326843e82455f39 x4=eddb5f1fd03f88c4
         x0=cb1540f6abc02155 x1=e965cb9706db05c9 x2=a52eb3d936849ef3 x3=7326843e82455f39 x4=eddb5f1fd03f88c4
  [765000] tag_out  = 395e47813a812074cc8135db1352d5e2
  [775000] tag_out  = 395e47813a812074cc8135db1352d5e2
  [785000] tag_out  = 395e47813a812074cc8135db1352d5e2
  [785000] DONE
  Cycles: 17
  [PASS]   tag_match (tampered, expect 0) = 0

================================================================
  TEST 4: ASCON-128 Encryption  (no AD)
================================================================
  [925000] load  INIT_PERM     post=0 fin=0 dom=0 src=00 ad_last_r=0
  [925000] perm_start INIT_PERM     rounds=12
         x0=00001000808c0001 x1=0706050403020100 x2=0f0e0d0c0b0a0908 x3=1716151413121110 x4=1f1e1d1c1b1a1918
  [945000] load  POST_INIT     post=1 fin=0 dom=0 src=10 ad_last_r=0
  [945000] perm_done  x0=cde34900cdfce2c8 x3=620599fcd928dbac x4=3d3290a90ed3b02f
         x0=cde34900cdfce2c8 x1=948cba141a58c1cb x2=1fec9b5dae69b43a x3=65039cf8da2adaac x4=323c9da505d9b927
  [965000] load  DOM_SEP       post=0 fin=0 dom=1 src=10 ad_last_r=0
  [975000] load  DATA_LOAD     post=0 fin=0 dom=0 src=01 ad_last_r=0
         x0=cde34900cdfce2c8 x1=948cba141a58c1cb x2=1fec9b5dae69b43a x3=65039cf8da2adaac x4=b23c9da505d9b927
  [985000] load  PRE_FIN       post=0 fin=1 dom=0 src=10 ad_last_r=0
         x0=cde3486ea29f91a9 x1=948cba141a58c1cb x2=1fec9b5dae69b43a x3=65039cf8da2adaac x4=b23c9da505d9b927
  [985000] perm_start PRE_FIN       rounds=12
  [985000] data_out = a9919fa26e48e3cd0000000000000000
         x0=cde3486ea29f91a9 x1=948cba141a58c1cb x2=18ea9e59ad6bb53a x3=6a0d91f4d120d3a4 x4=b23c9da505d9b927
  [1005000] load  FIN_PERM      post=0 fin=0 dom=0 src=10 ad_last_r=0
  [1005000] perm_done  x0=1805ede9b38f9d98 x3=7e1f2af480d6a5f1 x4=476f5694f2a4d1d2
         x0=1805ede9b38f9d98 x1=ba9328262752bf90 x2=0426095cd4db994d x3=7e1f2af480d6a5f1 x4=476f5694f2a4d1d2
  [1025000] tag_out  = f1a4d483f02f1979dad8aef9985b6148
  [1035000] tag_out  = f1a4d483f02f1979dad8aef9985b6148
  [1035000] DONE
  Cycles: 14
  [PASS]                  CT  (5B, no AD) = a9919fa26e
  [PASS]                      TAG (no AD) = f1a4d483f02f1979dad8aef9985b6148

================================================================
  TEST 5: ASCON-128 Decrypt round-trip  (no AD, tag_match = 1)
================================================================
  [1175000] load  INIT_PERM     post=0 fin=0 dom=0 src=00 ad_last_r=0
  [1175000] perm_start INIT_PERM     rounds=12
         x0=00001000808c0001 x1=0706050403020100 x2=0f0e0d0c0b0a0908 x3=1716151413121110 x4=1f1e1d1c1b1a1918
  [1195000] load  POST_INIT     post=1 fin=0 dom=0 src=10 ad_last_r=0
  [1195000] perm_done  x0=cde34900cdfce2c8 x3=620599fcd928dbac x4=3d3290a90ed3b02f
         x0=cde34900cdfce2c8 x1=948cba141a58c1cb x2=1fec9b5dae69b43a x3=65039cf8da2adaac x4=323c9da505d9b927
  [1215000] load  DOM_SEP       post=0 fin=0 dom=1 src=10 ad_last_r=0
  [1225000] load  DATA_LOAD     post=0 fin=0 dom=0 src=01 ad_last_r=0
         x0=cde34900cdfce2c8 x1=948cba141a58c1cb x2=1fec9b5dae69b43a x3=65039cf8da2adaac x4=b23c9da505d9b927
  [1235000] load  PRE_FIN       post=0 fin=1 dom=0 src=10 ad_last_r=0
         x0=cde3486ea29f91a9 x1=948cba141a58c1cb x2=1fec9b5dae69b43a x3=65039cf8da2adaac x4=b23c9da505d9b927
  [1235000] perm_start PRE_FIN       rounds=12
  [1235000] data_out = 6173636f6e49e3cd0000000000000000
         x0=cde3486ea29f91a9 x1=948cba141a58c1cb x2=18ea9e59ad6bb53a x3=6a0d91f4d120d3a4 x4=b23c9da505d9b927
  [1255000] load  FIN_PERM      post=0 fin=0 dom=0 src=10 ad_last_r=0
  [1255000] perm_done  x0=1805ede9b38f9d98 x3=7e1f2af480d6a5f1 x4=476f5694f2a4d1d2
         x0=1805ede9b38f9d98 x1=ba9328262752bf90 x2=0426095cd4db994d x3=7e1f2af480d6a5f1 x4=476f5694f2a4d1d2
  [1275000] tag_out  = f1a4d483f02f1979dad8aef9985b6148
  [1285000] tag_out  = f1a4d483f02f1979dad8aef9985b6148
  [1295000] tag_out  = f1a4d483f02f1979dad8aef9985b6148
  [1295000] DONE
  Cycles: 15
  [PASS]       PT  (5B, no AD round-trip) = 6173636f6e
  [PASS]     tag_match (no AD round-trip) = 1

================================================================
  TEST 6: Large Payload Throughput Test (1024 Bytes)
================================================================
  [1435000] load  INIT_PERM     post=0 fin=0 dom=0 src=00 ad_last_r=0
  [1435000] perm_start INIT_PERM     rounds=12
         x0=00001000808c0001 x1=0706050403020100 x2=0f0e0d0c0b0a0908 x3=1716151413121110 x4=1f1e1d1c1b1a1918
  [1455000] load  POST_INIT     post=1 fin=0 dom=0 src=10 ad_last_r=0
  [1455000] perm_done  x0=cde34900cdfce2c8 x3=620599fcd928dbac x4=3d3290a90ed3b02f
         x0=cde34900cdfce2c8 x1=948cba141a58c1cb x2=1fec9b5dae69b43a x3=65039cf8da2adaac x4=323c9da505d9b927
  [1475000] load  DOM_SEP       post=0 fin=0 dom=1 src=10 ad_last_r=0
  [1485000] load  DATA_LOAD     post=0 fin=0 dom=0 src=01 ad_last_r=0
         x0=cde34900cdfce2c8 x1=948cba141a58c1cb x2=1fec9b5dae69b43a x3=65039cf8da2adaac x4=b23c9da505d9b927
  [1485000] perm_start DATA_LOAD     rounds=6
         x0=222ee289aab9c1c9 x1=948cba141a58c1cb x2=1fec9b5dae69b43a x3=65039cf8da2adaac x4=b23c9da505d9b927
  [1495000] data_out = c9c1b9aa89e22e220000000000000000
  [1505000] load  DATA_PERM     post=0 fin=0 dom=0 src=10 ad_last_r=0
  [1505000] perm_done  x0=696fea3c465fb00d x3=faf48801ef292b3e x4=3a0693167491732e
  [1515000] load  DATA_LOAD     post=0 fin=0 dom=0 src=01 ad_last_r=0
         x0=696fea3c465fb00d x1=08ef20dd2205026b x2=2aa4a2a33043d8e3 x3=faf48801ef292b3e x4=3a0693167491732e
  [1515000] perm_start DATA_LOAD     rounds=6
         x0=99a241b5211a930c x1=08ef20dd2205026b x2=2aa4a2a33043d8e3 x3=faf48801ef292b3e x4=3a0693167491732e
  [1525000] data_out = 0c931a21b541a2990000000000000000
  [1535000] load  DATA_PERM     post=0 fin=0 dom=0 src=10 ad_last_r=0
  [1535000] perm_done  x0=1d4fe891d0de738f x3=3c969afb12774077 x4=c0957b3a05195844
  [1545000] load  DATA_LOAD     post=0 fin=0 dom=0 src=01 ad_last_r=0
         x0=1d4fe891d0de738f x1=a284ce81a39bc44d x2=e58a96250bdc21f1 x3=3c969afb12774077 x4=c0957b3a05195844
  [1545000] perm_start DATA_LOAD     rounds=6
         x0=ec824318b79b508e x1=a284ce81a39bc44d x2=e58a96250bdc21f1 x3=3c969afb12774077 x4=c0957b3a05195844
  [1555000] data_out = 8e509bb7184382ec0000000000000000
  [1565000] load  DATA_PERM     post=0 fin=0 dom=0 src=10 ad_last_r=0
  [1565000] perm_done  x0=914521dff3358fbb x3=803a3ab439524f80 x4=301a33463d937d4d
  [1575000] load  DATA_LOAD     post=0 fin=0 dom=0 src=01 ad_last_r=0
         x0=914521dff3358fbb x1=45ce162af9d66e9d x2=43909acf621440af x3=803a3ab439524f80 x4=301a33463d937d4d
  [1575000] perm_start DATA_LOAD     rounds=6
         x0=63888a569470acba x1=45ce162af9d66e9d x2=43909acf621440af x3=803a3ab439524f80 x4=301a33463d937d4d
  [1585000] data_out = baac7094568a88630000000000000000
  [1595000] load  DATA_PERM     post=0 fin=0 dom=0 src=10 ad_last_r=0
  [1595000] perm_done  x0=078eb74b68cc92ed x3=005f8d3a1fb76cf3 x4=00aa202fdf968b79
  [1605000] load  DATA_LOAD     post=0 fin=0 dom=0 src=01 ad_last_r=0
         x0=078eb74b68cc92ed x1=9d4c976a51c7a028 x2=d2fcf8ed99003c02 x3=005f8d3a1fb76cf3 x4=00aa202fdf968b79
  [1605000] perm_start DATA_LOAD     rounds=6
         x0=f4431cc20f89b1ec x1=9d4c976a51c7a028 x2=d2fcf8ed99003c02 x3=005f8d3a1fb76cf3 x4=00aa202fdf968b79
  [1615000] data_out = ecb1890fc21c43f40000000000000000
  [1625000] load  DATA_PERM     post=0 fin=0 dom=0 src=10 ad_last_r=0
  [1625000] perm_done  x0=4a98d91767f389fb x3=9bf96b517a10ad37 x4=f832cbdc7975fd11
  [1635000] load  DATA_LOAD     post=0 fin=0 dom=0 src=01 ad_last_r=0
         x0=4a98d91767f389fb x1=2bfbd8071aa55a62 x2=dbf433bd7961f5fc x3=9bf96b517a10ad37 x4=f832cbdc7975fd11
  [1635000] perm_start DATA_LOAD     rounds=6
         x0=be55729e00b6aafa x1=2bfbd8071aa55a62 x2=dbf433bd7961f5fc x3=9bf96b517a10ad37 x4=f832cbdc7975fd11
  [1645000] data_out = faaab6009e7255be0000000000000000
  [1655000] load  DATA_PERM     post=0 fin=0 dom=0 src=10 ad_last_r=0
  [1655000] perm_done  x0=88c19d7cc319fd67 x3=81a2a7ed6ee7de63 x4=fb8da1d1cc777a56
  [1665000] load  DATA_LOAD     post=0 fin=0 dom=0 src=01 ad_last_r=0
         x0=88c19d7cc319fd67 x1=2fbaa08aaa75c5ba x2=94f3e5d7e4c124a6 x3=81a2a7ed6ee7de63 x4=fb8da1d1cc777a56
  [1665000] perm_start DATA_LOAD     rounds=6
         x0=7d0c36f5a45cde66 x1=2fbaa08aaa75c5ba x2=94f3e5d7e4c124a6 x3=81a2a7ed6ee7de63 x4=fb8da1d1cc777a56
  [1675000] data_out = 66de5ca4f5360c7d0000000000000000
  [1685000] load  DATA_PERM     post=0 fin=0 dom=0 src=10 ad_last_r=0
  [1685000] perm_done  x0=0275ebcb9115cd19 x3=3c70fbb6f2e450fd x4=71731ed57fd08794
  [1695000] load  DATA_LOAD     post=0 fin=0 dom=0 src=01 ad_last_r=0
         x0=0275ebcb9115cd19 x1=0fe9957a76f34872 x2=74bc2aac58b55bc8 x3=3c70fbb6f2e450fd x4=71731ed57fd08794
  [1695000] perm_start DATA_LOAD     rounds=6
         x0=f4b84042f650ee18 x1=0fe9957a76f34872 x2=74bc2aac58b55bc8 x3=3c70fbb6f2e450fd x4=71731ed57fd08794
  [1705000] data_out = 18ee50f64240b8f40000000000000000
  [1715000] load  DATA_PERM     post=0 fin=0 dom=0 src=10 ad_last_r=0
  [1715000] perm_done  x0=f4b9107a9501aa8c x3=d0935ad4234f7299 x4=2ed18c76243665a8
  [1725000] load  DATA_LOAD     post=0 fin=0 dom=0 src=01 ad_last_r=0
         x0=f4b9107a9501aa8c x1=f5472bf2996220b6 x2=415a3fec09f887a6 x3=d0935ad4234f7299 x4=2ed18c76243665a8
  [1725000] perm_start DATA_LOAD     rounds=6
         x0=0374bbf3f244898d x1=f5472bf2996220b6 x2=415a3fec09f887a6 x3=d0935ad4234f7299 x4=2ed18c76243665a8
  [1735000] data_out = 8d8944f2f3bb74030000000000000000
  [1745000] load  DATA_PERM     post=0 fin=0 dom=0 src=10 ad_last_r=0
  [1745000] perm_done  x0=f029be92fa7d2dc5 x3=6a518fa890b3cdae x4=6871ce1d5258bced
  [1755000] load  DATA_LOAD     post=0 fin=0 dom=0 src=01 ad_last_r=0
         x0=f029be92fa7d2dc5 x1=4512414670656179 x2=193395e93648b06c x3=6a518fa890b3cdae x4=6871ce1d5258bced
  [1755000] perm_start DATA_LOAD     rounds=6
         x0=08e4151b9d380ec4 x1=4512414670656179 x2=193395e93648b06c x3=6a518fa890b3cdae x4=6871ce1d5258bced
  [1765000] data_out = c40e389d1b15e4080000000000000000
  [1775000] load  DATA_PERM     post=0 fin=0 dom=0 src=10 ad_last_r=0
  [1775000] perm_done  x0=c90ac2d6796961b5 x3=07dee15082946bd5 x4=02e6041c57919f29
  [1785000] load  DATA_LOAD     post=0 fin=0 dom=0 src=01 ad_last_r=0
         x0=c90ac2d6796961b5 x1=66d024685ffe0119 x2=93b34144a0070d20 x3=07dee15082946bd5 x4=02e6041c57919f29
  [1785000] perm_start DATA_LOAD     rounds=6
         x0=30c7695f1e2c42b4 x1=66d024685ffe0119 x2=93b34144a0070d20 x3=07dee15082946bd5 x4=02e6041c57919f29
  [1795000] data_out = b4422c1e5f69c7300000000000000000
  [1805000] load  DATA_PERM     post=0 fin=0 dom=0 src=10 ad_last_r=0
  [1805000] perm_done  x0=06d5e5737c621bcf x3=2bc73b4e34cebfce x4=c24d299aec9b5f4e
  [1815000] load  DATA_LOAD     post=0 fin=0 dom=0 src=01 ad_last_r=0
         x0=06d5e5737c621bcf x1=84f7c3f6ec5dca47 x2=4457813bfd4071a0 x3=2bc73b4e34cebfce x4=c24d299aec9b5f4e
  [1815000] perm_start DATA_LOAD     rounds=6
         x0=fc184efa1b2738ce x1=84f7c3f6ec5dca47 x2=4457813bfd4071a0 x3=2bc73b4e34cebfce x4=c24d299aec9b5f4e
  [1825000] data_out = ce38271bfa4e18fc0000000000000000
  [1835000] load  DATA_PERM     post=0 fin=0 dom=0 src=10 ad_last_r=0
  [1835000] perm_done  x0=5270cfb8a1b97550 x3=1e9b7094a82b59b1 x4=d25ecacbf456f8d8
  [1845000] load  DATA_LOAD     post=0 fin=0 dom=0 src=01 ad_last_r=0
         x0=5270cfb8a1b97550 x1=61d63581c32c08d7 x2=a3711061838e7c16 x3=1e9b7094a82b59b1 x4=d25ecacbf456f8d8
  [1845000] perm_start DATA_LOAD     rounds=6
         x0=a9bd6431c6fc5651 x1=61d63581c32c08d7 x2=a3711061838e7c16 x3=1e9b7094a82b59b1 x4=d25ecacbf456f8d8
  [1855000] data_out = 5156fcc63164bda90000000000000000
  [1865000] load  DATA_PERM     post=0 fin=0 dom=0 src=10 ad_last_r=0
  [1865000] perm_done  x0=ecba5dd1d83f291f x3=855b5a7dc3719fc6 x4=33db32b27ab83f51
  [1875000] load  DATA_LOAD     post=0 fin=0 dom=0 src=01 ad_last_r=0
         x0=ecba5dd1d83f291f x1=790058e1dd30db2d x2=6bd3edbd8b873833 x3=855b5a7dc3719fc6 x4=33db32b27ab83f51
  [1875000] perm_start DATA_LOAD     rounds=6
         x0=1077f658bf7a0a1e x1=790058e1dd30db2d x2=6bd3edbd8b873833 x3=855b5a7dc3719fc6 x4=33db32b27ab83f51
  [1885000] data_out = 1e0a7abf58f677100000000000000000
  [1895000] load  DATA_PERM     post=0 fin=0 dom=0 src=10 ad_last_r=0
  [1895000] perm_done  x0=bf30244d0af537d9 x3=d95cdce6446ca6ef x4=696f4e1a89ccb297
  [1905000] load  DATA_LOAD     post=0 fin=0 dom=0 src=01 ad_last_r=0
         x0=bf30244d0af537d9 x1=4b2ed555322f189e x2=526ae458eccc09fb x3=d95cdce6446ca6ef x4=696f4e1a89ccb297
  [1905000] perm_start DATA_LOAD     rounds=6
         x0=42fd8fc46db014d8 x1=4b2ed555322f189e x2=526ae458eccc09fb x3=d95cdce6446ca6ef x4=696f4e1a89ccb297
  [1915000] data_out = d814b06dc48ffd420000000000000000
  [1925000] load  DATA_PERM     post=0 fin=0 dom=0 src=10 ad_last_r=0
  [1925000] perm_done  x0=ecca7ae5b66b5da0 x3=4bfb1990cff80642 x4=e4388f8583222c07
  [1935000] load  DATA_LOAD     post=0 fin=0 dom=0 src=01 ad_last_r=0
         x0=ecca7ae5b66b5da0 x1=de471ecaacd81887 x2=76d2f619be111791 x3=4bfb1990cff80642 x4=e4388f8583222c07
  [1935000] perm_start DATA_LOAD     rounds=6
         x0=1207d16cd12e7ea1 x1=de471ecaacd81887 x2=76d2f619be111791 x3=4bfb1990cff80642 x4=e4388f8583222c07
  [1945000] data_out = a17e2ed16cd107120000000000000000
  [1955000] load  DATA_PERM     post=0 fin=0 dom=0 src=10 ad_last_r=0
  [1955000] perm_done  x0=8c1752ba83f803bc x3=451ccc9953484d9c x4=995915da0feda53e
  [1965000] load  DATA_LOAD     post=0 fin=0 dom=0 src=01 ad_last_r=0
         x0=8c1752ba83f803bc x1=15abda8131874e7f x2=c8b71147b22a6d1e x3=451ccc9953484d9c x4=995915da0feda53e
  [1965000] perm_start DATA_LOAD     rounds=6
         x0=73daf933e4bd20bd x1=15abda8131874e7f x2=c8b71147b22a6d1e x3=451ccc9953484d9c x4=995915da0feda53e
  [1975000] data_out = bd20bde433f9da730000000000000000
  [1985000] load  DATA_PERM     post=0 fin=0 dom=0 src=10 ad_last_r=0
  [1985000] perm_done  x0=10b7e7c0d52004df x3=0b50c1b066d6610f x4=716acc12a4a80547
  [1995000] load  DATA_LOAD     post=0 fin=0 dom=0 src=01 ad_last_r=0
         x0=10b7e7c0d52004df x1=4c94e96ca79bc45a x2=f6857f6b491c488a x3=0b50c1b066d6610f x4=716acc12a4a80547
  [1995000] perm_start DATA_LOAD     rounds=6
         x0=10794c49b26527de x1=4c94e96ca79bc45a x2=f6857f6b491c488a x3=0b50c1b066d6610f x4=716acc12a4a80547
  [2005000] data_out = de2765b2494c79100000000000000000
  [2015000] load  DATA_PERM     post=0 fin=0 dom=0 src=10 ad_last_r=0
  [2015000] perm_done  x0=6ccc2e378ecc7c9b x3=c3ea19bfa8f86211 x4=a7611e9da8222619
  [2025000] load  DATA_LOAD     post=0 fin=0 dom=0 src=01 ad_last_r=0
         x0=6ccc2e378ecc7c9b x1=2382f6e6fdfb1341 x2=bdb9b9290c084592 x3=c3ea19bfa8f86211 x4=a7611e9da8222619
  [2025000] perm_start DATA_LOAD     rounds=6
         x0=6d0285bee9895f9a x1=2382f6e6fdfb1341 x2=bdb9b9290c084592 x3=c3ea19bfa8f86211 x4=a7611e9da8222619
  [2035000] data_out = 9a5f89e9be85026d0000000000000000
  [2045000] load  DATA_PERM     post=0 fin=0 dom=0 src=10 ad_last_r=0
  [2045000] perm_done  x0=43bbe4ed2441100a x3=7824e9dcec50a50c x4=e634542718356169
  [2055000] load  DATA_LOAD     post=0 fin=0 dom=0 src=01 ad_last_r=0
         x0=43bbe4ed2441100a x1=15b3380622425128 x2=b6a678930263b496 x3=7824e9dcec50a50c x4=e634542718356169
  [2055000] perm_start DATA_LOAD     rounds=6
         x0=41754f644304330b x1=15b3380622425128 x2=b6a678930263b496 x3=7824e9dcec50a50c x4=e634542718356169
  [2065000] data_out = 0b330443644f75410000000000000000
  [2075000] load  DATA_PERM     post=0 fin=0 dom=0 src=10 ad_last_r=0
  [2075000] perm_done  x0=d5f61a0d83a1c93b x3=841afeb3f3fbad33 x4=08f646343be7a87b
  [2085000] load  DATA_LOAD     post=0 fin=0 dom=0 src=01 ad_last_r=0
         x0=d5f61a0d83a1c93b x1=07163c7df091ec17 x2=b9f6f93cfafdde66 x3=841afeb3f3fbad33 x4=08f646343be7a87b
  [2085000] perm_start DATA_LOAD     rounds=6
         x0=d638b184e4e4ea3a x1=07163c7df091ec17 x2=b9f6f93cfafdde66 x3=841afeb3f3fbad33 x4=08f646343be7a87b
  [2095000] data_out = 3aeae4e484b138d60000000000000000
  [2105000] load  DATA_PERM     post=0 fin=0 dom=0 src=10 ad_last_r=0
  [2105000] perm_done  x0=73a4598ddb68637e x3=35f45876d598ad3c x4=9f314f18def74d38
  [2115000] load  DATA_LOAD     post=0 fin=0 dom=0 src=01 ad_last_r=0
         x0=73a4598ddb68637e x1=9d090c34aa49d523 x2=c5a72cbf53f35e5d x3=35f45876d598ad3c x4=9f314f18def74d38
  [2115000] perm_start DATA_LOAD     rounds=6
         x0=776af204bc2d407f x1=9d090c34aa49d523 x2=c5a72cbf53f35e5d x3=35f45876d598ad3c x4=9f314f18def74d38
  [2125000] data_out = 7f402dbc04f26a770000000000000000
  [2135000] load  DATA_PERM     post=0 fin=0 dom=0 src=10 ad_last_r=0
  [2135000] perm_done  x0=ee5e8ef18b70dcbe x3=1957a44001dfe7b2 x4=45220006c568614c
  [2145000] load  DATA_LOAD     post=0 fin=0 dom=0 src=01 ad_last_r=0
         x0=ee5e8ef18b70dcbe x1=684cd4bddb7ff0f1 x2=fcaaf083ca97a214 x3=1957a44001dfe7b2 x4=45220006c568614c
  [2145000] perm_start DATA_LOAD     rounds=6
         x0=eb902578ec35ffbf x1=684cd4bddb7ff0f1 x2=fcaaf083ca97a214 x3=1957a44001dfe7b2 x4=45220006c568614c
  [2155000] data_out = bfff35ec782590eb0000000000000000
  [2165000] load  DATA_PERM     post=0 fin=0 dom=0 src=10 ad_last_r=0
  [2165000] perm_done  x0=86a58bde957dbb63 x3=24f0b359d3acb26f x4=c40df8a2f41f80a2
  [2175000] load  DATA_LOAD     post=0 fin=0 dom=0 src=01 ad_last_r=0
         x0=86a58bde957dbb63 x1=554d6787e4de2ebe x2=879ed0cb135db185 x3=24f0b359d3acb26f x4=c40df8a2f41f80a2
  [2175000] perm_start DATA_LOAD     rounds=6
         x0=806b2057f2389862 x1=554d6787e4de2ebe x2=879ed0cb135db185 x3=24f0b359d3acb26f x4=c40df8a2f41f80a2
  [2185000] data_out = 629838f257206b800000000000000000
  [2195000] load  DATA_PERM     post=0 fin=0 dom=0 src=10 ad_last_r=0
  [2195000] perm_done  x0=bba02deeb8521343 x3=5e2e2cdcbddf4f6f x4=e765e09c8e2ff41a
  [2205000] load  DATA_LOAD     post=0 fin=0 dom=0 src=01 ad_last_r=0
         x0=bba02deeb8521343 x1=3363dd5373176d6f x2=7c2bc804fc151727 x3=5e2e2cdcbddf4f6f x4=e765e09c8e2ff41a
  [2205000] perm_start DATA_LOAD     rounds=6
