clk_reset_ctrl_tb.vcd
$date
	Fri Mar 20 21:11:29 2026
$end
$version
	Icarus Verilog
$end
$timescale
	1ps
$end
$scope module clk_reset_ctrl_tb $end
$var wire 1 ! clk_core $end
$var wire 1 " clk_periph $end
$var wire 1 # cpu_rst_n $end
$var wire 1 $ fabric_rst_n $end
$var wire 1 % periph_rst_n $end
$var reg 1 & clk_in $end
$var reg 1 ' core_clk_en $end
$var reg 1 ( ext_rst_n $end
$var reg 1 ) periph_clk_en $end
$var reg 1 * por_n $end
$var reg 1 + soft_rst_pulse $end
$var reg 1 , test_en $end
$scope module dut $end
$var wire 1 ! clk_core $end
$var wire 1 - clk_in $end
$var wire 1 " clk_periph $end
$var wire 1 . combined_rst_n $end
$var wire 1 / core_clk_en $end
$var wire 1 # cpu_rst_n $end
$var wire 1 0 ext_rst_n $end
$var wire 1 $ fabric_rst_n $end
$var wire 1 1 periph_clk_en $end
$var wire 1 % periph_rst_n $end
$var wire 1 2 por_n $end
$var wire 1 3 por_n_stretched $end
$var wire 1 4 soft_rst_n_w $end
$var wire 1 5 soft_rst_pulse $end
$var wire 1 6 test_en $end
$scope module u_por $end
$var wire 1 - clk $end
$var wire 1 3 por_n_out $end
$var wire 1 2 por_n_raw $end
$var reg 5 7 ctr [4:0] $end
$var reg 1 8 stretched $end
$upscope $end
$scope module u_soft $end
$var wire 1 - clk $end
$var wire 1 3 por_rst_n $end
$var wire 1 4 soft_rst_n $end
$var wire 1 5 soft_rst_pulse $end
$var reg 4 9 ctr [3:0] $end
$var reg 1 : rst_active $end
$upscope $end
$scope module u_sync_fabric $end
$var wire 1 - clk $end
$var wire 1 . rst_async_n $end
$var wire 1 $ rst_sync_n $end
$var reg 1 ; ff1 $end
$var reg 1 < ff2 $end
$upscope $end
$scope module u_sync_cpu $end
$var wire 1 - clk $end
$var wire 1 . rst_async_n $end
$var wire 1 # rst_sync_n $end
$var reg 1 = ff1 $end
$var reg 1 > ff2 $end
$upscope $end
$scope module u_sync_periph $end
$var wire 1 - clk $end
$var wire 1 . rst_async_n $end
$var wire 1 % rst_sync_n $end
$var reg 1 ? ff1 $end
$var reg 1 @ ff2 $end
$upscope $end
$scope module u_clk_core $end
$var wire 1 - clk_in $end
$var wire 1 ! clk_out $end
$var wire 1 / enable $end
$var wire 1 6 test_en $end
$upscope $end
$scope module u_clk_periph $end
$var wire 1 - clk_in $end
$var wire 1 " clk_out $end
$var wire 1 1 enable $end
$var wire 1 6 test_en $end
$upscope $end
$upscope $end
$scope task check $end
$var reg 1 A actual $end
$var reg 1 B expected $end
$var reg 256 C name [255:0] $end
$upscope $end
$scope task wait_cycles $end
$var integer 32 D i [31:0] $end
$var integer 32 E n [31:0] $end
$upscope $end
$upscope $end
$enddefinitions $end
#0
$dumpvars
bx E
bx D
bx C
xB
xA
0@
0?
0>
0=
0<
0;
0:
b0 9
08
b0 7
06
05
14
03
02
11
00
1/
0.
0-
0,
0+
0*
1)
0(
1'
0&
0%
0$
0#
0"
0!
$end
#5000
1!
1"
1&
1-
#6000
b0 D
b1110 E
1*
12
1(
10
0B
0A
b110011001100001011000100111001001101001011000110101111101110010011100110111010001011111011011100010000001100100011101010111001001101001011011100110011100100000010100000100111101010010 C
#10000
0!
0"
0&
0-
#15000
b1 7
b1 D
1!
1"
1&
1-
#20000
0!
0"
0&
0-
#25000
b10 7
b10 D
1!
1"
1&
1-
#30000
0!
0"
0&
0-
#35000
b11 7
b11 D
1!
1"
1&
1-
#40000
0!
0"
0&
0-
#45000
b100 7
b100 D
1!
1"
1&
1-
#50000
0!
0"
0&
0-
#55000
b101 7
b101 D
1!
1"
1&
1-
#60000
0!
0"
0&
0-
#65000
b110 7
b110 D
1!
1"
1&
1-
#70000
0!
0"
0&
0-
#75000
b111 7
b111 D
1!
1"
1&
1-
#80000
0!
0"
0&
0-
#85000
b1000 7
b1000 D
1!
1"
1&
1-
#90000
0!
0"
0&
0-
#95000
b1001 7
b1001 D
1!
1"
1&
1-
#100000
0!
0"
0&
0-
#105000
b1010 7
b1010 D
1!
1"
1&
1-
#110000
0!
0"
0&
0-
#115000
b1011 7
b1011 D
1!
1"
1&
1-
#120000
0!
0"
0&
0-
#125000
b1100 7
b1100 D
1!
1"
1&
1-
#130000
0!
0"
0&
0-
#135000
b1101 7
b1101 D
1!
1"
1&
1-
#140000
0!
0"
0&
0-
#145000
b1110 7
b1010 E
b11001100110000101100010011100100110100101100011010111110111001001110011011101000101111101101110001000000110110101101001011001000010110101110011011101000111001001100101011101000110001101101000 C
b0 D
1!
1"
1&
1-
#150000
0!
0"
0&
0-
#155000
b1111 7
b1 D
1!
1"
1&
1-
#160000
0!
0"
0&
0-
#165000
b10000 7
b10 D
1!
1"
1&
1-
#170000
0!
0"
0&
0-
#175000
1.
18
13
b11 D
1!
1"
1&
1-
#180000
0!
0"
0&
0-
#185000
1?
1=
1;
b100 D
1!
1"
1&
1-
#190000
0!
0"
0&
0-
#195000
1<
1$
1>
1#
1@
1%
b101 D
1!
1"
1&
1-
#200000
0!
0"
0&
0-
#205000
b110 D
1!
1"
1&
1-
#210000
0!
0"
0&
0-
#215000
b111 D
1!
1"
1&
1-
#220000
0!
0"
0&
0-
#225000
b1000 D
1!
1"
1&
1-
#230000
0!
0"
0&
0-
#235000
b1001 D
1!
1"
1&
1-
#240000
0!
0"
0&
0-
#245000
b100 E
1B
1A
b1100110011000010110001001110010011010010110001101011111011100100111001101110100010111110110111000100000011000010110011001110100011001010111001000100000010100000100111101010010 C
b0 D
1!
1"
1&
1-
#250000
0!
0"
0&
0-
#255000
b1 D
1!
1"
1&
1-
#260000
0!
0"
0&
0-
#265000
b10 D
1!
1"
1&
1-
#270000
0!
0"
0&
0-
#275000
b11 D
1!
1"
1&
1-
#280000
0!
0"
0&
0-
#285000
b1100110011000010110001001110010011010010110001101011111011100100111001101110100010111110110111000100000011100110111010001100001011000100110110001100101 C
b100 D
1!
1"
1&
1-
#290000
0!
0"
0&
0-
#295000
1!
1"
1&
1-
#296000
0@
0%
0?
0>
0#
0=
0<
0$
0;
0.
0(
00
#300000
0!
0"
0&
0-
#305000
1!
1"
1&
1-
#310000
0!
0"
0&
0-
#315000
1!
1"
1&
1-
#320000
0!
0"
0&
0-
#325000
1!
1"
1&
1-
#326000
1.
1(
10
0B
0A
b110000101100010011100100110100101100011010111110111001001110011011101000101111101101110001000000110000101100110011101000110010101110010001000000110010101111000011101000101111101110010011100110111010000100000011000010111001101110011011001010111001001110100 C
#330000
0!
0"
0&
0-
#335000
1?
1=
1;
1!
1"
1&
1-
#340000
0!
0"
0&
0-
#345000
1<
1$
1>
1#
1@
1%
1!
1"
1&
1-
#350000
0!
0"
0&
0-
#355000
1!
1"
1&
1-
#356000
1B
1A
b110001001110010011010010110001101011111011100100111001101110100010111110110111000100000011000010110011001110100011001010111001000100000011001010111100001110100010111110111001001110011011101000010000001110010011001010110110001100101011000010111001101100101 C
#360000
0!
0"
0&
0-
#365000
1!
1"
1&
1-
#366000
1+
15
#370000
0!
0"
0&
0-
#375000
0<
0$
0;
0>
0#
0=
0@
0%
0?
0.
04
1:
1!
1"
1&
1-
#376000
b0 D
b11 E
0+
05
#380000
0!
0"
0&
0-
#385000
b1 9
b1 D
1!
1"
1&
1-
#390000
0!
0"
0&
0-
#395000
b10 9
b10 D
1!
1"
1&
1-
#400000
0!
0"
0&
0-
#405000
b11 9
b1100 E
0B
0A
b1100110011000010110001001110010011010010110001101011111011100100111001101110100010111110110111000100000011001000111010101110010011010010110111001100111001000000111001101101111011001100111010001011111011100100111001101110100 C
b0 D
1!
1"
1&
1-
#410000
0!
0"
0&
0-
#415000
b100 9
b1 D
1!
1"
1&
1-
#420000
0!
0"
0&
0-
#425000
b101 9
b10 D
1!
1"
1&
1-
#430000
0!
0"
0&
0-
#435000
b110 9
b11 D
1!
1"
1&
1-
#440000
0!
0"
0&
0-
#445000
b111 9
b100 D
1!
1"
1&
1-
#450000
0!
0"
0&
0-
#455000
1.
14
b0 9
0:
b101 D
1!
1"
1&
1-
#460000
0!
0"
0&
0-
#465000
1?
1=
1;
b110 D
1!
1"
1&
1-
#470000
0!
0"
0&
0-
#475000
1<
1$
1>
1#
1@
1%
b111 D
1!
1"
1&
1-
#480000
0!
0"
0&
0-
#485000
b1000 D
1!
1"
1&
1-
#490000
0!
0"
0&
0-
#495000
b1001 D
1!
1"
1&
1-
#500000
0!
0"
0&
0-
#505000
b1010 D
1!
1"
1&
1-
#510000
0!
0"
0&
0-
#515000
b1011 D
1!
1"
1&
1-
#520000
0!
0"
0&
0-
#525000
0'
0/
1B
1A
b11001100110000101100010011100100110100101100011010111110111001001110011011101000101111101101110001000000110000101100110011101000110010101110010001000000111001101101111011001100111010001011111011100100111001101110100 C
b1100 D
0!
1"
1&
1-
