dump_alu.vcd
$date
	Mon Feb 16 10:27:39 2026
$end
$version
	Icarus Verilog
$end
$timescale
	1ps
$end
$scope module tb_alu_only $end
$var wire 1 ! imem_valid $end
$var wire 32 " imem_addr [31:0] $end
$var wire 4 # dmem_wstrb [3:0] $end
$var wire 1 $ dmem_we $end
$var wire 32 % dmem_wdata [31:0] $end
$var wire 1 & dmem_valid $end
$var wire 32 ' dmem_addr [31:0] $end
$var parameter 32 ( CLK_PERIOD $end
$var parameter 32 ) TIMEOUT $end
$var reg 1 * clk $end
$var reg 32 + dmem_rdata [31:0] $end
$var reg 1 , dmem_ready $end
$var reg 32 - imem_rdata [31:0] $end
$var reg 1 . imem_ready $end
$var reg 1 / rst $end
$var integer 32 0 fail_count [31:0] $end
$var integer 32 1 i [31:0] $end
$var integer 32 2 pass_count [31:0] $end
$scope module dut $end
$var wire 4 3 alu_control_ex [3:0] $end
$var wire 32 4 alu_result_mem [31:0] $end
$var wire 32 5 alu_result_wb [31:0] $end
$var wire 2 6 byte_size_ex [1:0] $end
$var wire 2 7 byte_size_mem [1:0] $end
$var wire 1 * clk $end
$var wire 32 8 dmem_addr [31:0] $end
$var wire 32 9 dmem_rdata [31:0] $end
$var wire 1 , dmem_ready $end
$var wire 1 & dmem_valid $end
$var wire 32 : dmem_wdata [31:0] $end
$var wire 1 $ dmem_we $end
$var wire 4 ; dmem_wstrb [3:0] $end
$var wire 3 < funct3_ex [2:0] $end
$var wire 3 = funct3_mem [2:0] $end
$var wire 7 > funct7_ex [6:0] $end
$var wire 32 ? imem_rdata [31:0] $end
$var wire 1 . imem_ready $end
$var wire 1 ! imem_valid $end
$var wire 32 @ jalr_target [31:0] $end
$var wire 1 A jump_mem $end
$var wire 1 B jump_wb $end
$var wire 1 C lsu_req_valid $end
$var wire 4 D lsu_req_wstrb [3:0] $end
$var wire 32 E mem_data_wb [31:0] $end
$var wire 32 F mem_read_data_extended [31:0] $end
$var wire 1 G memread_mem $end
$var wire 1 H memtoreg_ex $end
$var wire 1 I memtoreg_mem $end
$var wire 1 J memtoreg_wb $end
$var wire 1 K memwrite_ex $end
$var wire 1 L memwrite_mem $end
$var wire 32 M pc_plus_4_mem [31:0] $end
$var wire 32 N pc_plus_4_wb [31:0] $end
$var wire 1 O pc_src_ex $end
$var wire 5 P rd_mem [4:0] $end
$var wire 5 Q rd_wb [4:0] $end
$var wire 1 R regwrite_ex $end
$var wire 1 S regwrite_mem $end
$var wire 1 T regwrite_wb $end
$var wire 5 U rs1_ex [4:0] $end
$var wire 5 V rs2_ex [4:0] $end
$var wire 1 / rst $end
$var wire 1 W stall_any $end
$var wire 32 X write_data_mem [31:0] $end
$var wire 1 Y zero_flag_ex $end
$var wire 32 Z write_back_data_wb [31:0] $end
$var wire 32 [ wb_data_before_jump [31:0] $end
$var wire 32 \ target_pc_ex [31:0] $end
$var wire 1 ] stall_if $end
$var wire 1 ^ stall $end
$var wire 5 _ rs2_id [4:0] $end
$var wire 5 ` rs1_id [4:0] $end
$var wire 1 a regwrite_id $end
$var wire 32 b read_data2_id [31:0] $end
$var wire 32 c read_data2_ex [31:0] $end
$var wire 32 d read_data1_id [31:0] $end
$var wire 32 e read_data1_ex [31:0] $end
$var wire 5 f rd_id [4:0] $end
$var wire 5 g rd_ex [4:0] $end
$var wire 32 h pc_plus_4_ex [31:0] $end
$var wire 32 i pc_if [31:0] $end
$var wire 32 j pc_id [31:0] $end
$var wire 32 k pc_ex [31:0] $end
$var wire 7 l opcode_id [6:0] $end
$var wire 7 m opcode_ex [6:0] $end
$var wire 1 n memwrite_id $end
$var wire 1 o memtoreg_id $end
$var wire 1 p memread_id $end
$var wire 1 q memread_ex $end
$var wire 32 r lsu_scoreboard [31:0] $end
$var wire 1 s lsu_result_valid $end
$var wire 5 t lsu_result_rd [4:0] $end
$var wire 32 u lsu_result_data [31:0] $end
$var wire 1 v lsu_req_ready $end
$var wire 4 w lsu_dmem_wstrb_out [3:0] $end
$var wire 1 x lsu_dmem_we $end
$var wire 32 y lsu_dmem_wdata [31:0] $end
$var wire 1 z lsu_dmem_valid $end
$var wire 32 { lsu_dmem_addr [31:0] $end
$var wire 1 | less_than_u_ex $end
$var wire 1 } less_than_ex $end
$var wire 1 ~ jump_id $end
$var wire 1 !" jump_ex $end
$var wire 32 "" instr_if [31:0] $end
$var wire 32 #" instr_id [31:0] $end
$var wire 32 $" imm_id [31:0] $end
$var wire 32 %" imm_ex [31:0] $end
$var wire 32 &" imem_addr [31:0] $end
$var wire 7 '" funct7_id [6:0] $end
$var wire 3 (" funct3_id [2:0] $end
$var wire 2 )" forward_b [1:0] $end
$var wire 2 *" forward_a [1:0] $end
$var wire 1 +" flush_if_id $end
$var wire 1 ," flush_id_ex $end
$var wire 2 -" byte_size_id [1:0] $end
$var wire 1 ." branch_taken_ex $end
$var wire 1 /" branch_id $end
$var wire 1 0" branch_ex $end
$var wire 1 1" alusrc_id $end
$var wire 1 2" alusrc_ex $end
$var wire 32 3" alu_result_ex [31:0] $end
$var wire 32 4" alu_in2_pre_mux [31:0] $end
$var wire 32 5" alu_in2 [31:0] $end
$var wire 32 6" alu_in1_forwarded [31:0] $end
$var wire 32 7" alu_in1 [31:0] $end
$var wire 4 8" alu_control_id [3:0] $end
$var reg 4 9" alu_control_id_ex [3:0] $end
$var reg 32 :" alu_result_ex_mem [31:0] $end
$var reg 32 ;" alu_result_mem_wb [31:0] $end
$var reg 1 2" alusrc_id_ex $end
$var reg 1 0" branch_id_ex $end
$var reg 2 <" byte_size_ex_mem [1:0] $end
$var reg 2 =" byte_size_id_ex [1:0] $end
$var reg 4 >" dmem_wstrb_comb [3:0] $end
$var reg 3 ?" funct3_ex_mem [2:0] $end
$var reg 3 @" funct3_id_ex [2:0] $end
$var reg 7 A" funct7_id_ex [6:0] $end
$var reg 32 B" imm_id_ex [31:0] $end
$var reg 1 C" jump_ex_mem $end
$var reg 1 !" jump_id_ex $end
$var reg 1 B jump_mem_wb $end
$var reg 1 D" lsu_req_sent $end
$var reg 32 E" mem_data_mem_wb [31:0] $end
$var reg 1 G memread_ex_mem $end
$var reg 1 q memread_id_ex $end
$var reg 1 F" memtoreg_ex_mem $end
$var reg 1 G" memtoreg_id_ex $end
$var reg 1 J memtoreg_mem_wb $end
$var reg 1 L memwrite_ex_mem $end
$var reg 1 H" memwrite_id_ex $end
$var reg 7 I" opcode_id_ex [6:0] $end
$var reg 32 J" pc_id_ex [31:0] $end
$var reg 32 K" pc_plus_4_ex_mem [31:0] $end
$var reg 32 L" pc_plus_4_mem_wb [31:0] $end
$var reg 5 M" rd_ex_mem [4:0] $end
$var reg 5 N" rd_id_ex [4:0] $end
$var reg 5 O" rd_mem_wb [4:0] $end
$var reg 32 P" read_data1_id_ex [31:0] $end
$var reg 32 Q" read_data2_id_ex [31:0] $end
$var reg 1 R" regwrite_ex_mem $end
$var reg 1 S" regwrite_id_ex $end
$var reg 1 T regwrite_mem_wb $end
$var reg 5 T" rs1_id_ex [4:0] $end
$var reg 5 U" rs2_id_ex [4:0] $end
$var reg 32 V" write_data_ex_mem [31:0] $end
$scope module arithmetic_logic_unit $end
$var wire 4 W" alu_control [3:0] $end
$var wire 32 X" in1 [31:0] $end
$var wire 32 Y" in1_signed [31:0] $end
$var wire 32 Z" in2 [31:0] $end
$var wire 32 [" in2_signed [31:0] $end
$var wire 1 Y zero_flag $end
$var wire 64 \" mul_result_unsigned [63:0] $end
$var wire 64 ]" mul_result_signed [63:0] $end
$var wire 1 | less_than_u $end
$var wire 1 } less_than $end
$var parameter 4 ^" ALU_ADD $end
$var parameter 4 _" ALU_AND $end
$var parameter 4 `" ALU_DIV $end
$var parameter 4 a" ALU_DIVU $end
$var parameter 4 b" ALU_MUL $end
$var parameter 4 c" ALU_MULH $end
$var parameter 4 d" ALU_OR $end
$var parameter 4 e" ALU_REM $end
$var parameter 4 f" ALU_REMU $end
$var parameter 4 g" ALU_SLL $end
$var parameter 4 h" ALU_SLT $end
$var parameter 4 i" ALU_SLTU $end
$var parameter 4 j" ALU_SRA $end
$var parameter 4 k" ALU_SRL $end
$var parameter 4 l" ALU_SUB $end
$var parameter 4 m" ALU_XOR $end
$var reg 32 n" alu_result [31:0] $end
$upscope $end
$scope module branch_unit $end
$var wire 1 0" branch $end
$var wire 3 o" funct3 [2:0] $end
$var wire 1 } less_than $end
$var wire 1 | less_than_u $end
$var wire 1 Y zero_flag $end
$var parameter 3 p" BEQ $end
$var parameter 3 q" BGE $end
$var parameter 3 r" BGEU $end
$var parameter 3 s" BLT $end
$var parameter 3 t" BLTU $end
$var parameter 3 u" BNE $end
$var reg 1 ." taken $end
$upscope $end
$scope module control_unit $end
$var wire 3 v" funct3 [2:0] $end
$var wire 7 w" funct7 [6:0] $end
$var wire 7 x" opcode [6:0] $end
$var parameter 4 y" ALU_ADD $end
$var parameter 4 z" ALU_AND $end
$var parameter 4 {" ALU_DIV $end
$var parameter 4 |" ALU_DIVU $end
$var parameter 4 }" ALU_MUL $end
$var parameter 4 ~" ALU_MULH $end
$var parameter 4 !# ALU_OR $end
$var parameter 4 "# ALU_REM $end
$var parameter 4 ## ALU_REMU $end
$var parameter 4 $# ALU_SLL $end
$var parameter 4 %# ALU_SLT $end
$var parameter 4 &# ALU_SLTU $end
$var parameter 4 '# ALU_SRA $end
$var parameter 4 (# ALU_SRL $end
$var parameter 4 )# ALU_SUB $end
$var parameter 4 *# ALU_XOR $end
$var parameter 3 +# F3_ADD_SUB $end
$var parameter 3 ,# F3_AND $end
$var parameter 3 -# F3_BEQ $end
$var parameter 3 .# F3_BGE $end
$var parameter 3 /# F3_BGEU $end
$var parameter 3 0# F3_BLT $end
$var parameter 3 1# F3_BLTU $end
$var parameter 3 2# F3_BNE $end
$var parameter 3 3# F3_BYTE $end
$var parameter 3 4# F3_BYTE_U $end
$var parameter 3 5# F3_DIV $end
$var parameter 3 6# F3_DIVU $end
$var parameter 3 7# F3_HALF $end
$var parameter 3 8# F3_HALF_U $end
$var parameter 3 9# F3_MUL $end
$var parameter 3 :# F3_MULH $end
$var parameter 3 ;# F3_OR $end
$var parameter 3 <# F3_REM $end
$var parameter 3 =# F3_REMU $end
$var parameter 3 ># F3_SLL $end
$var parameter 3 ?# F3_SLT $end
$var parameter 3 @# F3_SLTU $end
$var parameter 3 A# F3_SRL_SRA $end
$var parameter 3 B# F3_WORD $end
$var parameter 3 C# F3_XOR $end
$var parameter 7 D# F7_DEFAULT $end
$var parameter 7 E# F7_MULDIV $end
$var parameter 7 F# F7_SUB_SRA $end
$var parameter 7 G# OP_AUIPC $end
$var parameter 7 H# OP_BRANCH $end
$var parameter 7 I# OP_I_TYPE $end
$var parameter 7 J# OP_JAL $end
$var parameter 7 K# OP_JALR $end
$var parameter 7 L# OP_LOAD $end
$var parameter 7 M# OP_LUI $end
$var parameter 7 N# OP_R_TYPE $end
$var parameter 7 O# OP_STORE $end
$var reg 4 P# alu_control [3:0] $end
$var reg 2 Q# aluop [1:0] $end
$var reg 1 1" alusrc $end
$var reg 1 /" branch $end
$var reg 2 R# byte_size [1:0] $end
$var reg 1 ~ jump $end
$var reg 1 p memread $end
$var reg 1 o memtoreg $end
$var reg 1 n memwrite $end
$var reg 1 a regwrite $end
$upscope $end
$scope module fwd_unit $end
$var wire 5 S# rd_mem [4:0] $end
$var wire 5 T# rd_wb [4:0] $end
$var wire 1 S regwrite_mem $end
$var wire 1 T regwrite_wb $end
$var wire 5 U# rs1_ex [4:0] $end
$var wire 5 V# rs2_ex [4:0] $end
$var reg 2 W# forward_a [1:0] $end
$var reg 2 X# forward_b [1:0] $end
$upscope $end
$scope module hazard_unit $end
$var wire 1 O branch_taken $end
$var wire 1 ," flush_id_ex $end
$var wire 1 +" flush_if_id $end
$var wire 1 . imem_ready $end
$var wire 1 Y# load_use_hazard $end
$var wire 1 Z# lsu_dependency_stall $end
$var wire 1 q memread_id_ex $end
$var wire 5 [# rd_id_ex [4:0] $end
$var wire 5 \# rs1_id [4:0] $end
$var wire 5 ]# rs2_id [4:0] $end
$var wire 1 ^ stall $end
$var wire 1 ] stall_if $end
$var wire 32 ^# lsu_scoreboard [31:0] $end
$var wire 1 _# imem_stall $end
$upscope $end
$scope module if_id_reg $end
$var wire 1 * clock $end
$var wire 1 +" flush $end
$var wire 1 / reset $end
$var wire 1 W stall $end
$var wire 32 `# pc_in [31:0] $end
$var wire 32 a# instr_in [31:0] $end
$var parameter 32 b# NOP $end
$var reg 32 c# instr_out [31:0] $end
$var reg 32 d# pc_out [31:0] $end
$upscope $end
$scope module immediate_generator $end
$var wire 32 e# instr [31:0] $end
$var wire 7 f# opcode [6:0] $end
$var parameter 7 g# OP_AUIPC $end
$var parameter 7 h# OP_BRANCH $end
$var parameter 7 i# OP_I_TYPE $end
$var parameter 7 j# OP_JAL $end
$var parameter 7 k# OP_JALR $end
$var parameter 7 l# OP_LOAD $end
$var parameter 7 m# OP_LUI $end
$var parameter 7 n# OP_R_TYPE $end
$var parameter 7 o# OP_STORE $end
$var reg 32 p# imm [31:0] $end
$upscope $end
$scope module instruction_fetch $end
$var wire 32 q# PC_out [31:0] $end
$var wire 1 * clock $end
$var wire 32 r# imem_addr [31:0] $end
$var wire 32 s# imem_rdata [31:0] $end
$var wire 1 . imem_ready $end
$var wire 1 ! imem_valid $end
$var wire 1 O pc_src $end
$var wire 1 / reset $end
$var wire 1 W stall $end
$var wire 32 t# target_pc [31:0] $end
$var wire 32 u# next_pc [31:0] $end
$var wire 32 v# Instruction_Code [31:0] $end
$var reg 32 w# PC [31:0] $end
$var reg 32 x# instr_hold [31:0] $end
$upscope $end
$scope module lsu_unit $end
$var wire 1 * clk $end
$var wire 32 y# dmem_rdata [31:0] $end
$var wire 1 , dmem_ready $end
$var wire 32 z# req_addr [31:0] $end
$var wire 3 {# req_funct3 [2:0] $end
$var wire 1 G req_is_load $end
$var wire 5 |# req_rd [4:0] $end
$var wire 1 C req_valid $end
$var wire 32 }# req_wdata [31:0] $end
$var wire 4 ~# req_wstrb [3:0] $end
$var wire 1 !$ result_ack $end
$var wire 32 "$ result_data [31:0] $end
$var wire 5 #$ result_rd [4:0] $end
$var wire 1 s result_valid $end
$var wire 1 / rst $end
$var wire 32 $$ scoreboard [31:0] $end
$var wire 1 v req_ready $end
$var wire 1 %$ queue_full $end
$var wire 1 &$ queue_empty $end
$var parameter 2 '$ IDLE $end
$var parameter 2 ($ PROCESS $end
$var parameter 32 )$ QUEUE_DEPTH $end
$var parameter 2 *$ WAIT_MEM $end
$var reg 3 +$ count [2:0] $end
$var reg 32 ,$ current_addr [31:0] $end
$var reg 3 -$ current_funct3 [2:0] $end
$var reg 1 .$ current_is_load $end
$var reg 5 /$ current_rd [4:0] $end
$var reg 32 0$ current_wdata [31:0] $end
$var reg 4 1$ current_wstrb [3:0] $end
$var reg 32 2$ dmem_addr [31:0] $end
$var reg 1 z dmem_valid $end
$var reg 32 3$ dmem_wdata [31:0] $end
$var reg 1 x dmem_we $end
$var reg 4 4$ dmem_wstrb [3:0] $end
$var reg 2 5$ rd_ptr [1:0] $end
$var reg 32 6$ result_buffer_data [31:0] $end
$var reg 5 7$ result_buffer_rd [4:0] $end
$var reg 1 8$ result_buffer_valid $end
$var reg 32 9$ scoreboard_reg [31:0] $end
$var reg 2 :$ state [1:0] $end
$var reg 2 ;$ wr_ptr [1:0] $end
$var integer 32 <$ i [31:0] $end
$upscope $end
$scope module register_file $end
$var wire 1 * clock $end
$var wire 5 =$ read_reg_num1 [4:0] $end
$var wire 5 >$ read_reg_num2 [4:0] $end
$var wire 1 T regwrite $end
$var wire 1 / reset $end
$var wire 32 ?$ write_data [31:0] $end
$var wire 5 @$ write_reg [4:0] $end
$var wire 32 A$ read_data2 [31:0] $end
$var wire 32 B$ read_data1 [31:0] $end
$var integer 32 C$ i [31:0] $end
$upscope $end
$upscope $end
$scope task check_reg $end
$var reg 32 D$ actual [31:0] $end
$var reg 32 E$ expected [31:0] $end
$var reg 256 F$ name [255:0] $end
$var reg 5 G$ rn [4:0] $end
$upscope $end
$scope task print_summary $end
$upscope $end
$upscope $end
$enddefinitions $end
$comment Show the parameter values. $end
$dumpall
b1 *$
b100 )$
b10 ($
b0 '$
b100011 o#
b110011 n#
b110111 m#
b11 l#
b1100111 k#
b1101111 j#
b10011 i#
b1100011 h#
b10111 g#
b10011 b#
b100011 O#
b110011 N#
b110111 M#
b11 L#
b1100111 K#
b1101111 J#
b10011 I#
b1100011 H#
b10111 G#
b100000 F#
b1 E#
b0 D#
b100 C#
b10 B#
b101 A#
b11 @#
b10 ?#
b1 >#
b111 =#
b110 <#
b110 ;#
b1 :#
b0 9#
b101 8#
b1 7#
b101 6#
b100 5#
b100 4#
b0 3#
b1 2#
b110 1#
b100 0#
b111 /#
b101 .#
b0 -#
b111 ,#
b0 +#
b100 *#
b1 )#
b110 (#
b111 '#
b1001 &#
b1000 %#
b101 $#
b1111 ##
b1110 "#
b11 !#
b1011 ~"
b1010 }"
b1101 |"
b1100 {"
b10 z"
b0 y"
b1 u"
b110 t"
b100 s"
b111 r"
b101 q"
b0 p"
b100 m"
b1 l"
b110 k"
b111 j"
b1001 i"
b1000 h"
b101 g"
b1111 f"
b1110 e"
b11 d"
b1011 c"
b1010 b"
b1101 a"
b1100 `"
b10 _"
b0 ^"
b1001110001000 )
b1010 (
$end
#0
$dumpvars
bx G$
bx F$
bx E$
bx D$
b100000 C$
b0 B$
b0 A$
b0 @$
b0 ?$
b0 >$
b0 =$
b100 <$
b0 ;$
b0 :$
b0 9$
08$
b0 7$
b0 6$
b0 5$
b0 4$
b0 3$
b0 2$
b0 1$
b0 0$
b0 /$
0.$
b0 -$
b0 ,$
b0 +$
1&$
0%$
b0 $$
b0 #$
b0 "$
z!$
b1 ~#
b0 }#
b0 |#
b0 {#
b0 z#
b0 y#
b10011 x#
b0 w#
bx v#
b100 u#
b0 t#
bx s#
b0 r#
b0 q#
b0 p#
b10011 f#
b10011 e#
b0 d#
b10011 c#
bx a#
b0 `#
0_#
b0 ^#
b0 ]#
b0 \#
b0 [#
0Z#
0Y#
b0 X#
b0 W#
b0 V#
b0 U#
b0 T#
b0 S#
b10 R#
b10 Q#
b0 P#
b10011 x"
b0 w"
b0 v"
b0 o"
b0 n"
b0 ]"
b0 \"
b0 ["
b0 Z"
b0 Y"
b0 X"
b0 W"
b0 V"
b0 U"
b0 T"
0S"
0R"
b0 Q"
b0 P"
b0 O"
b0 N"
b0 M"
b0 L"
b0 K"
b0 J"
b0 I"
0H"
0G"
0F"
b0 E"
0D"
0C"
b0 B"
b0 A"
b0 @"
b0 ?"
b1 >"
b0 ="
b0 <"
b0 ;"
b0 :"
b0 9"
b0 8"
b0 7"
b0 6"
b0 5"
b0 4"
b0 3"
02"
11"
00"
0/"
0."
b10 -"
0,"
0+"
b0 *"
b0 )"
b0 ("
b0 '"
b0 &"
b0 %"
b0 $"
b10011 #"
bx ""
0!"
0~
0}
0|
b0 {
0z
b0 y
0x
b0 w
1v
b0 u
b0 t
0s
b0 r
0q
0p
0o
0n
b0 m
b10011 l
b0 k
b0 j
b0 i
b100 h
b0 g
b0 f
b0 e
b0 d
b0 c
b0 b
1a
b0 `
b0 _
0^
0]
b0 \
b0 [
b0 Z
1Y
b0 X
0W
b0 V
b0 U
0T
0S
0R
b0 Q
b0 P
0O
b0 N
b0 M
0L
0K
0J
0I
0H
0G
b0 F
b0 E
b1 D
0C
0B
0A
b0 @
bx ?
b0 >
b0 =
b0 <
b0 ;
b0 :
b0 9
b0 8
b0 7
b0 6
b0 5
b0 4
b0 3
b0 2
b100000000 1
b0 0
1/
1.
bx -
1,
b0 +
0*
b0 '
0&
b0 %
0$
b0 #
b0 "
1!
$end
#5000
b101000000000011110010011 ""
b101000000000011110010011 a#
b101000000000011110010011 v#
b101000000000011110010011 -
b101000000000011110010011 ?
b101000000000011110010011 s#
b100 <$
b100000 C$
1*
#10000
0*
#15000
b100000 C$
b100 <$
1*
#20000
0*
#25000
b100 <$
b100000 C$
1*
#30000
0*
#35000
b100000 C$
b100 <$
1*
#40000
0*
0/
#45000
b1010 $"
b1010 p#
b1010 _
b1010 ]#
b1010 >$
b1111 f
b1000 u#
b100 M
b100 K"
b10011 m
b10011 I"
b10 6
b10 ="
12"
1R
1S"
b101000000000011110010011 #"
b101000000000011110010011 c#
b101000000000011110010011 e#
b101000000000011110010011 x#
b100 i
b100 `#
b100 q#
b100 "
b100 &"
b100 r#
b100 w#
1*
#50000
0*
#55000
0Y
b1010 3"
b1010 n"
b1100 u#
1}
b1010 ["
1|
b1010 5"
b1010 Z"
b1010 @
b1010 \
b1010 t#
b1111 D
b1111 ~#
b1111 >"
b10100000000011100010011 ""
b10100000000011100010011 a#
b10100000000011100010011 v#
b1000 i
b1000 `#
b1000 q#
b1000 "
b1000 &"
b1000 r#
b1000 w#
b100 j
b100 d#
b1111 g
b1111 N"
b1111 [#
b1010 V
b1010 V#
b1010 U"
b1010 %"
b1010 B"
b10 7
b10 <"
1S
1R"
b100 N
b100 L"
b10100000000011100010011 -
b10100000000011100010011 ?
b10100000000011100010011 s#
1*
#60000
0*
#65000
b1110 \
b1110 t#
b101 $"
b101 p#
b101 _
b101 ]#
b101 >$
b1110 f
b10000 u#
b111101110000010100110011 ""
b111101110000010100110011 a#
b111101110000010100110011 v#
1T
b1111 P
b1111 S#
b1111 |#
b1111 M"
b1010 4
b1010 :"
b1010 z#
b1000 h
b100 k
b100 J"
b1000 j
b1000 d#
b10100000000011100010011 #"
b10100000000011100010011 c#
b10100000000011100010011 e#
b10100000000011100010011 x#
b1100 i
b1100 `#
b1100 q#
b1100 "
b1100 &"
b1100 r#
b1100 w#
b111101110000010100110011 -
b111101110000010100110011 ?
b111101110000010100110011 s#
1*
#70000
0*
#75000
b1010 b
b1010 A$
b0 d
b0 B$
b10 Q#
01"
1a
b101 3"
b101 n"
b1010 Z
b1010 ?$
b10100 u#
b0 $"
b0 p#
b110011 f#
b1111 _
b1111 ]#
b1111 >$
b1110 `
b1110 \#
b1110 =$
b1010 f
b110011 l
b110011 x"
b101 ["
b101 5"
b101 Z"
b100 @
b1101 \
b1101 t#
b1010 [
b1101111 ""
b1101111 a#
b1101111 v#
b10000 i
b10000 `#
b10000 q#
b10000 "
b10000 &"
b10000 r#
b10000 w#
b111101110000010100110011 x#
b1100 j
b1100 d#
b111101110000010100110011 #"
b111101110000010100110011 c#
b111101110000010100110011 e#
b1110 g
b1110 N"
b1110 [#
b101 V
b101 V#
b101 U"
b1100 h
b1000 k
b1000 J"
b101 %"
b101 B"
b1000 M
b1000 K"
b1111 Q
b1111 O"
b1111 T#
b1111 @$
b1010 5
b1010 ;"
b1101111 -
b1101111 ?
b1101111 s#
1*
#80000
0*
#85000
b110010 ]"
b101 Y"
b110010 \"
b101 7"
b101 X"
b101 6"
b1010 4"
0Y
b1111 3"
b1111 n"
b0 b
b0 A$
1~
b0 Q#
1a
b1 )"
b1 X#
b10 *"
b10 W#
b100 @
b1100 \
b1100 t#
1}
b1010 ["
1|
b1010 5"
b1010 Z"
b1101111 f#
b0 _
b0 ]#
b0 >$
b0 `
b0 \#
b0 =$
b0 f
b1101111 l
b1101111 x"
b11000 u#
b10011 ""
b10011 a#
b10011 v#
b1000 N
b1000 L"
b1110 P
b1110 S#
b1110 |#
b1110 M"
b1100 M
b1100 K"
b101 4
b101 :"
b101 z#
b110011 m
b110011 I"
b1010 g
b1010 N"
b1010 [#
b1111 V
b1111 V#
b1111 U"
b1110 U
b1110 U#
b1110 T"
b10000 h
b1100 k
b1100 J"
b0 %"
b0 B"
b1010 c
b1010 Q"
02"
b10000 j
b10000 d#
b1101111 #"
b1101111 c#
b1101111 e#
b1101111 x#
b10100 i
b10100 `#
b10100 q#
b10100 "
b10100 &"
b10100 r#
b10100 w#
b10011 -
b10011 ?
b10011 s#
1*
#90000
0*
#95000
b0 @
1Y
b0 3"
b0 n"
0}
b0 ["
0|
b0 5"
b0 Z"
b0 ]"
b0 Y"
b0 \"
b0 7"
b0 X"
b0 4"
b10 Q#
11"
0~
1a
1,"
b101 Z
b101 ?$
b10000 u#
b10011 f#
b10011 l
b10011 x"
b10000 \
b10000 t#
1+"
1O
b0 6"
b0 )"
b0 X#
b0 *"
b0 W#
b101 [
b11000 i
b11000 `#
b11000 q#
b11000 "
b11000 &"
b11000 r#
b11000 w#
b10011 x#
b10100 j
b10100 d#
b10011 #"
b10011 c#
b10011 e#
b1101111 m
b1101111 I"
b0 g
b0 N"
b0 [#
b0 V
b0 V#
b0 U"
b0 U
b0 U#
b0 T"
b10100 h
b10000 k
b10000 J"
b0 c
b0 Q"
1!"
b1010 P
b1010 S#
b1010 |#
b1010 M"
b10000 M
b10000 K"
b1010 X
b1010 }#
b1010 V"
b1111 4
b1111 :"
b1111 z#
b1110 Q
b1110 O"
b1110 T#
b1110 @$
b1100 N
b1100 L"
b101 5
b101 ;"
1*
#100000
0*
#105000
b1111 Z
b1111 ?$
0,"
b10100 u#
b1111 [
b0 \
b0 t#
0+"
0O
b1010 Q
b1010 O"
b1010 T#
b1010 @$
b10000 N
b10000 L"
b1111 5
b1111 ;"
b0 P
b0 S#
b0 |#
b0 M"
b10100 M
b10100 K"
b0 X
b0 }#
b0 V"
b0 4
b0 :"
b0 z#
1A
1C"
b0 m
b0 I"
b0 6
b0 ="
b100 h
b0 k
b0 J"
0!"
0R
0S"
b0 j
b0 d#
b10000 i
b10000 `#
b10000 q#
b10000 "
b10000 &"
b10000 r#
b10000 w#
1*
#110000
0*
#115000
b11000 u#
b1 D
b1 ~#
b1 >"
b10100 Z
b10100 ?$
b0 [
b10100 i
b10100 `#
b10100 q#
b10100 "
b10100 &"
b10100 r#
b10100 w#
b10000 j
b10000 d#
b10011 m
b10011 I"
b10 6
b10 ="
12"
1R
1S"
b0 7
b0 <"
b100 M
b100 K"
0A
0C"
0S
0R"
b0 Q
b0 O"
b0 T#
b0 @$
1B
b10100 N
b10100 L"
b0 5
b0 ;"
1*
#120000
0*
#125000
b0 Z
b0 ?$
b1111 D
b1111 ~#
b1111 >"
b10000 \
b10000 t#
b11100 u#
0B
0T
b100 N
b100 L"
b10 7
b10 <"
1S
1R"
b10100 h
b10000 k
b10000 J"
b10100 j
b10100 d#
b11000 i
b11000 `#
b11000 q#
b11000 "
b11000 &"
b11000 r#
b11000 w#
1*
#130000
0*
#135000
b100000 u#
b10100 \
b10100 t#
b11100 i
b11100 `#
b11100 q#
b11100 "
b11100 &"
b11100 r#
b11100 w#
b11000 j
b11000 d#
b11000 h
b10100 k
b10100 J"
b10100 M
b10100 K"
1T
1*
#140000
0*
#145000
b11000 \
b11000 t#
b100100 u#
b10100 N
b10100 L"
b11000 M
b11000 K"
b11100 h
b11000 k
b11000 J"
b11100 j
b11100 d#
b100000 i
b100000 `#
b100000 q#
b100000 "
b100000 &"
b100000 r#
b100000 w#
1*
#150000
0*
#155000
b101000 u#
b11100 \
b11100 t#
b100100 i
b100100 `#
b100100 q#
b100100 "
b100100 &"
b100100 r#
b100100 w#
b100000 j
b100000 d#
b100000 h
b11100 k
b11100 J"
b11100 M
b11100 K"
b11000 N
b11000 L"
1*
#160000
0*
#165000
b100000 \
b100000 t#
b101100 u#
b11100 N
b11100 L"
b100000 M
b100000 K"
b100100 h
b100000 k
b100000 J"
b100100 j
b100100 d#
b101000 i
b101000 `#
b101000 q#
b101000 "
b101000 &"
b101000 r#
b101000 w#
1*
#170000
0*
#175000
b110000 u#
b100100 \
b100100 t#
b101100 i
b101100 `#
b101100 q#
b101100 "
b101100 &"
b101100 r#
b101100 w#
b101000 j
b101000 d#
b101000 h
b100100 k
b100100 J"
b100100 M
b100100 K"
b100000 N
b100000 L"
1*
#180000
0*
#185000
b101000 \
b101000 t#
b110100 u#
b100100 N
b100100 L"
b101000 M
b101000 K"
b101100 h
b101000 k
b101000 J"
b101100 j
b101100 d#
b110000 i
b110000 `#
b110000 q#
b110000 "
b110000 &"
b110000 r#
b110000 w#
1*
#190000
0*
#195000
b111000 u#
b101100 \
b101100 t#
b110100 i
b110100 `#
b110100 q#
b110100 "
b110100 &"
b110100 r#
b110100 w#
b110000 j
b110000 d#
b110000 h
b101100 k
b101100 J"
b101100 M
b101100 K"
b101000 N
b101000 L"
1*
#200000
0*
#205000
b110000 \
b110000 t#
b111100 u#
b101100 N
b101100 L"
b110000 M
b110000 K"
b110100 h
b110000 k
b110000 J"
b110100 j
b110100 d#
b111000 i
b111000 `#
b111000 q#
b111000 "
b111000 &"
b111000 r#
b111000 w#
1*
#210000
0*
#215000
b1000000 u#
b110100 \
b110100 t#
b111100 i
b111100 `#
b111100 q#
b111100 "
b111100 &"
b111100 r#
b111100 w#
b111000 j
b111000 d#
b111000 h
b110100 k
b110100 J"
b110100 M
b110100 K"
b110000 N
b110000 L"
1*
#220000
0*
#225000
b111000 \
b111000 t#
b1000100 u#
b110100 N
b110100 L"
b111000 M
b111000 K"
b111100 h
b111000 k
b111000 J"
b111100 j
b111100 d#
b1000000 i
b1000000 `#
b1000000 q#
b1000000 "
b1000000 &"
b1000000 r#
b1000000 w#
1*
#230000
0*
#235000
b1001000 u#
b111100 \
b111100 t#
b1000100 i
b1000100 `#
b1000100 q#
b1000100 "
b1000100 &"
b1000100 r#
b1000100 w#
b1000000 j
b1000000 d#
b1000000 h
b111100 k
b111100 J"
b111100 M
b111100 K"
b111000 N
b111000 L"
1*
#240000
0*
b11 2
b1111 D$
b1000001010001000100010000100000001000000111100000110001001100000010000000111101001000000110000100101011011000100010000000111101001000000011000100110101001000000010100001110010011001010111001101110101011011000111010000101001 F$
b1111 E$
b1010 G$
