tb_ascon_axi_slave.vcd
$date
	Mon Mar 16 13:30:49 2026
$end
$version
	Icarus Verilog
$end
$timescale
	1ps
$end
$scope module tb_ascon_axi_slave $end
$var wire 1 ! M_ARREADY $end
$var wire 1 " M_AWREADY $end
$var wire 4 # M_BID [3:0] $end
$var wire 2 $ M_BRESP [1:0] $end
$var wire 1 % M_BVALID $end
$var wire 32 & M_RDATA [31:0] $end
$var wire 4 ' M_RID [3:0] $end
$var wire 1 ( M_RLAST $end
$var wire 2 ) M_RRESP [1:0] $end
$var wire 1 * M_RVALID $end
$var wire 1 + M_WREADY $end
$var wire 128 , core_data_in [127:0] $end
$var wire 7 - core_data_len [6:0] $end
$var wire 1 . core_enc_dec $end
$var wire 128 / core_key [127:0] $end
$var wire 2 0 core_mode_out [1:0] $end
$var wire 128 1 core_nonce [127:0] $end
$var wire 1 2 core_soft_rst_out $end
$var wire 1 3 core_start_out $end
$var wire 32 4 dma_dst_addr [31:0] $end
$var wire 1 5 dma_en $end
$var wire 32 6 dma_length [31:0] $end
$var wire 1 7 dma_soft_rst_out $end
$var wire 32 8 dma_src_addr [31:0] $end
$var wire 1 9 dma_start_out $end
$var wire 1 : irq $end
$var reg 32 ; M_ARADDR [31:0] $end
$var reg 4 < M_ARID [3:0] $end
$var reg 3 = M_ARPROT [2:0] $end
$var reg 1 > M_ARVALID $end
$var reg 32 ? M_AWADDR [31:0] $end
$var reg 4 @ M_AWID [3:0] $end
$var reg 3 A M_AWPROT [2:0] $end
$var reg 1 B M_AWVALID $end
$var reg 1 C M_BREADY $end
$var reg 1 D M_RREADY $end
$var reg 32 E M_WDATA [31:0] $end
$var reg 4 F M_WSTRB [3:0] $end
$var reg 1 G M_WVALID $end
$var reg 1 H clk $end
$var reg 1 I core_busy $end
$var reg 128 J core_data_out [127:0] $end
$var reg 1 K core_data_out_valid $end
$var reg 1 L core_done $end
$var reg 128 M core_tag_out [127:0] $end
$var reg 1 N core_tag_valid $end
$var reg 1 O dma_busy $end
$var reg 1 P dma_done $end
$var reg 1 Q dma_error $end
$var integer 32 R fail_count [31:0] $end
$var reg 1 S obs_core_soft_rst $end
$var reg 1 T obs_core_start $end
$var reg 1 U obs_dma_soft_rst $end
$var reg 1 V obs_dma_start $end
$var integer 32 W pass_count [31:0] $end
$var reg 32 X rd_data_cap [31:0] $end
$var reg 4 Y rd_id_cap [3:0] $end
$var reg 2 Z rd_resp_cap [1:0] $end
$var reg 1 [ rst_n $end
$scope module dut $end
$var wire 32 \ S_AXI_ARADDR [31:0] $end
$var wire 4 ] S_AXI_ARID [3:0] $end
$var wire 3 ^ S_AXI_ARPROT [2:0] $end
$var wire 1 _ S_AXI_ARVALID $end
$var wire 32 ` S_AXI_AWADDR [31:0] $end
$var wire 4 a S_AXI_AWID [3:0] $end
$var wire 3 b S_AXI_AWPROT [2:0] $end
$var wire 1 c S_AXI_AWVALID $end
$var wire 1 d S_AXI_BREADY $end
$var wire 1 ( S_AXI_RLAST $end
$var wire 1 e S_AXI_RREADY $end
$var wire 32 f S_AXI_WDATA [31:0] $end
$var wire 4 g S_AXI_WSTRB [3:0] $end
$var wire 1 h S_AXI_WVALID $end
$var wire 1 i clk $end
$var wire 1 j core_busy $end
$var wire 128 k core_data_in [127:0] $end
$var wire 7 l core_data_len [6:0] $end
$var wire 128 m core_data_out [127:0] $end
$var wire 1 n core_data_out_valid $end
$var wire 1 o core_done $end
$var wire 1 . core_enc_dec $end
$var wire 128 p core_key [127:0] $end
$var wire 2 q core_mode [1:0] $end
$var wire 128 r core_nonce [127:0] $end
$var wire 128 s core_tag_out [127:0] $end
$var wire 1 t core_tag_valid $end
$var wire 1 u dma_busy $end
$var wire 1 v dma_done $end
$var wire 32 w dma_dst_addr [31:0] $end
$var wire 1 5 dma_en $end
$var wire 1 x dma_error $end
$var wire 32 y dma_length [31:0] $end
$var wire 32 z dma_src_addr [31:0] $end
$var wire 1 : irq $end
$var wire 1 { rst_n $end
$var wire 32 | status_word [31:0] $end
$var reg 1 } S_AXI_ARREADY $end
$var reg 1 ~ S_AXI_AWREADY $end
$var reg 4 !" S_AXI_BID [3:0] $end
$var reg 2 "" S_AXI_BRESP [1:0] $end
$var reg 1 #" S_AXI_BVALID $end
$var reg 32 $" S_AXI_RDATA [31:0] $end
$var reg 4 %" S_AXI_RID [3:0] $end
$var reg 2 &" S_AXI_RRESP [1:0] $end
$var reg 1 '" S_AXI_RVALID $end
$var reg 1 (" S_AXI_WREADY $end
$var reg 1 )" core_soft_rst $end
$var reg 1 *" core_start $end
$var reg 1 +" dma_soft_rst $end
$var reg 1 ," dma_start $end
$var reg 12 -" rd_addr_lat [11:0] $end
$var reg 32 ." rd_data_lat [31:0] $end
$var reg 4 /" rd_id_lat [3:0] $end
$var reg 2 0" rd_state [1:0] $end
$var reg 32 1" reg_ctext_0 [31:0] $end
$var reg 32 2" reg_ctext_1 [31:0] $end
$var reg 32 3" reg_dma_dst [31:0] $end
$var reg 1 4" reg_dma_en $end
$var reg 32 5" reg_dma_len [31:0] $end
$var reg 32 6" reg_dma_src [31:0] $end
$var reg 3 7" reg_irq_en [2:0] $end
$var reg 32 8" reg_key_0 [31:0] $end
$var reg 32 9" reg_key_1 [31:0] $end
$var reg 32 :" reg_key_2 [31:0] $end
$var reg 32 ;" reg_key_3 [31:0] $end
$var reg 2 <" reg_mode [1:0] $end
$var reg 32 =" reg_nonce_0 [31:0] $end
$var reg 32 >" reg_nonce_1 [31:0] $end
$var reg 32 ?" reg_nonce_2 [31:0] $end
$var reg 32 @" reg_nonce_3 [31:0] $end
$var reg 32 A" reg_ptext_0 [31:0] $end
$var reg 32 B" reg_ptext_1 [31:0] $end
$var reg 32 C" reg_tag_0 [31:0] $end
$var reg 32 D" reg_tag_1 [31:0] $end
$var reg 32 E" reg_tag_2 [31:0] $end
$var reg 32 F" reg_tag_3 [31:0] $end
$var reg 1 G" status_dma_done $end
$var reg 1 H" status_dma_error $end
$var reg 1 I" status_done $end
$var reg 1 J" status_error $end
$var reg 12 K" wr_addr_lat [11:0] $end
$var reg 32 L" wr_data_lat [31:0] $end
$var reg 32 M" wr_exec_data [31:0] $end
$var reg 4 N" wr_exec_strb [3:0] $end
$var reg 4 O" wr_id_lat [3:0] $end
$var reg 2 P" wr_state [1:0] $end
$var reg 4 Q" wr_strb_lat [3:0] $end
$scope function apply_strb $end
$var reg 32 R" apply_strb [31:0] $end
$var reg 32 S" new_val [31:0] $end
$var reg 32 T" old_val [31:0] $end
$var reg 4 U" strb [3:0] $end
$upscope $end
$scope function reg_read_mux $end
$var reg 12 V" addr [11:0] $end
$var reg 32 W" reg_read_mux [31:0] $end
$upscope $end
$upscope $end
$scope begin tc21 $end
$var integer 32 X" i [31:0] $end
$var integer 32 Y" pcs [31:0] $end
$var integer 32 Z" pds [31:0] $end
$upscope $end
$scope begin tc22 $end
$var integer 32 [" i [31:0] $end
$var integer 32 \" pcr [31:0] $end
$var integer 32 ]" pdr [31:0] $end
$upscope $end
$scope task apply_reset $end
$upscope $end
$scope task axi_read $end
$var reg 32 ^" addr [31:0] $end
$var reg 4 _" id [3:0] $end
$var integer 32 `" rready_delay [31:0] $end
$var integer 32 a" t [31:0] $end
$upscope $end
$scope task axi_write $end
$var reg 32 b" addr [31:0] $end
$var integer 32 c" bready_delay [31:0] $end
$var reg 32 d" data [31:0] $end
$var reg 4 e" id [3:0] $end
$var reg 4 f" strb [3:0] $end
$var integer 32 g" t [31:0] $end
$upscope $end
$scope task axi_write_data_first $end
$var reg 32 h" addr [31:0] $end
$var reg 32 i" data [31:0] $end
$var reg 4 j" id [3:0] $end
$var reg 4 k" strb [3:0] $end
$var integer 32 l" t [31:0] $end
$upscope $end
$scope task check $end
$var reg 1 m" cond $end
$var reg 1024 n" msg [1023:0] $end
$var reg 1024 o" tc_name [1023:0] $end
$upscope $end
$scope task clear_pulse_flags $end
$upscope $end
$scope task wait_cycles $end
$var integer 32 p" i [31:0] $end
$var integer 32 q" n [31:0] $end
$upscope $end
$upscope $end
$enddefinitions $end
#0
$dumpvars
bx q"
bx p"
bx o"
bx n"
xm"
bx l"
bx k"
bx j"
bx i"
bx h"
bx g"
bx f"
bx e"
bx d"
bx c"
bx b"
bx a"
bx `"
bx _"
bx ^"
bx ]"
bx \"
bx ["
bx Z"
bx Y"
bx X"
bx W"
bx V"
bx U"
bx T"
bx S"
bx R"
b0 Q"
b0 P"
b0 O"
b0 N"
b0 M"
b0 L"
b0 K"
0J"
0I"
0H"
0G"
b0 F"
b0 E"
b0 D"
b0 C"
b0 B"
b0 A"
b0 @"
b0 ?"
b0 >"
b0 ="
b0 <"
b0 ;"
b0 :"
b0 9"
b0 8"
b0 7"
b0 6"
b1000 5"
04"
b0 3"
b0 2"
b0 1"
b0 0"
b0 /"
b0 ."
b0 -"
0,"
0+"
0*"
0)"
1("
0'"
b0 &"
b0 %"
b0 $"
0#"
b0 ""
b0 !"
1~
1}
b0 |
0{
b0 z
b1000 y
0x
b0 w
0v
0u
0t
b0 s
b0 r
b0 q
b0 p
0o
0n
b0 m
b1000 l
b0 k
0j
0i
0h
b1111 g
b0 f
0e
0d
0c
b0 b
b0 a
b0 `
0_
b0 ^
b0 ]
b0 \
0[
bx Z
bx Y
bx X
b0 W
0V
0U
0T
0S
b0 R
0Q
0P
0O
0N
b0 M
0L
0K
b0 J
0I
0H
0G
b1111 F
b0 E
0D
0C
0B
b0 A
b0 @
b0 ?
0>
b0 =
b0 <
b0 ;
0:
09
b0 8
07
b1000 6
05
b0 4
03
02
b0 1
b0 0
b0 /
0.
b1000 -
b0 ,
1+
0*
b0 )
1(
b0 '
b0 &
0%
b0 $
b0 #
1"
1!
$end
#5000
1H
1i
#10000
0H
0i
#15000
1H
1i
#20000
0H
0i
#25000
1H
1i
#30000
0H
0i
#35000
1H
1i
#40000
0H
0i
#45000
1H
1i
#50000
0H
0i
#55000
1H
1i
#56000
1[
1{
#60000
0H
0i
#65000
1H
1i
#70000
0H
0i
#75000
0[
0{
b1100 W
b110001101101111011100100110010101011111011001000110000101110100011000010101111101101100011001010110111000111101001110000010000000101000011000110110111101101110011100110111010001100001011011100111010000101001 n"
1m"
b10101000100001100110001 o"
1H
1i
#80000
0H
0i
#85000
1H
1i
#90000
0H
0i
#95000
1H
1i
#100000
0H
0i
#105000
1H
1i
#110000
0H
0i
#115000
1H
1i
#120000
0H
0i
#125000
1H
1i
#130000
0H
0i
#135000
1H
1i
#136000
1[
1{
#140000
0H
0i
#145000
1H
1i
#150000
0H
0i
#155000
b0 c"
b1 e"
b1111 f"
b10 d"
b100000000000000000000000001000 b"
1H
1i
#160000
0H
0i
#165000
1H
1i
#166000
b0 g"
1G
1h
b10 E
b10 f
1B
1c
b100000000000000000000000001000 ?
b100000000000000000000000001000 `
b1 @
b1 a
#170000
0H
0i
#175000
b1 P"
0~
0"
b1 O"
b1000 K"
0("
0+
b1111 Q"
b10 L"
1H
1i
#176000
0B
0c
#180000
0H
0i
#185000
b10 P"
1("
1+
1#"
1%
b1 !"
b1 #
b10 <"
b10 0
b10 q
b1111 N"
b10 M"
1H
1i
#186000
b1 g"
#190000
0H
0i
#195000
1H
1i
#196000
b0 g"
1C
1d
0G
0h
#200000
0H
0i
#205000
b11 P"
1~
1"
1H
1i
#206000
b0 p"
b1 q"
0C
0d
#210000
0H
0i
#215000
b0 P"
0#"
0%
b0 `"
b10 _"
b100000000000000000000000001000 ^"
b1 p"
1H
1i
#220000
0H
0i
#225000
1H
1i
#226000
b0 a"
1>
1_
b100000000000000000000000001000 ;
b100000000000000000000000001000 \
b10 <
b10 ]
#230000
0H
0i
#235000
b1 0"
0}
0!
b10 ."
b10 /"
b1000 -"
b10 W"
b1000 V"
1H
1i
#236000
1D
1e
0>
0_
#240000
0H
0i
#245000
b10 %"
b10 '
b10 $"
b10 &
1'"
1*
1H
1i
#246000
b0 Z
b10 Y
b10 X
b1 a"
#250000
0H
0i
#255000
b0 0"
1}
1!
0'"
0*
1H
1i
#256000
b111 d"
b100000000000000000000000001100 b"
b1110 W
b100110101001111010001000100010100100000011100100110010101100001011001000010000001010010010100100100010101010011010100000011110101001111010010110100000101011001 n"
b10101000100001100110010 o"
0D
0e
#260000
0H
0i
#265000
1H
1i
#266000
1G
1h
b111 E
b111 f
1B
1c
b100000000000000000000000001100 ?
b100000000000000000000000001100 `
#270000
0H
0i
#275000
b1 P"
0~
0"
b1100 K"
0("
0+
b111 L"
1H
1i
#276000
0B
0c
#280000
0H
0i
#285000
b10 P"
1("
1+
1#"
1%
b111 7"
b111 M"
1H
1i
#286000
b1 g"
#290000
0H
0i
#295000
1H
1i
#296000
b0 g"
1C
1d
0G
0h
#300000
0H
0i
#305000
b11 P"
1~
1"
1H
1i
#306000
b0 p"
0C
0d
#310000
0H
0i
#315000
b0 P"
0#"
0%
b100000000000000000000000001100 ^"
b1 p"
1H
1i
#320000
0H
0i
#325000
1H
1i
#326000
b0 a"
1>
1_
b100000000000000000000000001100 ;
b100000000000000000000000001100 \
#330000
0H
0i
#335000
b1 0"
0}
0!
b111 ."
b1100 -"
b111 W"
b1100 V"
1H
1i
#336000
1D
1e
0>
0_
#340000
0H
0i
#345000
b111 $"
b111 &
1'"
1*
1H
1i
#346000
b111 X
b1 a"
#350000
0H
0i
#355000
b0 0"
1}
1!
0'"
0*
1H
1i
#356000
b11011110101011010000000000000000 d"
b100000000000000000000100000000 b"
b1111 W
b1001001010100100101000101011111010001010100111000111101001100000111100000110111001000000111011101110010011010010111010001100101001011110111001001100101011000010110010001100010011000010110001101101011 n"
0D
0e
#360000
0H
0i
#365000
1H
1i
#366000
1G
1h
b11011110101011010000000000000000 E
b11011110101011010000000000000000 f
1B
1c
b100000000000000000000100000000 ?
b100000000000000000000100000000 `
#370000
0H
0i
#375000
b1 P"
0~
0"
b100000000 K"
0("
0+
b11011110101011010000000000000000 L"
1H
1i
#376000
0B
0c
#380000
0H
0i
#385000
b10 P"
1("
1+
1#"
1%
b11011110101011010000000000000000 6"
b11011110101011010000000000000000 8
b11011110101011010000000000000000 z
b11011110101011010000000000000000 R"
b1111 U"
b11011110101011010000000000000000 S"
b0 T"
b11011110101011010000000000000000 M"
1H
1i
#386000
b1 g"
#390000
0H
0i
#395000
1H
1i
#396000
b0 g"
1C
1d
0G
0h
#400000
0H
0i
#405000
b11 P"
1~
1"
1H
1i
#406000
b11001010111111100000000000000000 d"
b100000000000000000000100000100 b"
0C
0d
#410000
0H
0i
#415000
b0 P"
0#"
0%
1H
1i
#416000
1G
1h
b11001010111111100000000000000000 E
b11001010111111100000000000000000 f
1B
1c
b100000000000000000000100000100 ?
b100000000000000000000100000100 `
#420000
0H
0i
#425000
b1 P"
0~
0"
b100000100 K"
0("
0+
b11001010111111100000000000000000 L"
1H
1i
#426000
0B
0c
#430000
0H
0i
#435000
b10 P"
1("
1+
1#"
1%
b11001010111111100000000000000000 3"
b11001010111111100000000000000000 4
b11001010111111100000000000000000 w
b11001010111111100000000000000000 R"
b11001010111111100000000000000000 S"
b11001010111111100000000000000000 M"
1H
1i
#436000
b1 g"
#440000
0H
0i
#445000
1H
1i
#446000
b0 g"
1C
1d
0G
0h
#450000
0H
0i
#455000
b11 P"
1~
1"
1H
1i
#456000
b10000 d"
b100000000000000000000100001000 b"
0C
0d
#460000
0H
0i
#465000
b0 P"
0#"
0%
1H
1i
#466000
1G
1h
b10000 E
b10000 f
1B
1c
b100000000000000000000100001000 ?
b100000000000000000000100001000 `
#470000
0H
0i
#475000
b1 P"
0~
0"
b100001000 K"
0("
0+
b10000 L"
1H
1i
#476000
0B
0c
#480000
0H
0i
#485000
b10 P"
1("
1+
1#"
1%
b10000 5"
b10000 6
b10000 y
b10000 R"
b10000 S"
b1000 T"
b10000 M"
1H
1i
#486000
b1 g"
#490000
0H
0i
#495000
1H
1i
#496000
b0 g"
1C
1d
0G
0h
#500000
0H
0i
#505000
b11 P"
1~
1"
1H
1i
#506000
b0 p"
0C
0d
#510000
0H
0i
#515000
b0 P"
0#"
0%
b1 _"
b100000000000000000000100000000 ^"
b1 p"
1H
1i
#520000
0H
0i
#525000
1H
1i
#526000
b0 a"
1>
1_
b100000000000000000000100000000 ;
b100000000000000000000100000000 \
b1 <
b1 ]
#530000
0H
0i
#535000
b1 0"
0}
0!
b11011110101011010000000000000000 ."
b1 /"
b100000000 -"
b11011110101011010000000000000000 W"
b100000000 V"
1H
1i
#536000
1D
1e
0>
0_
#540000
0H
0i
#545000
b1 %"
b1 '
b11011110101011010000000000000000 $"
b11011110101011010000000000000000 &
1'"
1*
1H
1i
#546000
b1 Y
b11011110101011010000000000000000 X
b1 a"
#550000
0H
0i
#555000
b0 0"
1}
1!
0'"
0*
1H
1i
#556000
b100000000000000000000100000100 ^"
b10000 W
b1000100010011010100000101011111010100110101001001000011001000000111001001100101011000010110010001100010011000010110001101101011 n"
0D
0e
#560000
0H
0i
#565000
1H
1i
#566000
b0 a"
1>
1_
b100000000000000000000100000100 ;
b100000000000000000000100000100 \
#570000
0H
0i
#575000
b1 0"
0}
0!
b11001010111111100000000000000000 ."
b100000100 -"
b11001010111111100000000000000000 W"
b100000100 V"
1H
1i
#576000
1D
1e
0>
0_
#580000
0H
0i
#585000
b11001010111111100000000000000000 $"
b11001010111111100000000000000000 &
1'"
1*
1H
1i
#586000
b11001010111111100000000000000000 X
b1 a"
#590000
0H
0i
#595000
b0 0"
1}
1!
0'"
0*
1H
1i
#596000
b100000000000000000000100001000 ^"
b10001 W
b1000100010011010100000101011111010001000101001101010100001000000111001001100101011000010110010001100010011000010110001101101011 n"
0D
0e
#600000
0H
0i
#605000
1H
1i
#606000
b0 a"
1>
1_
b100000000000000000000100001000 ;
b100000000000000000000100001000 \
#610000
0H
0i
#615000
b1 0"
0}
0!
b10000 ."
b100001000 -"
b10000 W"
b100001000 V"
1H
1i
#616000
1D
1e
0>
0_
#620000
0H
0i
#625000
b10000 $"
b10000 &
1'"
1*
1H
1i
#626000
b10000 X
b1 a"
#630000
0H
0i
#635000
b0 0"
1}
1!
0'"
0*
1H
1i
#636000
b1 d"
b100000000000000000000000001000 b"
b10101 W
b11001000110110101100001010111110110110001100101011011100110011101110100011010000010000001110111011010010111001001100101 n"
0D
0e
#640000
0H
0i
#645000
1H
1i
#646000
1G
1h
b1 E
b1 f
1B
1c
b100000000000000000000000001000 ?
b100000000000000000000000001000 `
#650000
0H
0i
#655000
b1 P"
0~
0"
b1000 K"
0("
0+
b1 L"
1H
1i
#656000
0B
0c
#660000
0H
0i
#665000
1.
b10 P"
1("
1+
1#"
1%
b1 <"
b1 0
b1 q
b1 M"
1H
1i
#666000
b1 g"
#670000
0H
0i
#675000
1H
1i
#676000
b0 g"
1C
1d
0G
0h
#680000
0H
0i
#685000
b11 P"
1~
1"
1H
1i
#686000
b0 p"
0C
0d
#690000
0H
0i
#695000
0.
b1000 5"
b1000 6
b1000 y
b0 3"
b0 4
b0 w
b0 6"
b0 8
b0 z
b0 7"
b0 <"
b0 0
b0 q
b0 N"
b0 M"
b0 Q"
b0 L"
b0 O"
b0 K"
b0 !"
b0 #
0#"
0%
b0 P"
b0 ."
b0 /"
b0 -"
b0 %"
b0 '
b0 $"
b0 &
b0 ;
b0 \
b0 <
b0 ]
b0 E
b0 f
b0 ?
b0 `
b0 @
b0 a
0[
0{
b10111 W
b110001101101111011100100110010101011111011011010110111101100100011001010010000001110111011010010111001001100101 n"
b1 p"
1H
1i
#700000
0H
0i
#705000
1H
1i
#710000
0H
0i
#715000
1H
1i
#720000
0H
0i
#725000
1H
1i
#730000
0H
0i
#735000
1H
1i
#740000
0H
0i
#745000
1H
1i
#750000
0H
0i
#755000
1H
1i
#756000
1[
1{
#760000
0H
0i
#765000
1H
1i
#770000
0H
0i
#775000
b10101010101110111100110011011101 d"
b100000000000000000000000010000 b"
1H
1i
#780000
0H
0i
#785000
1H
1i
#786000
1G
1h
b10101010101110111100110011011101 E
b10101010101110111100110011011101 f
1B
1c
b100000000000000000000000010000 ?
b100000000000000000000000010000 `
b1 @
b1 a
#790000
0H
0i
#795000
b1 P"
0~
0"
b1 O"
b10000 K"
0("
0+
b1111 Q"
b10101010101110111100110011011101 L"
1H
1i
#796000
0B
0c
#800000
0H
0i
#805000
b10 P"
1("
1+
1#"
1%
b1 !"
b1 #
b10101010101110111100110011011101 8"
b10101010101110111100110011011101000000000000000000000000000000000000000000000000000000000000000000000000000000000000000000000000 /
b10101010101110111100110011011101000000000000000000000000000000000000000000000000000000000000000000000000000000000000000000000000 p
b10101010101110111100110011011101 R"
b10101010101110111100110011011101 S"
b0 T"
b1111 N"
b10101010101110111100110011011101 M"
1H
1i
#806000
b1 g"
#810000
0H
0i
#815000
1H
1i
#816000
b0 g"
1C
1d
0G
0h
#820000
0H
0i
#825000
b11 P"
1~
1"
1H
1i
#826000
b10001001000100011001101000100 d"
b100000000000000000000000010100 b"
0C
0d
#830000
0H
0i
#835000
b0 P"
0#"
0%
1H
1i
#836000
1G
1h
b10001001000100011001101000100 E
b10001001000100011001101000100 f
1B
1c
b100000000000000000000000010100 ?
b100000000000000000000000010100 `
#840000
0H
0i
#845000
b1 P"
0~
0"
b10100 K"
0("
0+
b10001001000100011001101000100 L"
1H
1i
#846000
0B
0c
#850000
0H
0i
#855000
b10 P"
1("
1+
1#"
1%
b10001001000100011001101000100 9"
b10101010101110111100110011011101000100010010001000110011010001000000000000000000000000000000000000000000000000000000000000000000 /
b10101010101110111100110011011101000100010010001000110011010001000000000000000000000000000000000000000000000000000000000000000000 p
b10001001000100011001101000100 R"
b10001001000100011001101000100 S"
b10001001000100011001101000100 M"
1H
1i
#856000
b1 g"
#860000
0H
0i
#865000
1H
1i
#866000
b0 g"
1C
1d
0G
0h
#870000
0H
0i
#875000
b11 P"
1~
1"
1H
1i
#876000
b1010101011001100111011110001000 d"
b100000000000000000000000011000 b"
0C
0d
#880000
0H
0i
#885000
b0 P"
0#"
0%
1H
1i
#886000
1G
1h
b1010101011001100111011110001000 E
b1010101011001100111011110001000 f
1B
1c
b100000000000000000000000011000 ?
b100000000000000000000000011000 `
#890000
0H
0i
#895000
b1 P"
0~
0"
b11000 K"
0("
0+
b1010101011001100111011110001000 L"
1H
1i
#896000
0B
0c
#900000
0H
0i
#905000
b10 P"
1("
1+
1#"
1%
b1010101011001100111011110001000 :"
b10101010101110111100110011011101000100010010001000110011010001000101010101100110011101111000100000000000000000000000000000000000 /
b10101010101110111100110011011101000100010010001000110011010001000101010101100110011101111000100000000000000000000000000000000000 p
b1010101011001100111011110001000 R"
b1010101011001100111011110001000 S"
b1010101011001100111011110001000 M"
1H
1i
#906000
b1 g"
#910000
0H
0i
#915000
1H
1i
#916000
b0 g"
1C
1d
0G
0h
#920000
0H
0i
#925000
b11 P"
1~
1"
1H
1i
#926000
b10011001101010101011101111001100 d"
b100000000000000000000000011100 b"
0C
0d
#930000
0H
0i
#935000
b0 P"
0#"
0%
1H
1i
#936000
1G
1h
b10011001101010101011101111001100 E
b10011001101010101011101111001100 f
1B
1c
b100000000000000000000000011100 ?
b100000000000000000000000011100 `
#940000
0H
0i
#945000
b1 P"
0~
0"
b11100 K"
0("
0+
b10011001101010101011101111001100 L"
1H
1i
#946000
0B
0c
#950000
0H
0i
#955000
b10 P"
1("
1+
1#"
1%
b10011001101010101011101111001100 ;"
b10101010101110111100110011011101000100010010001000110011010001000101010101100110011101111000100010011001101010101011101111001100 /
b10101010101110111100110011011101000100010010001000110011010001000101010101100110011101111000100010011001101010101011101111001100 p
b10011001101010101011101111001100 R"
b10011001101010101011101111001100 S"
b10011001101010101011101111001100 M"
1H
1i
#956000
b1 g"
#960000
0H
0i
#965000
1H
1i
#966000
b0 g"
1C
1d
0G
0h
#970000
0H
0i
#975000
b11 P"
1~
1"
1H
1i
#976000
b10010001101000101011001111000 d"
b100000000000000000000000100000 b"
0C
0d
#980000
0H
0i
#985000
b0 P"
0#"
0%
1H
1i
#986000
1G
1h
b10010001101000101011001111000 E
b10010001101000101011001111000 f
1B
1c
b100000000000000000000000100000 ?
b100000000000000000000000100000 `
#990000
0H
0i
#995000
b1 P"
0~
0"
b100000 K"
0("
0+
b10010001101000101011001111000 L"
1H
1i
#996000
0B
0c
#1000000
0H
0i
#1005000
b10 P"
1("
1+
1#"
1%
b10010001101000101011001111000 ="
b10010001101000101011001111000000000000000000000000000000000000000000000000000000000000000000000000000000000000000000000000000 1
b10010001101000101011001111000000000000000000000000000000000000000000000000000000000000000000000000000000000000000000000000000 r
b10010001101000101011001111000 R"
b10010001101000101011001111000 S"
b10010001101000101011001111000 M"
1H
1i
#1006000
b1 g"
#1010000
0H
0i
#1015000
1H
1i
#1016000
b0 g"
1C
1d
0G
0h
#1020000
0H
0i
#1025000
b11 P"
1~
1"
1H
1i
#1026000
b10101011110011011010101111001101 d"
b100000000000000000000000100100 b"
0C
0d
#1030000
0H
0i
#1035000
b0 P"
0#"
0%
1H
1i
#1036000
1G
1h
b10101011110011011010101111001101 E
b10101011110011011010101111001101 f
1B
1c
b100000000000000000000000100100 ?
b100000000000000000000000100100 `
#1040000
0H
0i
#1045000
b1 P"
0~
0"
b100100 K"
0("
0+
b10101011110011011010101111001101 L"
1H
1i
#1046000
0B
0c
#1050000
0H
0i
#1055000
b10 P"
1("
1+
1#"
1%
b10101011110011011010101111001101 >"
b10010001101000101011001111000101010111100110110101011110011010000000000000000000000000000000000000000000000000000000000000000 1
b10010001101000101011001111000101010111100110110101011110011010000000000000000000000000000000000000000000000000000000000000000 r
b10101011110011011010101111001101 R"
b10101011110011011010101111001101 S"
b10101011110011011010101111001101 M"
1H
1i
#1056000
b1 g"
#1060000
0H
0i
#1065000
1H
1i
#1066000
b0 g"
1C
1d
0G
0h
#1070000
0H
0i
#1075000
b11 P"
1~
1"
1H
1i
#1076000
b11011110111100001101111011110000 d"
b100000000000000000000000101000 b"
0C
0d
#1080000
0H
0i
#1085000
b0 P"
0#"
0%
1H
1i
#1086000
1G
1h
b11011110111100001101111011110000 E
b11011110111100001101111011110000 f
1B
1c
b100000000000000000000000101000 ?
b100000000000000000000000101000 `
#1090000
0H
0i
#1095000
b1 P"
0~
0"
b101000 K"
0("
0+
b11011110111100001101111011110000 L"
1H
1i
#1096000
0B
0c
#1100000
0H
0i
#1105000
b10 P"
1("
1+
1#"
1%
b11011110111100001101111011110000 ?"
b10010001101000101011001111000101010111100110110101011110011011101111011110000110111101111000000000000000000000000000000000000 1
b10010001101000101011001111000101010111100110110101011110011011101111011110000110111101111000000000000000000000000000000000000 r
b11011110111100001101111011110000 R"
b11011110111100001101111011110000 S"
b11011110111100001101111011110000 M"
1H
1i
#1106000
b1 g"
#1110000
0H
0i
#1115000
1H
1i
#1116000
b0 g"
1C
1d
0G
0h
#1120000
0H
0i
#1125000
b11 P"
1~
1"
1H
1i
#1126000
b10000111011001010100001100100001 d"
b100000000000000000000000101100 b"
0C
0d
#1130000
0H
0i
#1135000
b0 P"
0#"
0%
1H
1i
#1136000
1G
1h
b10000111011001010100001100100001 E
b10000111011001010100001100100001 f
1B
1c
b100000000000000000000000101100 ?
b100000000000000000000000101100 `
#1140000
0H
0i
#1145000
b1 P"
0~
0"
b101100 K"
0("
0+
b10000111011001010100001100100001 L"
1H
1i
#1146000
0B
0c
#1150000
0H
0i
#1155000
b10 P"
1("
1+
1#"
1%
b10000111011001010100001100100001 @"
b10010001101000101011001111000101010111100110110101011110011011101111011110000110111101111000010000111011001010100001100100001 1
b10010001101000101011001111000101010111100110110101011110011011101111011110000110111101111000010000111011001010100001100100001 r
b10000111011001010100001100100001 R"
b10000111011001010100001100100001 S"
b10000111011001010100001100100001 M"
1H
1i
#1156000
b1 g"
#1160000
0H
0i
#1165000
1H
1i
#1166000
b0 g"
1C
1d
0G
0h
#1170000
0H
0i
#1175000
b11 P"
1~
1"
1H
1i
#1176000
b11011110101011011011111011101111 d"
b100000000000000000000000110000 b"
0C
0d
#1180000
0H
0i
#1185000
b0 P"
0#"
0%
1H
1i
#1186000
1G
1h
b11011110101011011011111011101111 E
b11011110101011011011111011101111 f
1B
1c
b100000000000000000000000110000 ?
b100000000000000000000000110000 `
#1190000
0H
0i
#1195000
b1 P"
0~
0"
b110000 K"
0("
0+
b11011110101011011011111011101111 L"
1H
1i
#1196000
0B
0c
#1200000
0H
0i
#1205000
b10 P"
1("
1+
1#"
1%
b11011110101011011011111011101111 A"
b11011110101011011011111011101111000000000000000000000000000000000000000000000000000000000000000000000000000000000000000000000000 ,
b11011110101011011011111011101111000000000000000000000000000000000000000000000000000000000000000000000000000000000000000000000000 k
b11011110101011011011111011101111 R"
b11011110101011011011111011101111 S"
b11011110101011011011111011101111 M"
1H
1i
#1206000
b1 g"
#1210000
0H
0i
#1215000
1H
1i
#1216000
b0 g"
1C
1d
0G
0h
#1220000
0H
0i
#1225000
b11 P"
1~
1"
1H
1i
#1226000
b11001010111111101011101010111110 d"
b100000000000000000000000110100 b"
0C
0d
#1230000
0H
0i
#1235000
b0 P"
0#"
0%
1H
1i
#1236000
1G
1h
b11001010111111101011101010111110 E
b11001010111111101011101010111110 f
1B
1c
b100000000000000000000000110100 ?
b100000000000000000000000110100 `
#1240000
0H
0i
#1245000
b1 P"
0~
0"
b110100 K"
0("
0+
b11001010111111101011101010111110 L"
1H
1i
#1246000
0B
0c
#1250000
0H
0i
#1255000
b10 P"
1("
1+
1#"
1%
b11001010111111101011101010111110 B"
b11011110101011011011111011101111110010101111111010111010101111100000000000000000000000000000000000000000000000000000000000000000 ,
b11011110101011011011111011101111110010101111111010111010101111100000000000000000000000000000000000000000000000000000000000000000 k
b11001010111111101011101010111110 R"
b11001010111111101011101010111110 S"
b11001010111111101011101010111110 M"
1H
1i
