tb_ascon_dma.vcd
$date
	Sat Mar 28 16:25:08 2026
$end
$version
	Icarus Verilog
$end
$timescale
	1ps
$end
$scope module tb_ascon_dma $end
$var wire 2 ! M_AXI_ARBURST [1:0] $end
$var wire 4 " M_AXI_ARCACHE [3:0] $end
$var wire 3 # M_AXI_ARPROT [2:0] $end
$var wire 3 $ M_AXI_ARSIZE [2:0] $end
$var wire 2 % M_AXI_AWBURST [1:0] $end
$var wire 4 & M_AXI_AWCACHE [3:0] $end
$var wire 8 ' M_AXI_AWLEN [7:0] $end
$var wire 3 ( M_AXI_AWPROT [2:0] $end
$var wire 3 ) M_AXI_AWSIZE [2:0] $end
$var wire 8 * M_AXI_WSTRB [7:0] $end
$var wire 1 + status_wr_error $end
$var wire 1 , status_wr_done $end
$var wire 1 - status_rd_error $end
$var wire 1 . status_rd_done $end
$var wire 1 / status_fifo_overflow $end
$var wire 1 0 dma_error $end
$var wire 32 1 dma_err_addr [31:0] $end
$var wire 1 2 dma_done $end
$var wire 1 3 dma_busy $end
$var wire 1 4 core_start $end
$var wire 32 5 core_ptext_1 [31:0] $end
$var wire 32 6 core_ptext_0 [31:0] $end
$var wire 1 7 core_data_valid $end
$var wire 1 8 M_AXI_WVALID $end
$var wire 1 9 M_AXI_WLAST $end
$var wire 64 : M_AXI_WDATA [63:0] $end
$var wire 1 ; M_AXI_RREADY $end
$var wire 1 < M_AXI_BREADY $end
$var wire 1 = M_AXI_AWVALID $end
$var wire 4 > M_AXI_AWID [3:0] $end
$var wire 32 ? M_AXI_AWADDR [31:0] $end
$var wire 1 @ M_AXI_ARVALID $end
$var wire 8 A M_AXI_ARLEN [7:0] $end
$var wire 4 B M_AXI_ARID [3:0] $end
$var wire 32 C M_AXI_ARADDR [31:0] $end
$var parameter 32 D ADDR_WIDTH $end
$var parameter 32 E AXI_DATA_WIDTH $end
$var parameter 32 F AXI_ID_WIDTH $end
$var parameter 32 G CLK_PERIOD $end
$var parameter 32 H CORE_LATENCY $end
$var parameter 32 I MEM_SIZE $end
$var parameter 32 J RD_FIFO_DEPTH $end
$var parameter 1 K RS_DATA $end
$var parameter 1 L RS_IDLE $end
$var parameter 32 M WR_FIFO_DEPTH $end
$var parameter 2 N WS_ADDR $end
$var parameter 2 O WS_DATA $end
$var parameter 2 P WS_IDLE $end
$var parameter 2 Q WS_RESP $end
$var reg 1 R M_AXI_ARREADY $end
$var reg 1 S M_AXI_AWREADY $end
$var reg 4 T M_AXI_BID [3:0] $end
$var reg 2 U M_AXI_BRESP [1:0] $end
$var reg 1 V M_AXI_BVALID $end
$var reg 64 W M_AXI_RDATA [63:0] $end
$var reg 4 X M_AXI_RID [3:0] $end
$var reg 1 Y M_AXI_RLAST $end
$var reg 2 Z M_AXI_RRESP [1:0] $end
$var reg 1 [ M_AXI_RVALID $end
$var reg 1 \ M_AXI_WREADY $end
$var reg 4 ] axi_rd_delay [3:0] $end
$var reg 4 ^ axi_wr_delay [3:0] $end
$var reg 8 _ burst_len [7:0] $end
$var reg 32 ` byte_len [31:0] $end
$var reg 1 a clk $end
$var reg 1 b core_busy $end
$var reg 32 c core_ctext_0 [31:0] $end
$var reg 32 d core_ctext_1 [31:0] $end
$var reg 1 e core_data_ready $end
$var reg 1 f core_done $end
$var reg 8 g core_lat_cnt [7:0] $end
$var reg 1 h core_running $end
$var reg 32 i core_tag_0 [31:0] $end
$var reg 32 j core_tag_1 [31:0] $end
$var reg 32 k core_tag_2 [31:0] $end
$var reg 32 l core_tag_3 [31:0] $end
$var reg 1 m dma_soft_rst $end
$var reg 1 n dma_start $end
$var reg 1 o done_seen $end
$var reg 32 p dst_addr [31:0] $end
$var reg 1 q error_seen $end
$var reg 1 r force_rd_error $end
$var reg 1 s force_wr_error $end
$var reg 32 t rd_addr_lat [31:0] $end
$var reg 8 u rd_beats_rem [7:0] $end
$var reg 4 v rd_dly_cnt [3:0] $end
$var reg 1 w rd_state $end
$var reg 1 x rst_n $end
$var reg 32 y saved_p0 [31:0] $end
$var reg 32 z saved_p1 [31:0] $end
$var reg 32 { src_addr [31:0] $end
$var reg 32 | wr_addr_lat [31:0] $end
$var reg 3 } wr_beat_idx [2:0] $end
$var reg 4 ~ wr_dly_cnt [3:0] $end
$var reg 2 !" wr_state [1:0] $end
$var integer 32 "" fail_count [31:0] $end
$var integer 32 #" pass_count [31:0] $end
$scope function addr2idx $end
$var reg 32 $" a [31:0] $end
$upscope $end
$scope module dut $end
$var wire 2 %" M_AXI_ARBURST [1:0] $end
$var wire 4 &" M_AXI_ARCACHE [3:0] $end
$var wire 3 '" M_AXI_ARPROT [2:0] $end
$var wire 1 R M_AXI_ARREADY $end
$var wire 3 (" M_AXI_ARSIZE [2:0] $end
$var wire 2 )" M_AXI_AWBURST [1:0] $end
$var wire 4 *" M_AXI_AWCACHE [3:0] $end
$var wire 8 +" M_AXI_AWLEN [7:0] $end
$var wire 3 ," M_AXI_AWPROT [2:0] $end
$var wire 1 S M_AXI_AWREADY $end
$var wire 3 -" M_AXI_AWSIZE [2:0] $end
$var wire 4 ." M_AXI_BID [3:0] $end
$var wire 2 /" M_AXI_BRESP [1:0] $end
$var wire 1 V M_AXI_BVALID $end
$var wire 64 0" M_AXI_RDATA [63:0] $end
$var wire 4 1" M_AXI_RID [3:0] $end
$var wire 1 Y M_AXI_RLAST $end
$var wire 2 2" M_AXI_RRESP [1:0] $end
$var wire 1 [ M_AXI_RVALID $end
$var wire 1 \ M_AXI_WREADY $end
$var wire 8 3" M_AXI_WSTRB [7:0] $end
$var wire 8 4" burst_len [7:0] $end
$var wire 32 5" byte_len [31:0] $end
$var wire 1 a clk $end
$var wire 1 b core_busy $end
$var wire 32 6" core_ctext_0 [31:0] $end
$var wire 32 7" core_ctext_1 [31:0] $end
$var wire 1 e core_data_ready $end
$var wire 1 f core_done $end
$var wire 32 8" core_tag_0 [31:0] $end
$var wire 32 9" core_tag_1 [31:0] $end
$var wire 32 :" core_tag_2 [31:0] $end
$var wire 32 ;" core_tag_3 [31:0] $end
$var wire 1 0 dma_error $end
$var wire 1 m dma_soft_rst $end
$var wire 1 n dma_start $end
$var wire 32 <" dst_addr [31:0] $end
$var wire 1 x rst_n $end
$var wire 32 =" src_addr [31:0] $end
$var wire 1 - status_rd_error $end
$var wire 1 + status_wr_error $end
$var wire 1 >" wr_start_w $end
$var wire 1 ?" wr_fifo_push $end
$var wire 1 @" wr_fifo_pop $end
$var wire 1 A" wr_fifo_full $end
$var wire 1 B" wr_fifo_empty $end
$var wire 32 C" wr_fifo_dout [31:0] $end
$var wire 32 D" wr_fifo_din [31:0] $end
$var wire 4 E" wr_fifo_count [3:0] $end
$var wire 1 F" wr_error_w $end
$var wire 32 G" wr_err_addr_w [31:0] $end
$var wire 1 H" wr_done_w $end
$var wire 1 I" wr_busy_w $end
$var wire 1 , status_wr_done $end
$var wire 1 . status_rd_done $end
$var wire 1 / status_fifo_overflow $end
$var wire 1 J" rd_start_w $end
$var wire 1 K" rd_fifo_push $end
$var wire 1 L" rd_fifo_pop $end
$var wire 1 M" rd_fifo_full $end
$var wire 1 N" rd_fifo_empty $end
$var wire 64 O" rd_fifo_dout [63:0] $end
$var wire 64 P" rd_fifo_din [63:0] $end
$var wire 1 Q" rd_error_w $end
$var wire 32 R" rd_err_addr_w [31:0] $end
$var wire 1 S" rd_done_w $end
$var wire 1 T" rd_busy_w $end
$var wire 1 U" fsm_dma_error_w $end
$var wire 32 V" dma_err_addr [31:0] $end
$var wire 1 2 dma_done $end
$var wire 1 3 dma_busy $end
$var wire 1 4 core_start $end
$var wire 32 W" core_ptext_1 [31:0] $end
$var wire 32 X" core_ptext_0 [31:0] $end
$var wire 1 7 core_data_valid $end
$var wire 1 8 M_AXI_WVALID $end
$var wire 1 9 M_AXI_WLAST $end
$var wire 64 Y" M_AXI_WDATA [63:0] $end
$var wire 1 ; M_AXI_RREADY $end
$var wire 1 < M_AXI_BREADY $end
$var wire 1 = M_AXI_AWVALID $end
$var wire 4 Z" M_AXI_AWID [3:0] $end
$var wire 32 [" M_AXI_AWADDR [31:0] $end
$var wire 1 @ M_AXI_ARVALID $end
$var wire 8 \" M_AXI_ARLEN [7:0] $end
$var wire 4 ]" M_AXI_ARID [3:0] $end
$var wire 32 ^" M_AXI_ARADDR [31:0] $end
$var parameter 32 _" ADDR_WIDTH $end
$var parameter 32 `" AXI_DATA_WIDTH $end
$var parameter 32 a" AXI_ID_WIDTH $end
$var parameter 32 b" RD_FIFO_DEPTH $end
$var parameter 32 c" WR_FIFO_DEPTH $end
$scope module u_ctrl_fsm $end
$var wire 1 a clk $end
$var wire 1 b core_busy $end
$var wire 32 d" core_ctext_0 [31:0] $end
$var wire 32 e" core_ctext_1 [31:0] $end
$var wire 1 e core_data_ready $end
$var wire 1 f core_done $end
$var wire 32 f" core_tag_0 [31:0] $end
$var wire 32 g" core_tag_1 [31:0] $end
$var wire 32 h" core_tag_2 [31:0] $end
$var wire 32 i" core_tag_3 [31:0] $end
$var wire 1 m dma_soft_rst $end
$var wire 1 n dma_start $end
$var wire 1 x rst_n $end
$var wire 1 A" wr_fifo_full $end
$var wire 1 F" wr_error $end
$var wire 1 H" wr_done $end
$var wire 1 I" wr_busy $end
$var wire 1 N" rd_fifo_empty $end
$var wire 64 j" rd_fifo_dout [63:0] $end
$var wire 1 Q" rd_error $end
$var wire 1 S" rd_done $end
$var wire 1 T" rd_busy $end
$var parameter 4 k" S_CORE_START $end
$var parameter 4 l" S_CORE_WAIT $end
$var parameter 4 m" S_DONE $end
$var parameter 4 n" S_FIFO_LATCH $end
$var parameter 4 o" S_FIFO_WAIT $end
$var parameter 4 p" S_IDLE $end
$var parameter 4 q" S_RD_WAIT $end
$var parameter 4 r" S_WR_LOAD $end
$var parameter 4 s" S_WR_SETTLE $end
$var parameter 4 t" S_WR_START $end
$var parameter 4 u" S_WR_WAIT $end
$var reg 1 7 core_data_valid $end
$var reg 32 v" core_ptext_0 [31:0] $end
$var reg 32 w" core_ptext_1 [31:0] $end
$var reg 1 4 core_start $end
$var reg 1 3 dma_busy $end
$var reg 1 2 dma_done $end
$var reg 1 U" dma_error $end
$var reg 32 x" r_ctext_0 [31:0] $end
$var reg 32 y" r_ctext_1 [31:0] $end
$var reg 32 z" r_tag_0 [31:0] $end
$var reg 32 {" r_tag_1 [31:0] $end
$var reg 32 |" r_tag_2 [31:0] $end
$var reg 32 }" r_tag_3 [31:0] $end
$var reg 1 L" rd_fifo_pop $end
$var reg 1 J" rd_start $end
$var reg 4 ~" state [3:0] $end
$var reg 1 / status_fifo_overflow $end
$var reg 1 . status_rd_done $end
$var reg 1 , status_wr_done $end
$var reg 32 !# wr_fifo_din [31:0] $end
$var reg 1 ?" wr_fifo_push $end
$var reg 3 "# wr_load_cnt [2:0] $end
$var reg 1 >" wr_start $end
$upscope $end
$scope module u_rd_engine $end
$var wire 2 ## M_AXI_ARBURST [1:0] $end
$var wire 4 $# M_AXI_ARCACHE [3:0] $end
$var wire 3 %# M_AXI_ARPROT [2:0] $end
$var wire 1 R M_AXI_ARREADY $end
$var wire 3 &# M_AXI_ARSIZE [2:0] $end
$var wire 64 '# M_AXI_RDATA [63:0] $end
$var wire 4 (# M_AXI_RID [3:0] $end
$var wire 1 Y M_AXI_RLAST $end
$var wire 2 )# M_AXI_RRESP [1:0] $end
$var wire 1 [ M_AXI_RVALID $end
$var wire 8 *# burst_len [7:0] $end
$var wire 1 a clk $end
$var wire 1 J" rd_start $end
$var wire 1 x rst_n $end
$var wire 32 +# src_addr [31:0] $end
$var wire 1 M" fifo_full $end
$var parameter 32 ,# ADDR_WIDTH $end
$var parameter 32 -# AXI_DATA_WIDTH $end
$var parameter 32 .# AXI_ID_WIDTH $end
$var parameter 3 /# RD_ADDR $end
$var parameter 3 0# RD_DATA $end
$var parameter 3 1# RD_DONE $end
$var parameter 3 2# RD_IDLE $end
$var reg 32 3# M_AXI_ARADDR [31:0] $end
$var reg 4 4# M_AXI_ARID [3:0] $end
$var reg 8 5# M_AXI_ARLEN [7:0] $end
$var reg 1 @ M_AXI_ARVALID $end
$var reg 1 ; M_AXI_RREADY $end
$var reg 64 6# fifo_din [63:0] $end
$var reg 1 K" fifo_push $end
$var reg 1 T" rd_busy $end
$var reg 1 S" rd_done $end
$var reg 32 7# rd_err_addr [31:0] $end
$var reg 1 Q" rd_error $end
$var reg 3 8# state [2:0] $end
$upscope $end
$scope module u_rd_fifo $end
$var wire 1 a clk $end
$var wire 64 9# din [63:0] $end
$var wire 1 L" pop $end
$var wire 1 K" push $end
$var wire 1 x rst_n $end
$var wire 2 :# wr_idx [1:0] $end
$var wire 2 ;# rd_idx [1:0] $end
$var wire 1 M" full $end
$var wire 1 N" empty $end
$var wire 3 <# count [2:0] $end
$var parameter 32 =# DEPTH $end
$var parameter 32 ># PTR_W $end
$var parameter 32 ?# WIDTH $end
$var reg 64 @# dout [63:0] $end
$var reg 3 A# rd_ptr [2:0] $end
$var reg 3 B# wr_ptr [2:0] $end
$upscope $end
$scope module u_wr_engine $end
$var wire 2 C# M_AXI_AWBURST [1:0] $end
$var wire 4 D# M_AXI_AWCACHE [3:0] $end
$var wire 8 E# M_AXI_AWLEN [7:0] $end
$var wire 3 F# M_AXI_AWPROT [2:0] $end
$var wire 1 S M_AXI_AWREADY $end
$var wire 3 G# M_AXI_AWSIZE [2:0] $end
$var wire 4 H# M_AXI_BID [3:0] $end
$var wire 2 I# M_AXI_BRESP [1:0] $end
$var wire 1 V M_AXI_BVALID $end
$var wire 1 \ M_AXI_WREADY $end
$var wire 8 J# M_AXI_WSTRB [7:0] $end
$var wire 1 a clk $end
$var wire 32 K# dst_addr [31:0] $end
$var wire 1 x rst_n $end
$var wire 1 >" wr_start $end
$var wire 1 B" fifo_empty $end
$var wire 32 L# fifo_dout [31:0] $end
$var parameter 32 M# ADDR_WIDTH $end
$var parameter 32 N# AXI_DATA_WIDTH $end
$var parameter 32 O# AXI_ID_WIDTH $end
$var parameter 3 P# LAST_BEAT $end
$var parameter 3 Q# WR_ADDR $end
$var parameter 3 R# WR_BEAT $end
$var parameter 32 S# WR_BEATS $end
$var parameter 3 T# WR_IDLE $end
$var parameter 3 U# WR_LATCH_H $end
$var parameter 3 V# WR_LATCH_L $end
$var parameter 3 W# WR_RESP $end
$var parameter 3 X# WR_WAIT_H $end
$var parameter 3 Y# WR_WAIT_L $end
$var reg 32 Z# M_AXI_AWADDR [31:0] $end
$var reg 4 [# M_AXI_AWID [3:0] $end
$var reg 1 = M_AXI_AWVALID $end
$var reg 1 < M_AXI_BREADY $end
$var reg 64 \# M_AXI_WDATA [63:0] $end
$var reg 1 9 M_AXI_WLAST $end
$var reg 1 8 M_AXI_WVALID $end
$var reg 3 ]# beat_cnt [2:0] $end
$var reg 1 @" fifo_pop $end
$var reg 3 ^# state [2:0] $end
$var reg 32 _# wdata_hi [31:0] $end
$var reg 1 I" wr_busy $end
$var reg 1 H" wr_done $end
$var reg 32 `# wr_err_addr [31:0] $end
$var reg 1 F" wr_error $end
$upscope $end
$scope module u_wr_fifo $end
$var wire 1 a clk $end
$var wire 32 a# din [31:0] $end
$var wire 1 @" pop $end
$var wire 1 ?" push $end
$var wire 1 x rst_n $end
$var wire 3 b# wr_idx [2:0] $end
$var wire 3 c# rd_idx [2:0] $end
$var wire 1 A" full $end
$var wire 1 B" empty $end
$var wire 4 d# count [3:0] $end
$var parameter 32 e# DEPTH $end
$var parameter 32 f# PTR_W $end
$var parameter 32 g# WIDTH $end
$var reg 32 h# dout [31:0] $end
$var reg 4 i# rd_ptr [3:0] $end
$var reg 4 j# wr_ptr [3:0] $end
$upscope $end
$upscope $end
$scope begin TC2_mem $end
$var reg 64 k# b0 [63:0] $end
$var reg 64 l# b1 [63:0] $end
$var reg 64 m# b2 [63:0] $end
$upscope $end
$scope begin tc8_ar $end
$var integer 32 n# t [31:0] $end
$upscope $end
$scope begin tc9_aw $end
$var integer 32 o# t [31:0] $end
$upscope $end
$scope task apply_reset $end
$var integer 32 p# i [31:0] $end
$upscope $end
$scope task check $end
$var reg 1 q# cond $end
$var reg 256 r# msg [255:0] $end
$var reg 256 s# name [255:0] $end
$upscope $end
$scope task pulse_dma_start $end
$upscope $end
$scope task pulse_soft_rst $end
$upscope $end
$scope task wait_cycles $end
$var integer 32 t# i [31:0] $end
$var integer 32 u# n [31:0] $end
$upscope $end
$scope task wait_dma_done $end
$var integer 32 v# i [31:0] $end
$var integer 32 w# timeout_cyc [31:0] $end
$upscope $end
$upscope $end
$enddefinitions $end
$comment Show the parameter values. $end
$dumpall
b100000 g#
b11 f#
b1000 e#
b100 Y#
b10 X#
b111 W#
b101 V#
b11 U#
b0 T#
b11 S#
b110 R#
b1 Q#
b10 P#
b100 O#
b1000000 N#
b100000 M#
b1000000 ?#
b10 >#
b100 =#
b0 2#
b11 1#
b10 0#
b1 /#
b100 .#
b1000000 -#
b100000 ,#
b1010 u"
b1001 t"
b1000 s"
b111 r"
b10 q"
b0 p"
b11 o"
b100 n"
b1011 m"
b110 l"
b101 k"
b1000 c"
b100 b"
b100 a"
b1000000 `"
b100000 _"
b11 Q
b0 P
b10 O
b1 N
b1000 M
0L
1K
b100 J
b100000000 I
b1000 H
b1010 G
b100 F
b1000000 E
b100000 D
$end
#0
$dumpvars
bx w#
bx v#
bx u#
bx t#
bx s#
bx r#
xq#
b100000000 p#
bx o#
bx n#
bx m#
bx l#
bx k#
b0 j#
b0 i#
b0 h#
b0 d#
b0 c#
b0 b#
b0 a#
b0 `#
b0 _#
b0 ^#
b0 ]#
b0 \#
b0 [#
b0 Z#
b0 L#
b0 K#
b11111111 J#
b0 I#
b0 H#
b11 G#
b0 F#
b10 E#
b10 D#
b1 C#
b0 B#
b0 A#
b0 @#
b0 <#
b0 ;#
b0 :#
b0 9#
b0 8#
b0 7#
b0 6#
b0 5#
b0 4#
b0 3#
b0 +#
b0 *#
b0 )#
b0 (#
b0 '#
b11 &#
b0 %#
b10 $#
b1 ##
b0 "#
b0 !#
b0 ~"
b0 }"
b0 |"
b0 {"
b0 z"
b0 y"
b0 x"
b0 w"
b0 v"
b0 j"
b0 i"
b0 h"
b0 g"
b0 f"
b0 e"
b0 d"
b0 ^"
b0 ]"
b0 \"
b0 ["
b0 Z"
b0 Y"
b0 X"
b0 W"
b0 V"
0U"
0T"
0S"
b0 R"
0Q"
b0 P"
b0 O"
1N"
0M"
0L"
0K"
0J"
0I"
0H"
b0 G"
0F"
b0 E"
b0 D"
b0 C"
1B"
0A"
0@"
0?"
0>"
b0 ="
b0 <"
b0 ;"
b0 :"
b0 9"
b0 8"
b0 7"
b0 6"
b1000 5"
b0 4"
b11111111 3"
b0 2"
b0 1"
b0 0"
b0 /"
b0 ."
b11 -"
b0 ,"
b10 +"
b10 *"
b1 )"
b11 ("
b0 '"
b10 &"
b1 %"
bx $"
b0 #"
b0 ""
b0 !"
b0 ~
b0 }
bx |
b0 {
bx z
bx y
0x
0w
b0 v
b0 u
bx t
0s
0r
0q
b0 p
0o
0n
0m
b0 l
b0 k
b0 j
b0 i
0h
b0 g
0f
1e
b0 d
b0 c
0b
0a
b1000 `
b0 _
b0 ^
b0 ]
0\
0[
b0 Z
0Y
b0 X
b0 W
0V
b0 U
b0 T
0S
0R
b0 C
b0 B
b0 A
0@
b0 ?
b0 >
0=
0<
0;
b0 :
09
08
07
b0 6
b0 5
04
03
02
b0 1
00
0/
0.
0-
0,
0+
b11111111 *
b11 )
b0 (
b10 '
b10 &
b1 %
b11 $
b0 #
b10 "
b1 !
$end
#5000
1a
#10000
0a
#15000
1a
#20000
0a
#25000
1a
#30000
0a
#35000
1a
#40000
0a
#45000
1a
#50000
0a
#55000
1a
#56000
1x
#60000
0a
#65000
1a
#70000
0a
#75000
b100000000 p#
0x
b110 #"
b1000001010110000100100100100000010101110010000000100000011100110110100101101100011001010110111001110100001000000110000101100110011101000110010101110010001000000111001001100101011100110110010101110100 r#
1q#
b10101000100001100110001 s#
1a
#80000
0a
#85000
1a
#90000
0a
#95000
1a
#100000
0a
#105000
1a
#110000
0a
#115000
1a
#120000
0a
#125000
1a
#130000
0a
#135000
1a
#136000
1x
#140000
0a
#145000
1a
#150000
0a
#155000
b100000000 p
b100000000 <"
b100000000 K#
1a
#160000
0a
#165000
1a
#166000
1n
#170000
0a
#175000
b10 ~"
1J"
13
1a
#176000
0n
#180000
0a
#185000
b1 8#
1@
1T"
0J"
b0 v#
b100101100 w#
b111 #"
b1100100011011010110000101011111011000100111010101110011011110010011110100110001001000000110000101100110011101000110010101110010001000000111001101110100011000010111001001110100 r#
b10101000100001100110010 s#
1a
#190000
0a
#195000
1w
b0 t
1R
b1 v#
1a
#200000
0a
#205000
1Y
b1000000100000001100000100000001010000011000000111 W
b1000000100000001100000100000001010000011000000111 0"
b1000000100000001100000100000001010000011000000111 '#
1[
0R
b10 8#
1;
0@
b0 $"
b10 v#
1a
#210000
0a
#215000
b11 8#
0;
1K"
b1000000100000001100000100000001010000011000000111 P"
b1000000100000001100000100000001010000011000000111 6#
b1000000100000001100000100000001010000011000000111 9#
0w
0Y
0[
b11 v#
1a
#220000
0a
#225000
b1 :#
b0 8#
0T"
1S"
0K"
0N"
b1 <#
b1 B#
b100 v#
1a
#230000
0a
#235000
b11 ~"
1L"
1.
0S"
b101 v#
1a
#240000
0a
#245000
b1 ;#
b100 ~"
0L"
1N"
b0 <#
b1 A#
b1000000100000001100000100000001010000011000000111 O"
b1000000100000001100000100000001010000011000000111 j"
b1000000100000001100000100000001010000011000000111 @#
b110 v#
1a
#250000
0a
#255000
b101 ~"
17
b100000001010000011000000111 5
b100000001010000011000000111 W"
b100000001010000011000000111 w"
b10000001000000011 6
b10000001000000011 X"
b10000001000000011 v"
b111 v#
1a
#260000
0a
#265000
b110 ~"
14
07
b1000 v#
1a
#270000
0a
#275000
04
b100000001010000011000000111 z
b10000001000000011 y
1b
1h
b1001 v#
1a
#280000
0a
#285000
b1 g
b1010 v#
1a
#290000
0a
#295000
b10 g
b1011 v#
1a
#300000
0a
#305000
b11 g
b1100 v#
1a
#310000
0a
#315000
b100 g
b1101 v#
1a
#320000
0a
#325000
b101 g
b1110 v#
1a
#330000
0a
#335000
b110 g
b1111 v#
1a
#340000
0a
#345000
b111 g
b10000 v#
1a
#350000
0a
#355000
b10001001101010111100110111101111 l
b10001001101010111100110111101111 ;"
b10001001101010111100110111101111 i"
b1001000110100010101100111 k
b1001000110100010101100111 :"
b1001000110100010101100111 h"
b11001010111111101011101010111110 j
b11001010111111101011101010111110 9"
b11001010111111101011101010111110 g"
b11011110101011011011111011101111 i
b11011110101011011011111011101111 8"
b11011110101011011011111011101111 f"
b11111011111110101111100111111000 d
b11111011111110101111100111111000 7"
b11111011111110101111100111111000 e"
b11111111111111101111110111111100 c
b11111111111111101111110111111100 6"
b11111111111111101111110111111100 d"
1f
0b
0h
b1000 g
b10001 v#
1a
#360000
0a
#365000
0f
b111 ~"
b10001001101010111100110111101111 }"
b1001000110100010101100111 |"
b11001010111111101011101010111110 {"
b11011110101011011011111011101111 z"
b11111011111110101111100111111000 y"
b11111111111111101111110111111100 x"
b10010 v#
1a
#370000
0a
#375000
b1 "#
b11111111111111101111110111111100 D"
b11111111111111101111110111111100 !#
b11111111111111101111110111111100 a#
1?"
b10011 v#
1a
#380000
0a
#385000
b1 b#
b10 "#
b11111011111110101111100111111000 D"
b11111011111110101111100111111000 !#
b11111011111110101111100111111000 a#
1?"
0B"
b1 E"
b1 d#
b1 j#
b10100 v#
1a
#390000
0a
#395000
b10 b#
b10 E"
b10 d#
b10 j#
b11 "#
b11011110101011011011111011101111 D"
b11011110101011011011111011101111 !#
b11011110101011011011111011101111 a#
1?"
b10101 v#
1a
#400000
0a
#405000
b11 b#
b100 "#
b11001010111111101011101010111110 D"
b11001010111111101011101010111110 !#
b11001010111111101011101010111110 a#
1?"
b11 E"
b11 d#
b11 j#
b10110 v#
1a
#410000
0a
#415000
b100 b#
b100 E"
b100 d#
b100 j#
b101 "#
b1001000110100010101100111 D"
b1001000110100010101100111 !#
b1001000110100010101100111 a#
1?"
b10111 v#
1a
#420000
0a
#425000
b101 b#
b1000 ~"
b10001001101010111100110111101111 D"
b10001001101010111100110111101111 !#
b10001001101010111100110111101111 a#
1?"
b101 E"
b101 d#
b101 j#
b11000 v#
1a
#430000
0a
#435000
b110 b#
b110 E"
b110 d#
b110 j#
b1001 ~"
0?"
b11001 v#
1a
#440000
0a
#445000
b1010 ~"
1>"
b11010 v#
1a
#450000
0a
#455000
0>"
b1 ^#
1=
b100000000 ?
b100000000 ["
b100000000 Z#
1I"
b11011 v#
1a
#460000
0a
#465000
b1 !"
b100000000 |
1S
b11100 v#
1a
#470000
0a
#475000
b10 ^#
1@"
0=
b10 !"
0S
b11101 v#
1a
#480000
0a
#485000
b1 c#
b11 ^#
0@"
b101 E"
b101 d#
b1 i#
b11111111111111101111110111111100 C"
b11111111111111101111110111111100 L#
b11111111111111101111110111111100 h#
b11110 v#
1a
#490000
0a
#495000
b100 ^#
1@"
b11111111111111101111110111111100 _#
b11111 v#
1a
#500000
0a
#505000
b10 c#
b101 ^#
0@"
b100 E"
b100 d#
b10 i#
b11111011111110101111100111111000 C"
b11111011111110101111100111111000 L#
b11111011111110101111100111111000 h#
b100000 v#
1a
#510000
0a
#515000
b110 ^#
18
b1111111111111110111111011111110011111011111110101111100111111000 :
b1111111111111110111111011111110011111011111110101111100111111000 Y"
b1111111111111110111111011111110011111011111110101111100111111000 \#
b100001 v#
1a
#520000
0a
#525000
1\
b100010 v#
1a
#530000
0a
#535000
b10 ^#
1@"
b1 ]#
08
b1 }
b100000000 $"
b100011 v#
1a
#540000
0a
#545000
b11 c#
0\
b11 ^#
0@"
b11 E"
b11 d#
b11 i#
b11011110101011011011111011101111 C"
b11011110101011011011111011101111 L#
b11011110101011011011111011101111 h#
b100100 v#
1a
#550000
0a
#555000
b100 ^#
1@"
b11011110101011011011111011101111 _#
b100101 v#
1a
#560000
0a
#565000
b100 c#
b101 ^#
0@"
b10 E"
b10 d#
b100 i#
b11001010111111101011101010111110 C"
b11001010111111101011101010111110 L#
b11001010111111101011101010111110 h#
b100110 v#
1a
#570000
0a
#575000
b110 ^#
18
b1101111010101101101111101110111111001010111111101011101010111110 :
b1101111010101101101111101110111111001010111111101011101010111110 Y"
b1101111010101101101111101110111111001010111111101011101010111110 \#
b100111 v#
1a
#580000
0a
#585000
1\
b101000 v#
1a
#590000
0a
#595000
b10 ^#
1@"
b10 ]#
08
b10 }
b101001 v#
1a
#600000
0a
#605000
b101 c#
0\
b11 ^#
0@"
b1 E"
b1 d#
b101 i#
b1001000110100010101100111 C"
b1001000110100010101100111 L#
b1001000110100010101100111 h#
b101010 v#
1a
#610000
0a
#615000
b100 ^#
1@"
b1001000110100010101100111 _#
b101011 v#
1a
#620000
0a
#625000
b110 c#
b101 ^#
0@"
1B"
b0 E"
b0 d#
b110 i#
b10001001101010111100110111101111 C"
b10001001101010111100110111101111 L#
b10001001101010111100110111101111 h#
b101100 v#
1a
#630000
0a
#635000
b110 ^#
19
18
b100100011010001010110011110001001101010111100110111101111 :
b100100011010001010110011110001001101010111100110111101111 Y"
b100100011010001010110011110001001101010111100110111101111 \#
b101101 v#
1a
#640000
0a
#645000
1\
b101110 v#
1a
#650000
0a
#655000
b111 ^#
1<
09
08
b11 !"
0\
b101111 v#
1a
#660000
0a
#665000
1V
b110000 v#
1a
#670000
0a
#675000
b0 ^#
0I"
1H"
0<
b0 !"
0V
b110001 v#
1a
#680000
0a
#685000
b0 ]#
0H"
b1011 ~"
1,
b110010 v#
1a
#690000
0a
#695000
b0 ~"
03
12
b110011 v#
1a
#700000
0a
#705000
02
1o
b110100 v#
1a
#710000
0a
#715000
b0 t#
b11 u#
b110101 v#
1a
#720000
0a
#725000
b1 t#
1a
#730000
0a
#735000
b10 t#
1a
#740000
0a
#745000
b0 c#
b0 b#
b0 ;#
b0 :#
b0 l
b0 ;"
b0 i"
b0 k
b0 :"
b0 h"
b0 j
b0 9"
b0 g"
b0 i
b0 8"
b0 f"
b0 d
b0 7"
b0 e"
b0 c
b0 6"
b0 d"
b0 g
b0 }
b0 W
b0 0"
b0 '#
b0 _#
b0 :
b0 Y"
b0 \#
b0 ?
b0 ["
b0 Z#
b0 P"
b0 6#
b0 9#
b0 }"
b0 |"
b0 {"
b0 z"
b0 y"
b0 x"
0,
0.
b0 "#
b0 D"
b0 !#
b0 a#
b0 5
b0 W"
b0 w"
b0 6
b0 X"
b0 v"
b0 C"
b0 L#
b0 h#
b0 i#
1B"
b0 E"
b0 d#
b0 j#
b0 O"
b0 j"
b0 @#
b0 A#
1N"
b0 <#
b0 B#
b100000000 p#
0o
b0 p
b0 <"
b0 K#
0x
b100100011010001010110011110001001101010111100110111101111 m#
b1101111010101101101111101110111111001010111111101011101010111110 l#
b1111111111111110111111011111110011111011111110101111100111111000 k#
b1111 #"
b1000010011001010110000101110100001100100011101000100000011110110111010001100001011001110101111100110010001011000111010001100001011001110101111100110011011111010010000001100011011011110111001001110010011001010110001101110100 r#
b11 t#
1a
#750000
0a
#755000
1a
#760000
0a
#765000
1a
#770000
0a
#775000
1a
#780000
0a
#785000
1a
#790000
0a
#795000
1a
#800000
0a
#805000
1a
#806000
1x
#810000
0a
#815000
1a
#820000
0a
#825000
1r
b100001000 p
b100001000 <"
b100001000 K#
b1000 {
b1000 ="
b1000 +#
1a
#830000
0a
#835000
1a
#836000
1n
#840000
0a
#845000
b10 ~"
1J"
13
1a
#846000
b0 v#
b10010110 w#
0n
#850000
0a
#855000
0J"
b1 8#
1@
b1000 C
b1000 ^"
b1000 3#
1T"
b1 v#
1a
#860000
0a
