tb_ascon_dma.vcd
$date
	Tue Mar 10 15:14:21 2026
$end
$version
	Icarus Verilog
$end
$timescale
	1ps
$end
$scope module tb_ascon_dma $end
$var wire 32 ! M_AXI_ARADDR [31:0] $end
$var wire 2 " M_AXI_ARBURST [1:0] $end
$var wire 4 # M_AXI_ARCACHE [3:0] $end
$var wire 4 $ M_AXI_ARID [3:0] $end
$var wire 8 % M_AXI_ARLEN [7:0] $end
$var wire 3 & M_AXI_ARPROT [2:0] $end
$var wire 3 ' M_AXI_ARSIZE [2:0] $end
$var wire 1 ( M_AXI_ARVALID $end
$var wire 32 ) M_AXI_AWADDR [31:0] $end
$var wire 2 * M_AXI_AWBURST [1:0] $end
$var wire 4 + M_AXI_AWCACHE [3:0] $end
$var wire 4 , M_AXI_AWID [3:0] $end
$var wire 8 - M_AXI_AWLEN [7:0] $end
$var wire 3 . M_AXI_AWPROT [2:0] $end
$var wire 3 / M_AXI_AWSIZE [2:0] $end
$var wire 1 0 M_AXI_AWVALID $end
$var wire 1 1 M_AXI_BREADY $end
$var wire 1 2 M_AXI_RREADY $end
$var wire 64 3 M_AXI_WDATA [63:0] $end
$var wire 1 4 M_AXI_WLAST $end
$var wire 8 5 M_AXI_WSTRB [7:0] $end
$var wire 1 6 M_AXI_WVALID $end
$var wire 1 7 core_data_valid $end
$var wire 32 8 core_ptext_0 [31:0] $end
$var wire 32 9 core_ptext_1 [31:0] $end
$var wire 1 : core_start $end
$var wire 1 ; dma_busy $end
$var wire 1 < dma_done $end
$var wire 32 = dma_err_addr [31:0] $end
$var wire 1 > dma_error $end
$var wire 1 ? status_fifo_overflow $end
$var wire 1 @ status_rd_done $end
$var wire 1 A status_rd_error $end
$var wire 1 B status_wr_done $end
$var wire 1 C status_wr_error $end
$var reg 1 D M_AXI_ARREADY $end
$var reg 1 E M_AXI_AWREADY $end
$var reg 4 F M_AXI_BID [3:0] $end
$var reg 2 G M_AXI_BRESP [1:0] $end
$var reg 1 H M_AXI_BVALID $end
$var reg 64 I M_AXI_RDATA [63:0] $end
$var reg 4 J M_AXI_RID [3:0] $end
$var reg 1 K M_AXI_RLAST $end
$var reg 2 L M_AXI_RRESP [1:0] $end
$var reg 1 M M_AXI_RVALID $end
$var reg 1 N M_AXI_WREADY $end
$var reg 4 O axi_rd_delay [3:0] $end
$var reg 4 P axi_wr_delay [3:0] $end
$var reg 8 Q burst_len [7:0] $end
$var reg 32 R byte_len [31:0] $end
$var reg 1 S clk $end
$var reg 1 T core_busy $end
$var reg 32 U core_ctext_0 [31:0] $end
$var reg 32 V core_ctext_1 [31:0] $end
$var reg 1 W core_data_ready $end
$var reg 1 X core_done $end
$var reg 8 Y core_lat_cnt [7:0] $end
$var reg 1 Z core_running $end
$var reg 32 [ core_tag_0 [31:0] $end
$var reg 32 \ core_tag_1 [31:0] $end
$var reg 32 ] core_tag_2 [31:0] $end
$var reg 32 ^ core_tag_3 [31:0] $end
$var reg 1 _ dma_soft_rst $end
$var reg 1 ` dma_start $end
$var reg 1 a done_seen $end
$var reg 32 b dst_addr [31:0] $end
$var reg 1 c error_seen $end
$var integer 32 d fail_count [31:0] $end
$var reg 1 e force_rd_error $end
$var reg 1 f force_wr_error $end
$var integer 32 g pass_count [31:0] $end
$var reg 32 h rd_addr_lat [31:0] $end
$var reg 8 i rd_beats_rem [7:0] $end
$var reg 4 j rd_dly_cnt [3:0] $end
$var reg 1 k rd_state $end
$var reg 1 l rst_n $end
$var reg 32 m saved_p0 [31:0] $end
$var reg 32 n saved_p1 [31:0] $end
$var reg 32 o src_addr [31:0] $end
$var reg 32 p wr_addr_lat [31:0] $end
$var reg 3 q wr_beat_idx [2:0] $end
$var reg 4 r wr_dly_cnt [3:0] $end
$var reg 2 s wr_state [1:0] $end
$scope function addr2idx $end
$var reg 32 t a [31:0] $end
$var reg 8 u addr2idx [7:0] $end
$upscope $end
$scope module dut $end
$var wire 32 v M_AXI_ARADDR [31:0] $end
$var wire 2 w M_AXI_ARBURST [1:0] $end
$var wire 4 x M_AXI_ARCACHE [3:0] $end
$var wire 4 y M_AXI_ARID [3:0] $end
$var wire 8 z M_AXI_ARLEN [7:0] $end
$var wire 3 { M_AXI_ARPROT [2:0] $end
$var wire 1 | M_AXI_ARREADY $end
$var wire 3 } M_AXI_ARSIZE [2:0] $end
$var wire 1 ( M_AXI_ARVALID $end
$var wire 32 ~ M_AXI_AWADDR [31:0] $end
$var wire 2 !" M_AXI_AWBURST [1:0] $end
$var wire 4 "" M_AXI_AWCACHE [3:0] $end
$var wire 4 #" M_AXI_AWID [3:0] $end
$var wire 8 $" M_AXI_AWLEN [7:0] $end
$var wire 3 %" M_AXI_AWPROT [2:0] $end
$var wire 1 &" M_AXI_AWREADY $end
$var wire 3 '" M_AXI_AWSIZE [2:0] $end
$var wire 1 0 M_AXI_AWVALID $end
$var wire 4 (" M_AXI_BID [3:0] $end
$var wire 1 1 M_AXI_BREADY $end
$var wire 2 )" M_AXI_BRESP [1:0] $end
$var wire 1 *" M_AXI_BVALID $end
$var wire 64 +" M_AXI_RDATA [63:0] $end
$var wire 4 ," M_AXI_RID [3:0] $end
$var wire 1 -" M_AXI_RLAST $end
$var wire 1 2 M_AXI_RREADY $end
$var wire 2 ." M_AXI_RRESP [1:0] $end
$var wire 1 /" M_AXI_RVALID $end
$var wire 64 0" M_AXI_WDATA [63:0] $end
$var wire 1 4 M_AXI_WLAST $end
$var wire 1 1" M_AXI_WREADY $end
$var wire 8 2" M_AXI_WSTRB [7:0] $end
$var wire 1 6 M_AXI_WVALID $end
$var wire 8 3" burst_len [7:0] $end
$var wire 32 4" byte_len [31:0] $end
$var wire 1 5" clk $end
$var wire 1 6" core_busy $end
$var wire 32 7" core_ctext_0 [31:0] $end
$var wire 32 8" core_ctext_1 [31:0] $end
$var wire 1 9" core_data_ready $end
$var wire 1 7 core_data_valid $end
$var wire 1 :" core_done $end
$var wire 32 ;" core_ptext_0 [31:0] $end
$var wire 32 <" core_ptext_1 [31:0] $end
$var wire 1 : core_start $end
$var wire 32 =" core_tag_0 [31:0] $end
$var wire 32 >" core_tag_1 [31:0] $end
$var wire 32 ?" core_tag_2 [31:0] $end
$var wire 32 @" core_tag_3 [31:0] $end
$var wire 1 ; dma_busy $end
$var wire 1 < dma_done $end
$var wire 32 A" dma_err_addr [31:0] $end
$var wire 1 > dma_error $end
$var wire 1 B" dma_soft_rst $end
$var wire 1 C" dma_start $end
$var wire 32 D" dst_addr [31:0] $end
$var wire 1 E" fsm_dma_error_w $end
$var wire 1 F" rd_busy_w $end
$var wire 1 G" rd_done_w $end
$var wire 32 H" rd_err_addr_w [31:0] $end
$var wire 1 I" rd_error_w $end
$var wire 64 J" rd_fifo_din [63:0] $end
$var wire 64 K" rd_fifo_dout [63:0] $end
$var wire 1 L" rd_fifo_empty $end
$var wire 1 M" rd_fifo_full $end
$var wire 1 N" rd_fifo_pop $end
$var wire 1 O" rd_fifo_push $end
$var wire 1 P" rd_start_w $end
$var wire 1 Q" rst_n $end
$var wire 32 R" src_addr [31:0] $end
$var wire 1 ? status_fifo_overflow $end
$var wire 1 @ status_rd_done $end
$var wire 1 A status_rd_error $end
$var wire 1 B status_wr_done $end
$var wire 1 C status_wr_error $end
$var wire 1 S" wr_busy_w $end
$var wire 1 T" wr_done_w $end
$var wire 32 U" wr_err_addr_w [31:0] $end
$var wire 1 V" wr_error_w $end
$var wire 4 W" wr_fifo_count [3:0] $end
$var wire 32 X" wr_fifo_din [31:0] $end
$var wire 32 Y" wr_fifo_dout [31:0] $end
$var wire 1 Z" wr_fifo_empty $end
$var wire 1 [" wr_fifo_full $end
$var wire 1 \" wr_fifo_pop $end
$var wire 1 ]" wr_fifo_push $end
$var wire 1 ^" wr_start_w $end
$scope module u_rd_fifo $end
$var wire 1 5" clk $end
$var wire 3 _" count [2:0] $end
$var wire 64 `" din [63:0] $end
$var wire 1 L" empty $end
$var wire 1 M" full $end
$var wire 1 N" pop $end
$var wire 1 O" push $end
$var wire 2 a" rd_idx [1:0] $end
$var wire 1 Q" rst_n $end
$var wire 2 b" wr_idx [1:0] $end
$var reg 64 c" dout [63:0] $end
$var reg 3 d" rd_ptr [2:0] $end
$var reg 3 e" wr_ptr [2:0] $end
$upscope $end
$scope module u_wr_fifo $end
$var wire 1 5" clk $end
$var wire 4 f" count [3:0] $end
$var wire 32 g" din [31:0] $end
$var wire 1 Z" empty $end
$var wire 1 [" full $end
$var wire 1 \" pop $end
$var wire 1 ]" push $end
$var wire 3 h" rd_idx [2:0] $end
$var wire 1 Q" rst_n $end
$var wire 3 i" wr_idx [2:0] $end
$var reg 32 j" dout [31:0] $end
$var reg 4 k" rd_ptr [3:0] $end
$var reg 4 l" wr_ptr [3:0] $end
$upscope $end
$scope module u_ctrl_fsm $end
$var wire 1 5" clk $end
$var wire 1 6" core_busy $end
$var wire 32 m" core_ctext_0 [31:0] $end
$var wire 32 n" core_ctext_1 [31:0] $end
$var wire 1 9" core_data_ready $end
$var wire 1 :" core_done $end
$var wire 32 o" core_tag_0 [31:0] $end
$var wire 32 p" core_tag_1 [31:0] $end
$var wire 32 q" core_tag_2 [31:0] $end
$var wire 32 r" core_tag_3 [31:0] $end
$var wire 1 B" dma_soft_rst $end
$var wire 1 C" dma_start $end
$var wire 1 F" rd_busy $end
$var wire 1 G" rd_done $end
$var wire 1 I" rd_error $end
$var wire 64 s" rd_fifo_dout [63:0] $end
$var wire 1 L" rd_fifo_empty $end
$var wire 1 Q" rst_n $end
$var wire 1 S" wr_busy $end
$var wire 1 T" wr_done $end
$var wire 1 V" wr_error $end
$var wire 1 [" wr_fifo_full $end
$var reg 1 t" core_data_valid $end
$var reg 32 u" core_ptext_0 [31:0] $end
$var reg 32 v" core_ptext_1 [31:0] $end
$var reg 1 w" core_start $end
$var reg 1 x" dma_busy $end
$var reg 1 y" dma_done $end
$var reg 1 z" dma_error $end
$var reg 32 {" r_ctext_0 [31:0] $end
$var reg 32 |" r_ctext_1 [31:0] $end
$var reg 32 }" r_tag_0 [31:0] $end
$var reg 32 ~" r_tag_1 [31:0] $end
$var reg 32 !# r_tag_2 [31:0] $end
$var reg 32 "# r_tag_3 [31:0] $end
$var reg 1 ## rd_fifo_pop $end
$var reg 1 $# rd_start $end
$var reg 4 %# state [3:0] $end
$var reg 1 &# status_fifo_overflow $end
$var reg 1 '# status_rd_done $end
$var reg 1 (# status_wr_done $end
$var reg 32 )# wr_fifo_din [31:0] $end
$var reg 1 *# wr_fifo_push $end
$var reg 3 +# wr_load_cnt [2:0] $end
$var reg 1 ,# wr_start $end
$upscope $end
$scope module u_rd_engine $end
$var wire 2 -# M_AXI_ARBURST [1:0] $end
$var wire 4 .# M_AXI_ARCACHE [3:0] $end
$var wire 3 /# M_AXI_ARPROT [2:0] $end
$var wire 1 | M_AXI_ARREADY $end
$var wire 3 0# M_AXI_ARSIZE [2:0] $end
$var wire 64 1# M_AXI_RDATA [63:0] $end
$var wire 4 2# M_AXI_RID [3:0] $end
$var wire 1 -" M_AXI_RLAST $end
$var wire 2 3# M_AXI_RRESP [1:0] $end
$var wire 1 /" M_AXI_RVALID $end
$var wire 8 4# burst_len [7:0] $end
$var wire 1 5" clk $end
$var wire 1 M" fifo_full $end
$var wire 1 P" rd_start $end
$var wire 1 Q" rst_n $end
$var wire 32 5# src_addr [31:0] $end
$var reg 32 6# M_AXI_ARADDR [31:0] $end
$var reg 4 7# M_AXI_ARID [3:0] $end
$var reg 8 8# M_AXI_ARLEN [7:0] $end
$var reg 1 9# M_AXI_ARVALID $end
$var reg 1 :# M_AXI_RREADY $end
$var reg 64 ;# fifo_din [63:0] $end
$var reg 1 <# fifo_push $end
$var reg 1 =# rd_busy $end
$var reg 1 ># rd_done $end
$var reg 32 ?# rd_err_addr [31:0] $end
$var reg 1 @# rd_error $end
$var reg 3 A# state [2:0] $end
$upscope $end
$scope module u_wr_engine $end
$var wire 2 B# M_AXI_AWBURST [1:0] $end
$var wire 4 C# M_AXI_AWCACHE [3:0] $end
$var wire 8 D# M_AXI_AWLEN [7:0] $end
$var wire 3 E# M_AXI_AWPROT [2:0] $end
$var wire 1 &" M_AXI_AWREADY $end
$var wire 3 F# M_AXI_AWSIZE [2:0] $end
$var wire 4 G# M_AXI_BID [3:0] $end
$var wire 2 H# M_AXI_BRESP [1:0] $end
$var wire 1 *" M_AXI_BVALID $end
$var wire 1 1" M_AXI_WREADY $end
$var wire 8 I# M_AXI_WSTRB [7:0] $end
$var wire 1 5" clk $end
$var wire 32 J# dst_addr [31:0] $end
$var wire 32 K# fifo_dout [31:0] $end
$var wire 1 Z" fifo_empty $end
$var wire 1 Q" rst_n $end
$var wire 1 ^" wr_start $end
$var reg 32 L# M_AXI_AWADDR [31:0] $end
$var reg 4 M# M_AXI_AWID [3:0] $end
$var reg 1 N# M_AXI_AWVALID $end
$var reg 1 O# M_AXI_BREADY $end
$var reg 64 P# M_AXI_WDATA [63:0] $end
$var reg 1 Q# M_AXI_WLAST $end
$var reg 1 R# M_AXI_WVALID $end
$var reg 3 S# beat_cnt [2:0] $end
$var reg 1 T# fifo_pop $end
$var reg 3 U# state [2:0] $end
$var reg 32 V# wdata_hi [31:0] $end
$var reg 1 W# wr_busy $end
$var reg 1 X# wr_done $end
$var reg 32 Y# wr_err_addr [31:0] $end
$var reg 1 Z# wr_error $end
$upscope $end
$upscope $end
$scope begin TC2_mem $end
$var reg 64 [# b0 [63:0] $end
$var reg 64 \# b1 [63:0] $end
$var reg 64 ]# b2 [63:0] $end
$upscope $end
$scope begin tc8_ar $end
$var integer 32 ^# t [31:0] $end
$upscope $end
$scope begin tc9_aw $end
$var integer 32 _# t [31:0] $end
$upscope $end
$scope task apply_reset $end
$var integer 32 `# i [31:0] $end
$upscope $end
$scope task check $end
$var reg 1 a# cond $end
$var reg 256 b# msg [255:0] $end
$var reg 256 c# name [255:0] $end
$upscope $end
$scope task pulse_dma_start $end
$upscope $end
$scope task pulse_soft_rst $end
$upscope $end
$scope task wait_cycles $end
$var integer 32 d# i [31:0] $end
$var integer 32 e# n [31:0] $end
$upscope $end
$scope task wait_dma_done $end
$var integer 32 f# i [31:0] $end
$var integer 32 g# timeout_cyc [31:0] $end
$upscope $end
$upscope $end
$enddefinitions $end
#0
$dumpvars
bx g#
bx f#
bx e#
bx d#
bx c#
bx b#
xa#
b100000000 `#
bx _#
bx ^#
bx ]#
bx \#
bx [#
0Z#
b0 Y#
0X#
0W#
b0 V#
b0 U#
0T#
b0 S#
0R#
0Q#
b0 P#
0O#
0N#
b0 M#
b0 L#
b0 K#
b0 J#
b11111111 I#
b0 H#
b0 G#
b11 F#
b0 E#
b10 D#
b10 C#
b1 B#
b0 A#
0@#
b0 ?#
0>#
0=#
0<#
b0 ;#
0:#
09#
b0 8#
b0 7#
b0 6#
b0 5#
b0 4#
b0 3#
b0 2#
b0 1#
b11 0#
b0 /#
b10 .#
b1 -#
0,#
b0 +#
0*#
b0 )#
0(#
0'#
0&#
b0 %#
0$#
0##
b0 "#
b0 !#
b0 ~"
b0 }"
b0 |"
b0 {"
0z"
0y"
0x"
0w"
b0 v"
b0 u"
0t"
b0 s"
b0 r"
b0 q"
b0 p"
b0 o"
b0 n"
b0 m"
b0 l"
b0 k"
b0 j"
b0 i"
b0 h"
b0 g"
b0 f"
b0 e"
b0 d"
b0 c"
b0 b"
b0 a"
b0 `"
b0 _"
0^"
0]"
0\"
0["
1Z"
b0 Y"
b0 X"
b0 W"
0V"
b0 U"
0T"
0S"
b0 R"
0Q"
0P"
0O"
0N"
0M"
1L"
b0 K"
b0 J"
0I"
b0 H"
0G"
0F"
0E"
b0 D"
0C"
0B"
b0 A"
b0 @"
b0 ?"
b0 >"
b0 ="
b0 <"
b0 ;"
0:"
19"
b0 8"
b0 7"
06"
05"
b1000 4"
b0 3"
b11111111 2"
01"
b0 0"
0/"
b0 ."
0-"
b0 ,"
b0 +"
0*"
b0 )"
b0 ("
b11 '"
0&"
b0 %"
b10 $"
b0 #"
b10 ""
b1 !"
b0 ~
b11 }
0|
b0 {
b0 z
b0 y
b10 x
b1 w
b0 v
bx u
bx t
b0 s
b0 r
b0 q
bx p
b0 o
bx n
bx m
0l
0k
b0 j
b0 i
bx h
b0 g
0f
0e
b0 d
0c
b0 b
0a
0`
0_
b0 ^
b0 ]
b0 \
b0 [
0Z
b0 Y
0X
1W
b0 V
b0 U
0T
0S
b1000 R
b0 Q
b0 P
b0 O
0N
0M
b0 L
0K
b0 J
b0 I
0H
b0 G
b0 F
0E
0D
0C
0B
0A
0@
0?
0>
b0 =
0<
0;
0:
b0 9
b0 8
07
06
b11111111 5
04
b0 3
02
01
00
b11 /
b0 .
b10 -
b0 ,
b10 +
b1 *
b0 )
0(
b11 '
b0 &
b0 %
b0 $
b10 #
b1 "
b0 !
$end
#5000
1S
15"
#10000
0S
05"
#15000
1S
15"
#20000
0S
05"
#25000
1S
15"
#30000
0S
05"
#35000
1S
15"
#40000
0S
05"
#45000
1S
15"
#50000
0S
05"
#55000
1S
15"
#56000
1l
1Q"
#60000
0S
05"
#65000
1S
15"
#70000
0S
05"
#75000
b100000000 `#
0l
0Q"
b110 g
b1000001010110000100100100100000010101110010000000100000011100110110100101101100011001010110111001110100001000000110000101100110011101000110010101110010001000000111001001100101011100110110010101110100 b#
1a#
b10101000100001100110001 c#
1S
15"
#80000
0S
05"
#85000
1S
15"
#90000
0S
05"
#95000
1S
15"
#100000
0S
05"
#105000
1S
15"
#110000
0S
05"
#115000
1S
15"
#120000
0S
05"
#125000
1S
15"
#130000
0S
05"
#135000
1S
15"
#136000
1l
1Q"
#140000
0S
05"
#145000
1S
15"
#150000
0S
05"
#155000
b100000000 b
b100000000 D"
b100000000 J#
1S
15"
#160000
0S
05"
#165000
1S
15"
#166000
1`
1C"
#170000
0S
05"
#175000
b10 %#
1$#
1P"
1x"
1;
1S
15"
#176000
0`
0C"
#180000
0S
05"
#185000
b1 A#
19#
1(
1=#
1F"
0$#
0P"
b0 f#
b100101100 g#
b111 g
b1100100011011010110000101011111011000100111010101110011011110010011110100110001001000000110000101100110011101000110010101110010001000000111001101110100011000010111001001110100 b#
b10101000100001100110010 c#
1S
15"
#190000
0S
05"
#195000
1k
b0 h
1D
1|
b1 f#
1S
15"
#200000
0S
05"
#205000
1K
1-"
b1000000100000001100000100000001010000011000000111 I
b1000000100000001100000100000001010000011000000111 +"
b1000000100000001100000100000001010000011000000111 1#
1M
1/"
0D
0|
b10 A#
1:#
12
09#
0(
b0 u
b0 t
b10 f#
1S
15"
#210000
0S
05"
#215000
b11 A#
0:#
02
1<#
1O"
b1000000100000001100000100000001010000011000000111 ;#
b1000000100000001100000100000001010000011000000111 J"
b1000000100000001100000100000001010000011000000111 `"
0k
0K
0-"
0M
0/"
b11 f#
1S
15"
#220000
0S
05"
#225000
b1 b"
b0 A#
0=#
0F"
1>#
1G"
0<#
0O"
b1 e"
0L"
b1 _"
b100 f#
1S
15"
#230000
0S
05"
#235000
b11 %#
1##
1N"
1'#
1@
0>#
0G"
b101 f#
1S
15"
#240000
0S
05"
#245000
b1 a"
b100 %#
0##
0N"
b1 d"
1L"
b0 _"
b1000000100000001100000100000001010000011000000111 c"
b1000000100000001100000100000001010000011000000111 K"
b1000000100000001100000100000001010000011000000111 s"
b110 f#
1S
15"
#250000
0S
05"
#255000
b101 %#
1t"
17
b100000001010000011000000111 v"
b100000001010000011000000111 9
b100000001010000011000000111 <"
b10000001000000011 u"
b10000001000000011 8
b10000001000000011 ;"
b111 f#
1S
15"
#260000
0S
05"
#265000
b110 %#
1w"
1:
0t"
07
b1000 f#
1S
15"
#270000
0S
05"
#275000
0w"
0:
b100000001010000011000000111 n
b10000001000000011 m
1T
16"
1Z
b1001 f#
1S
15"
#280000
0S
05"
#285000
b1 Y
b1010 f#
1S
15"
#290000
0S
05"
#295000
b10 Y
b1011 f#
1S
15"
#300000
0S
05"
#305000
b11 Y
b1100 f#
1S
15"
#310000
0S
05"
#315000
b100 Y
b1101 f#
1S
15"
#320000
0S
05"
#325000
b101 Y
b1110 f#
1S
15"
#330000
0S
05"
#335000
b110 Y
b1111 f#
1S
15"
#340000
0S
05"
#345000
b111 Y
b10000 f#
1S
15"
#350000
0S
05"
#355000
b10001001101010111100110111101111 ^
b10001001101010111100110111101111 @"
b10001001101010111100110111101111 r"
b1001000110100010101100111 ]
b1001000110100010101100111 ?"
b1001000110100010101100111 q"
b11001010111111101011101010111110 \
b11001010111111101011101010111110 >"
b11001010111111101011101010111110 p"
b11011110101011011011111011101111 [
b11011110101011011011111011101111 ="
b11011110101011011011111011101111 o"
b11111011111110101111100111111000 V
b11111011111110101111100111111000 8"
b11111011111110101111100111111000 n"
b11111111111111101111110111111100 U
b11111111111111101111110111111100 7"
b11111111111111101111110111111100 m"
1X
1:"
0T
06"
0Z
b1000 Y
b10001 f#
1S
15"
#360000
0S
05"
#365000
0X
0:"
b111 %#
b10001001101010111100110111101111 "#
b1001000110100010101100111 !#
b11001010111111101011101010111110 ~"
b11011110101011011011111011101111 }"
b11111011111110101111100111111000 |"
b11111111111111101111110111111100 {"
b10010 f#
1S
15"
#370000
0S
05"
#375000
b1 +#
b11111111111111101111110111111100 )#
b11111111111111101111110111111100 X"
b11111111111111101111110111111100 g"
1*#
1]"
b10011 f#
1S
15"
#380000
0S
05"
#385000
b1 i"
b10 +#
b11111011111110101111100111111000 )#
b11111011111110101111100111111000 X"
b11111011111110101111100111111000 g"
1*#
1]"
b1 l"
0Z"
b1 W"
b1 f"
b10100 f#
1S
15"
#390000
0S
05"
#395000
b10 i"
b10 l"
b10 W"
b10 f"
b11 +#
b11011110101011011011111011101111 )#
b11011110101011011011111011101111 X"
b11011110101011011011111011101111 g"
1*#
1]"
b10101 f#
1S
15"
#400000
0S
05"
#405000
b11 i"
b100 +#
b11001010111111101011101010111110 )#
b11001010111111101011101010111110 X"
b11001010111111101011101010111110 g"
1*#
1]"
b11 l"
b11 W"
b11 f"
b10110 f#
1S
15"
#410000
0S
05"
#415000
b100 i"
b100 l"
b100 W"
b100 f"
b101 +#
b1001000110100010101100111 )#
b1001000110100010101100111 X"
b1001000110100010101100111 g"
1*#
1]"
b10111 f#
1S
15"
#420000
0S
05"
#425000
b101 i"
b1000 %#
b10001001101010111100110111101111 )#
b10001001101010111100110111101111 X"
b10001001101010111100110111101111 g"
1*#
1]"
b101 l"
b101 W"
b101 f"
b11000 f#
1S
15"
#430000
0S
05"
#435000
b110 i"
b110 l"
b110 W"
b110 f"
b1001 %#
0*#
0]"
b11001 f#
1S
15"
#440000
0S
05"
#445000
b1010 %#
1,#
1^"
b11010 f#
1S
15"
#450000
0S
05"
#455000
0,#
0^"
b1 U#
1N#
10
b100000000 L#
b100000000 )
b100000000 ~
1W#
1S"
b11011 f#
1S
15"
#460000
0S
05"
#465000
b1 s
b100000000 p
1E
1&"
b11100 f#
1S
15"
#470000
0S
05"
#475000
b10 U#
1T#
1\"
0N#
00
b10 s
0E
0&"
b11101 f#
1S
15"
#480000
0S
05"
#485000
b1 h"
b11 U#
0T#
0\"
b1 k"
b101 W"
b101 f"
b11111111111111101111110111111100 j"
b11111111111111101111110111111100 Y"
b11111111111111101111110111111100 K#
b11110 f#
1S
15"
#490000
0S
05"
#495000
b100 U#
1T#
1\"
b11111111111111101111110111111100 V#
b11111 f#
1S
15"
#500000
0S
05"
#505000
b10 h"
b101 U#
0T#
0\"
b10 k"
b100 W"
b100 f"
b11111011111110101111100111111000 j"
b11111011111110101111100111111000 Y"
b11111011111110101111100111111000 K#
b100000 f#
1S
15"
#510000
0S
05"
#515000
b110 U#
1R#
16
b1111111111111110111111011111110011111011111110101111100111111000 P#
b1111111111111110111111011111110011111011111110101111100111111000 3
b1111111111111110111111011111110011111011111110101111100111111000 0"
b100001 f#
1S
15"
#520000
0S
05"
#525000
1N
11"
b100010 f#
1S
15"
#530000
0S
05"
#535000
b10 U#
1T#
1\"
b1 S#
0R#
06
b1 q
b100000 u
b100000000 t
b100011 f#
1S
15"
#540000
0S
05"
#545000
b11 h"
0N
01"
b11 U#
0T#
0\"
b11 k"
b11 W"
b11 f"
b11011110101011011011111011101111 j"
b11011110101011011011111011101111 Y"
b11011110101011011011111011101111 K#
b100100 f#
1S
15"
#550000
0S
05"
#555000
b100 U#
1T#
1\"
b11011110101011011011111011101111 V#
b100101 f#
1S
15"
#560000
0S
05"
#565000
b100 h"
b101 U#
0T#
0\"
b100 k"
b10 W"
b10 f"
b11001010111111101011101010111110 j"
b11001010111111101011101010111110 Y"
b11001010111111101011101010111110 K#
b100110 f#
1S
15"
#570000
0S
05"
#575000
b110 U#
1R#
16
b1101111010101101101111101110111111001010111111101011101010111110 P#
b1101111010101101101111101110111111001010111111101011101010111110 3
b1101111010101101101111101110111111001010111111101011101010111110 0"
b100111 f#
1S
15"
#580000
0S
05"
#585000
1N
11"
b101000 f#
1S
15"
#590000
0S
05"
#595000
b10 U#
1T#
1\"
b10 S#
0R#
06
b10 q
b101001 f#
1S
15"
#600000
0S
05"
#605000
b101 h"
0N
01"
b11 U#
0T#
0\"
b101 k"
b1 W"
b1 f"
b1001000110100010101100111 j"
b1001000110100010101100111 Y"
b1001000110100010101100111 K#
b101010 f#
1S
15"
#610000
0S
05"
#615000
b100 U#
1T#
1\"
b1001000110100010101100111 V#
b101011 f#
1S
15"
#620000
0S
05"
#625000
b110 h"
b101 U#
0T#
0\"
b110 k"
1Z"
b0 W"
b0 f"
b10001001101010111100110111101111 j"
b10001001101010111100110111101111 Y"
b10001001101010111100110111101111 K#
b101100 f#
1S
15"
#630000
0S
05"
#635000
b110 U#
1Q#
14
1R#
16
b100100011010001010110011110001001101010111100110111101111 P#
b100100011010001010110011110001001101010111100110111101111 3
b100100011010001010110011110001001101010111100110111101111 0"
b101101 f#
1S
15"
#640000
0S
05"
#645000
1N
11"
b101110 f#
1S
15"
#650000
0S
05"
#655000
b111 U#
1O#
11
0Q#
04
0R#
06
b11 s
0N
01"
b101111 f#
1S
15"
#660000
0S
05"
#665000
1H
1*"
b110000 f#
1S
15"
#670000
0S
05"
#675000
b0 U#
0W#
0S"
1X#
1T"
0O#
01
b0 s
0H
0*"
b110001 f#
1S
15"
#680000
0S
05"
#685000
b0 S#
0X#
0T"
b1011 %#
1(#
1B
b110010 f#
1S
15"
#690000
0S
05"
#695000
b0 %#
0x"
0;
1y"
1<
b110011 f#
1S
15"
#700000
0S
05"
#705000
0y"
0<
1a
b110100 f#
1S
15"
#710000
0S
05"
#715000
b0 d#
b11 e#
b110101 f#
1S
15"
#720000
0S
05"
#725000
b1 d#
1S
15"
#730000
0S
05"
#735000
b10 d#
1S
15"
#740000
0S
05"
#745000
b0 h"
b0 i"
b0 a"
b0 b"
b0 ^
b0 @"
b0 r"
b0 ]
b0 ?"
b0 q"
b0 \
b0 >"
b0 p"
b0 [
b0 ="
b0 o"
b0 V
b0 8"
b0 n"
b0 U
b0 7"
b0 m"
b0 Y
b0 q
b0 I
b0 +"
b0 1#
b0 V#
b0 P#
b0 3
b0 0"
b0 L#
b0 )
b0 ~
b0 ;#
b0 J"
b0 `"
b0 "#
b0 !#
b0 ~"
b0 }"
b0 |"
b0 {"
0(#
0B
0'#
0@
b0 +#
b0 )#
b0 X"
b0 g"
b0 v"
b0 9
b0 <"
b0 u"
b0 8
b0 ;"
b0 j"
b0 Y"
b0 K#
b0 k"
b0 l"
1Z"
b0 W"
b0 f"
b0 c"
b0 K"
b0 s"
b0 d"
b0 e"
1L"
b0 _"
b100000000 `#
0a
b0 b
b0 D"
b0 J#
0l
0Q"
b100100011010001010110011110001001101010111100110111101111 ]#
b1101111010101101101111101110111111001010111111101011101010111110 \#
b1111111111111110111111011111110011111011111110101111100111111000 [#
b1111 g
b1000010011001010110000101110100001100100011101000100000011110110111010001100001011001110101111100110010001011000111010001100001011001110101111100110011011111010010000001100011011011110111001001110010011001010110001101110100 b#
b11 d#
1S
15"
#750000
0S
05"
#755000
1S
15"
#760000
0S
05"
#765000
1S
15"
#770000
0S
05"
#775000
1S
15"
#780000
0S
05"
#785000
1S
15"
#790000
0S
05"
#795000
1S
15"
#800000
0S
05"
#805000
1S
15"
#806000
1l
1Q"
#810000
0S
05"
#815000
1S
15"
#820000
0S
05"
#825000
1e
b100001000 b
b100001000 D"
b100001000 J#
b1000 o
b1000 R"
b1000 5#
1S
15"
#830000
0S
05"
#835000
1S
15"
#836000
1`
1C"
#840000
0S
05"
#845000
b10 %#
1$#
1P"
1x"
1;
1S
15"
#846000
b0 f#
b10010110 g#
0`
0C"
#850000
0S
05"
#855000
0$#
0P"
b1 A#
19#
1(
b1000 6#
b1000 !
b1000 v
1=#
1F"
b1 f#
1S
15"
#860000
0S
05"
#865000
1k
b1000 h
1D
1|
b10 f#
1S
15"
#870000
0S
05"
#875000
b10 A#
1:#
12
09#
0(
1K
1-"
b10 L
b10 ."
b10 3#
1M
1/"
0D
0|
b1 u
b1000 t
b11 f#
1S
15"
#880000
0S
05"
#885000
1>
b1000 =
b1000 A"
0k
0K
0-"
0M
0/"
b11 A#
0:#
02
1<#
1O"
b1000 ?#
b1000 H"
1@#
1I"
1A
b100 f#
1S
15"
#890000
0S
05"
#895000
b1 b"
b1 e"
0L"
b1 _"
b0 A#
0=#
0F"
1>#
1G"
0<#
0O"
1c
b101 f#
1S
15"
#900000
0S
05"
#905000
0>#
0G"
b1011 %#
1z"
1E"
1'#
1@
b110 f#
1S
15"
#910000
0S
05"
#915000
b0 %#
0x"
0;
1y"
1<
b111 f#
1S
15"
#920000
0S
05"
#925000
0y"
0<
1a
b1000 f#
1S
15"
#930000
0S
05"
#935000
b0 d#
b10 e#
b1001 f#
1S
15"
#940000
0S
05"
