tb_debug_prefetch.vcd
$date
	Sat Feb 14 14:46:55 2026
$end
$version
	Icarus Verilog
$end
$timescale
	1ps
$end
$scope module tb_debug_prefetch $end
$var wire 32 ! cpu_rdata [31:0] $end
$var wire 1 " cpu_ready $end
$var wire 6 # data_read_index [5:0] $end
$var wire 2 $ data_read_offset [1:0] $end
$var wire 32 % data_write_data [31:0] $end
$var wire 1 & data_write_enable $end
$var wire 6 ' data_write_index [5:0] $end
$var wire 2 ( data_write_offset [1:0] $end
$var wire 32 ) refill_addr [31:0] $end
$var wire 1 * refill_start $end
$var wire 32 + stat_hits [31:0] $end
$var wire 32 , stat_misses [31:0] $end
$var wire 1 - tag_flush_all $end
$var wire 6 . tag_lookup_index [5:0] $end
$var wire 22 / tag_lookup_tag [21:0] $end
$var wire 6 0 tag_update_index [5:0] $end
$var wire 22 1 tag_update_tag [21:0] $end
$var wire 1 2 tag_update_valid $end
$var reg 1 3 clk $end
$var reg 32 4 cpu_addr [31:0] $end
$var reg 1 5 cpu_req $end
$var integer 32 6 cycle [31:0] $end
$var integer 32 7 i [31:0] $end
$var reg 32 8 refill_base [31:0] $end
$var reg 1 9 refill_busy $end
$var reg 2 : refill_counter [1:0] $end
$var reg 32 ; refill_data [31:0] $end
$var reg 1 < refill_data_valid $end
$var reg 1 = refill_done $end
$var reg 3 > refill_state [2:0] $end
$var reg 2 ? refill_word [1:0] $end
$var reg 1 @ rst_n $end
$scope module dut $end
$var wire 1 A cache_hit $end
$var wire 1 B clk $end
$var wire 32 C cpu_addr [31:0] $end
$var wire 4 D cpu_byte_offset [3:0] $end
$var wire 6 E cpu_index [5:0] $end
$var wire 2 F cpu_offset [1:0] $end
$var wire 1 G cpu_req $end
$var wire 22 H cpu_tag [21:0] $end
$var wire 32 I data_read_data [31:0] $end
$var wire 6 J data_read_index [5:0] $end
$var wire 2 K data_read_offset [1:0] $end
$var wire 1 L flush $end
$var wire 1 M hit_line0 $end
$var wire 1 N hit_line1 $end
$var wire 128 O hit_line_data [127:0] $end
$var wire 1 P hit_line_id $end
$var wire 32 Q hit_word [31:0] $end
$var wire 32 R next_line_addr [31:0] $end
$var wire 1 S next_line_hit $end
$var wire 6 T next_line_index [5:0] $end
$var wire 22 U next_line_tag [21:0] $end
$var wire 1 V refill_busy $end
$var wire 32 W refill_data [31:0] $end
$var wire 1 X refill_data_valid $end
$var wire 1 Y refill_done $end
$var wire 2 Z refill_word [1:0] $end
$var wire 1 [ rst_n $end
$var wire 1 \ should_prefetch $end
$var wire 1 ] tag_hit $end
$var wire 6 ^ tag_lookup_index [5:0] $end
$var wire 22 _ tag_lookup_tag [21:0] $end
$var reg 1 ` active_line_id $end
$var reg 32 a cpu_rdata [31:0] $end
$var reg 1 b cpu_ready $end
$var reg 32 c data_write_data [31:0] $end
$var reg 1 d data_write_enable $end
$var reg 6 e data_write_index [5:0] $end
$var reg 2 f data_write_offset [1:0] $end
$var reg 1 g fill_busy $end
$var reg 6 h fill_index [5:0] $end
$var reg 1 i fill_line_id $end
$var reg 22 j fill_tag [21:0] $end
$var reg 2 k fill_word_count [1:0] $end
$var integer 32 l i [31:0] $end
$var reg 3 m next_state [2:0] $end
$var reg 32 n refill_addr [31:0] $end
$var reg 1 o refill_start $end
$var reg 32 p stat_hits [31:0] $end
$var reg 32 q stat_misses [31:0] $end
$var reg 3 r state [2:0] $end
$var reg 1 s tag_flush_all $end
$var reg 6 t tag_update_index [5:0] $end
$var reg 22 u tag_update_tag [21:0] $end
$var reg 1 v tag_update_valid $end
$upscope $end
$upscope $end
$enddefinitions $end
#0
$dumpvars
0v
b0 u
b0 t
0s
b0 r
b0 q
b0 p
0o
b0 n
b0 m
b10 l
b0 k
b0 j
1i
b0 h
0g
b0 f
b0 e
0d
b0 c
0b
b0 a
0`
b0 _
b0 ^
0]
0\
0[
b0 Z
0Y
0X
b0 W
0V
b0 U
b1 T
0S
b10000 R
b0 Q
0P
b0 O
0N
0M
0L
b0 K
b0 J
b0 I
b0 H
0G
b0 F
b0 E
b0 D
b0 C
0B
0A
0@
b0 ?
b0 >
0=
0<
b0 ;
b0 :
09
bx 8
b100000000 7
b0 6
05
b0 4
03
02
b0 1
b0 0
b0 /
b0 .
0-
b0 ,
b0 +
0*
b0 )
b0 (
b0 '
0&
b0 %
b0 $
b0 #
0"
b0 !
$end
#5000
b10 l
13
1B
#10000
03
0B
#15000
b10 l
13
1B
#20000
03
0B
#25000
1@
1[
13
1B
#30000
03
0B
#35000
b1 m
15
1G
13
1B
#40000
b1 6
03
0B
#45000
b10 m
b1 r
13
1B
#50000
b10 6
03
0B
#55000
b11 m
b10 r
b1 q
b1 ,
13
1B
#60000
b11 6
03
0B
#65000
1g
1o
1*
b11 r
13
1B
#70000
b100 6
03
0B
#75000
0o
0*
b1 >
b0 8
19
1V
13
1B
#80000
b101 6
03
0B
#85000
b1 :
1<
1X
b11011110101011010000000000000000 ;
b11011110101011010000000000000000 W
13
1B
#90000
b110 6
03
0B
#95000
b11011110101011010000000000000000 Q
b11011110101011010000000000000000 O
b11011110101011010000000000000000 c
b11011110101011010000000000000000 %
1d
1&
b10 :
b1 ?
b1 Z
b11011110101011010000000000000001 ;
b11011110101011010000000000000001 W
1<
1X
13
1B
#100000
b111 6
03
0B
#105000
b1101111010101101000000000000000111011110101011010000000000000000 O
b11 :
b10 ?
b10 Z
b11011110101011010000000000000010 ;
b11011110101011010000000000000010 W
1<
1X
b11011110101011010000000000000001 c
b11011110101011010000000000000001 %
b1 f
b1 (
1d
1&
13
1B
#110000
b1000 6
03
0B
#115000
b110111101010110100000000000000101101111010101101000000000000000111011110101011010000000000000000 O
b11011110101011010000000000000010 c
b11011110101011010000000000000010 %
b10 f
b10 (
1d
1&
b10 >
b11 ?
b11 Z
b11011110101011010000000000000011 ;
b11011110101011010000000000000011 W
1<
1X
13
1B
#120000
b1001 6
03
0B
#125000
b1 m
b11011110101011010000000000000011110111101010110100000000000000101101111010101101000000000000000111011110101011010000000000000000 O
b0 >
09
0V
1=
1Y
0<
0X
b11011110101011010000000000000011 c
b11011110101011010000000000000011 %
b11 f
b11 (
1d
1&
13
1B
#130000
b1010 6
03
0B
#135000
1\
b11011110101011010000000000000000 a
b11011110101011010000000000000000 !
1b
1"
1A
1P
1N
b1 m
b1 r
0i
1`
1v
12
0g
0d
0&
0=
0Y
13
1B
#140000
b1011 6
03
0B
#145000
0\
1g
1o
1*
b10000 n
b10000 )
b1 h
b1 p
b1 +
0v
02
b11011110101011010000000000000001 a
b11011110101011010000000000000001 !
1b
1"
b11011110101011010000000000000001 Q
b1 F
b1 $
b1 K
b100 D
b100 4
b100 C
13
1B
#150000
b1100 6
03
0B
#155000
b10 p
b10 +
0o
0*
b1 >
b0 :
b10000 8
19
1V
b11011110101011010000000000000010 a
b11011110101011010000000000000010 !
1b
1"
b11011110101011010000000000000010 Q
b10 F
b10 $
b10 K
b1000 D
b1000 4
b1000 C
13
1B
#160000
b1101 6
03
0B
#165000
b1 :
1<
1X
b0 ?
b0 Z
b11011110101011010000000000000100 ;
b11011110101011010000000000000100 W
b11 p
b11 +
b11011110101011010000000000000011 a
b11011110101011010000000000000011 !
1b
1"
b11011110101011010000000000000011 Q
b11 F
b11 $
b11 K
b1100 D
b1100 4
b1100 C
13
1B
#170000
b1110 6
03
0B
#175000
b100 p
b100 +
b11011110101011010000000000000100 c
b11011110101011010000000000000100 %
b0 f
b0 (
b1 e
b1 '
1d
1&
b10 :
b1 ?
b1 Z
b11011110101011010000000000000101 ;
b11011110101011010000000000000101 W
1<
1X
b10 m
0A
b0 a
b0 !
0b
0"
0P
0N
b11011110101011010000000000000000 Q
b10 T
b1 E
b1 #
b1 J
b1 .
b1 ^
b0 F
b0 $
b0 K
b0 D
b100000 R
b10000 4
b10000 C
13
1B
#180000
b1111 6
03
0B
#185000
b11 m
b11 :
b10 ?
b10 Z
b11011110101011010000000000000110 ;
b11011110101011010000000000000110 W
1<
1X
b10 q
b10 ,
b11011110101011010000000000000101 c
b11011110101011010000000000000101 %
b1 f
b1 (
1d
1&
b10 r
13
1B
#190000
b10000 6
03
0B
#195000
b11 r
1o
1*
b11011110101011010000000000000110 c
b11011110101011010000000000000110 %
b10 f
b10 (
1d
1&
b10 >
b11 ?
b11 Z
b11011110101011010000000000000111 ;
b11011110101011010000000000000111 W
1<
1X
13
1B
#200000
b10001 6
03
0B
#205000
b1 m
b0 >
09
0V
1=
1Y
0<
0X
b11011110101011010000000000000111 c
b11011110101011010000000000000111 %
b11 f
b11 (
1d
1&
0o
0*
13
1B
#210000
b10010 6
03
0B
#215000
1\
b11011110101011010000000000000100 Q
b11011110101011010000000000000100 a
b11011110101011010000000000000100 !
1b
1"
1A
b11011110101011010000000000000111110111101010110100000000000001101101111010101101000000000000010111011110101011010000000000000100 O
1M
b1 m
b1 r
1i
0`
b1 t
b1 0
1v
12
0g
0d
0&
0=
0Y
13
1B
#220000
b10011 6
03
0B
#225000
0\
1g
1o
1*
b100000 n
b100000 )
b10 h
b101 p
b101 +
0v
02
b11011110101011010000000000000101 a
b11011110101011010000000000000101 !
1b
1"
b11011110101011010000000000000101 Q
b1 F
b1 $
b1 K
b100 D
b10100 4
b10100 C
13
1B
#230000
b10100 6
03
0B
#235000
b110 p
b110 +
0o
0*
b1 >
b0 :
b100000 8
19
1V
b11011110101011010000000000000110 a
b11011110101011010000000000000110 !
1b
1"
b11011110101011010000000000000110 Q
b10 F
b10 $
b10 K
b1000 D
b11000 4
b11000 C
13
1B
#240000
b10101 6
03
0B
#245000
b1 :
1<
1X
b0 ?
b0 Z
b11011110101011010000000000001000 ;
b11011110101011010000000000001000 W
b111 p
b111 +
b11011110101011010000000000000111 a
b11011110101011010000000000000111 !
1b
1"
b11011110101011010000000000000111 Q
b11 F
b11 $
b11 K
b1100 D
b11100 4
b11100 C
13
1B
#250000
b10110 6
03
0B
#255000
b1000 p
b1000 +
b11011110101011010000000000001000 c
b11011110101011010000000000001000 %
b0 f
b0 (
b10 e
b10 '
1d
1&
b10 :
b1 ?
b1 Z
b11011110101011010000000000001001 ;
b11011110101011010000000000001001 W
1<
1X
b10 m
0A
b11011110101011010000000000000011110111101010110100000000000000101101111010101101000000000000000111011110101011010000000000001000 O
b0 a
b0 !
0b
0"
0M
b11011110101011010000000000001000 Q
b11 T
b10 E
b10 #
b10 J
b10 .
b10 ^
b0 F
b0 $
b0 K
b0 D
b110000 R
b100000 4
b100000 C
13
1B
#260000
b10111 6
03
0B
#265000
b11011110101011010000000000000011110111101010110100000000000000101101111010101101000000000000100111011110101011010000000000001000 O
b11 m
b11 :
b10 ?
b10 Z
b11011110101011010000000000001010 ;
b11011110101011010000000000001010 W
1<
1X
b11 q
b11 ,
b11011110101011010000000000001001 c
b11011110101011010000000000001001 %
b1 f
b1 (
1d
1&
b10 r
13
1B
#270000
b11000 6
03
0B
#275000
b11011110101011010000000000000011110111101010110100000000000010101101111010101101000000000000100111011110101011010000000000001000 O
b11 r
1o
1*
b11011110101011010000000000001010 c
b11011110101011010000000000001010 %
b10 f
b10 (
1d
1&
b10 >
b11 ?
b11 Z
b11011110101011010000000000001011 ;
b11011110101011010000000000001011 W
1<
1X
13
1B
#280000
b11001 6
03
0B
#285000
b1 m
b11011110101011010000000000001011110111101010110100000000000010101101111010101101000000000000100111011110101011010000000000001000 O
b0 >
09
0V
1=
1Y
0<
0X
b11011110101011010000000000001011 c
b11011110101011010000000000001011 %
b11 f
b11 (
1d
1&
0o
0*
13
1B
#290000
03
0B
#295000
1\
b11011110101011010000000000001000 a
b11011110101011010000000000001000 !
1b
1"
1A
1P
1N
b1 m
b1 r
0i
1`
b10 t
b10 0
1v
12
0g
0d
0&
0=
0Y
13
1B
#300000
03
0B
#305000
0\
1g
1o
1*
b110000 n
b110000 )
b11 h
b1001 p
b1001 +
0v
02
13
1B
#310000
03
0B
#315000
b1010 p
b1010 +
0o
0*
b1 >
b0 :
b110000 8
19
1V
13
1B
#320000
03
0B
#325000
b1 :
1<
1X
b0 ?
b0 Z
b11011110101011010000000000001100 ;
b11011110101011010000000000001100 W
b1011 p
b1011 +
13
1B
#330000
03
0B
#335000
b1100 p
b1100 +
b11011110101011010000000000001100 c
b11011110101011010000000000001100 %
b0 f
b0 (
b11 e
b11 '
1d
1&
b10 :
b1 ?
b1 Z
b11011110101011010000000000001101 ;
b11011110101011010000000000001101 W
1<
1X
13
1B
#340000
03
0B
#345000
b11 :
b10 ?
b10 Z
b11011110101011010000000000001110 ;
b11011110101011010000000000001110 W
1<
1X
b1101 p
b1101 +
b11011110101011010000000000001101 c
b11011110101011010000000000001101 %
b1 f
b1 (
1d
1&
13
1B
#350000
03
0B
#355000
b1110 p
b1110 +
b11011110101011010000000000001110 c
b11011110101011010000000000001110 %
b10 f
b10 (
1d
1&
b10 >
b11 ?
b11 Z
b11011110101011010000000000001111 ;
b11011110101011010000000000001111 W
1<
1X
13
1B
#360000
03
0B
#365000
b0 >
09
0V
1=
1Y
0<
0X
b1111 p
b1111 +
b11011110101011010000000000001111 c
b11011110101011010000000000001111 %
b11 f
b11 (
1d
1&
13
1B
#370000
03
0B
#375000
0\
1S
b10000 p
b10000 +
b11 t
b11 0
1v
12
0g
0d
0&
0=
0Y
13
1B
#380000
03
0B
#385000
b10001 p
b10001 +
0v
02
13
1B
