uart_dump.vcd
$date
	Fri Mar 20 22:58:25 2026
$end
$version
	Icarus Verilog
$end
$timescale
	1ps
$end
$scope module uart_top_tb $end
$var wire 1 ! arready $end
$var wire 1 " awready $end
$var wire 4 # bid [3:0] $end
$var wire 2 $ bresp [1:0] $end
$var wire 1 % bvalid $end
$var wire 1 & irq_out $end
$var wire 32 ' rdata [31:0] $end
$var wire 4 ( rid [3:0] $end
$var wire 1 ) rlast $end
$var wire 2 * rresp [1:0] $end
$var wire 1 + rvalid $end
$var wire 1 , uart_rx_w $end
$var wire 1 - uart_tx_w $end
$var wire 1 . wready $end
$var reg 32 / _rd [31:0] $end
$var reg 32 0 araddr [31:0] $end
$var reg 2 1 arburst [1:0] $end
$var reg 4 2 arid [3:0] $end
$var reg 8 3 arlen [7:0] $end
$var reg 3 4 arsize [2:0] $end
$var reg 1 5 arvalid $end
$var reg 32 6 awaddr [31:0] $end
$var reg 2 7 awburst [1:0] $end
$var reg 4 8 awid [3:0] $end
$var reg 8 9 awlen [7:0] $end
$var reg 3 : awsize [2:0] $end
$var reg 1 ; awvalid $end
$var reg 1 < bready $end
$var reg 1 = clk $end
$var integer 32 > fail_count [31:0] $end
$var integer 32 ? i [31:0] $end
$var integer 32 @ j [31:0] $end
$var reg 1 A loopback_en $end
$var integer 32 B pass_count [31:0] $end
$var reg 32 C rd_data [31:0] $end
$var reg 1 D rready $end
$var reg 1 E rst_n $end
$var reg 1 F uart_rx_drive $end
$var reg 32 G wdata [31:0] $end
$var reg 1 H wlast $end
$var reg 4 I wstrb [3:0] $end
$var reg 1 J wvalid $end
$scope module u_dut $end
$var wire 1 K clk $end
$var wire 1 & irq_out $end
$var wire 16 L reg_baud_div [15:0] $end
$var wire 1 M reg_rx_irq_en $end
$var wire 1 N reg_rx_pop $end
$var wire 8 O reg_tx_data [7:0] $end
$var wire 1 P reg_tx_irq_en $end
$var wire 1 Q reg_tx_push $end
$var wire 1 R rst_n $end
$var wire 8 S rx_fifo_din [7:0] $end
$var wire 8 T rx_fifo_dout [7:0] $end
$var wire 1 U rx_fifo_empty $end
$var wire 1 V rx_fifo_full $end
$var wire 1 W rx_fifo_push $end
$var wire 1 X rx_overrun_w $end
$var wire 1 Y rx_valid_irq_w $end
$var wire 32 Z s_axi_araddr [31:0] $end
$var wire 2 [ s_axi_arburst [1:0] $end
$var wire 4 \ s_axi_arid [3:0] $end
$var wire 8 ] s_axi_arlen [7:0] $end
$var wire 1 ! s_axi_arready $end
$var wire 3 ^ s_axi_arsize [2:0] $end
$var wire 1 _ s_axi_arvalid $end
$var wire 32 ` s_axi_awaddr [31:0] $end
$var wire 2 a s_axi_awburst [1:0] $end
$var wire 4 b s_axi_awid [3:0] $end
$var wire 8 c s_axi_awlen [7:0] $end
$var wire 1 " s_axi_awready $end
$var wire 3 d s_axi_awsize [2:0] $end
$var wire 1 e s_axi_awvalid $end
$var wire 4 f s_axi_bid [3:0] $end
$var wire 1 g s_axi_bready $end
$var wire 2 h s_axi_bresp [1:0] $end
$var wire 1 % s_axi_bvalid $end
$var wire 32 i s_axi_rdata [31:0] $end
$var wire 4 j s_axi_rid [3:0] $end
$var wire 1 ) s_axi_rlast $end
$var wire 1 k s_axi_rready $end
$var wire 2 l s_axi_rresp [1:0] $end
$var wire 1 + s_axi_rvalid $end
$var wire 32 m s_axi_wdata [31:0] $end
$var wire 1 n s_axi_wlast $end
$var wire 1 . s_axi_wready $end
$var wire 4 o s_axi_wstrb [3:0] $end
$var wire 1 p s_axi_wvalid $end
$var wire 1 q tick_rx16 $end
$var wire 1 r tick_tx $end
$var wire 1 s tx_empty_irq_w $end
$var wire 8 t tx_fifo_dout [7:0] $end
$var wire 1 u tx_fifo_empty $end
$var wire 1 v tx_fifo_full $end
$var wire 1 w tx_fifo_pop $end
$var wire 1 , uart_rx $end
$var wire 1 - uart_tx $end
$scope module u_axi $end
$var wire 1 K clk $end
$var wire 1 & irq_out $end
$var wire 16 x reg_baud_div [15:0] $end
$var wire 8 y reg_rx_data [7:0] $end
$var wire 1 M reg_rx_irq_en $end
$var wire 1 N reg_rx_pop $end
$var wire 8 z reg_tx_data [7:0] $end
$var wire 1 P reg_tx_irq_en $end
$var wire 1 Q reg_tx_push $end
$var wire 1 R rst_n $end
$var wire 1 U rx_fifo_empty $end
$var wire 1 V rx_fifo_full $end
$var wire 1 X rx_overrun $end
$var wire 1 Y rx_valid_irq_in $end
$var wire 32 { s_axi_araddr [31:0] $end
$var wire 2 | s_axi_arburst [1:0] $end
$var wire 4 } s_axi_arid [3:0] $end
$var wire 8 ~ s_axi_arlen [7:0] $end
$var wire 1 ! s_axi_arready $end
$var wire 3 !" s_axi_arsize [2:0] $end
$var wire 1 _ s_axi_arvalid $end
$var wire 32 "" s_axi_awaddr [31:0] $end
$var wire 2 #" s_axi_awburst [1:0] $end
$var wire 4 $" s_axi_awid [3:0] $end
$var wire 8 %" s_axi_awlen [7:0] $end
$var wire 1 " s_axi_awready $end
$var wire 3 &" s_axi_awsize [2:0] $end
$var wire 1 e s_axi_awvalid $end
$var wire 4 '" s_axi_bid [3:0] $end
$var wire 1 g s_axi_bready $end
$var wire 2 (" s_axi_bresp [1:0] $end
$var wire 1 % s_axi_bvalid $end
$var wire 32 )" s_axi_rdata [31:0] $end
$var wire 4 *" s_axi_rid [3:0] $end
$var wire 1 ) s_axi_rlast $end
$var wire 1 k s_axi_rready $end
$var wire 2 +" s_axi_rresp [1:0] $end
$var wire 1 + s_axi_rvalid $end
$var wire 32 ," s_axi_wdata [31:0] $end
$var wire 1 n s_axi_wlast $end
$var wire 1 . s_axi_wready $end
$var wire 4 -" s_axi_wstrb [3:0] $end
$var wire 1 p s_axi_wvalid $end
$var wire 1 s tx_empty_irq_in $end
$var wire 1 u tx_fifo_empty $end
$var wire 1 v tx_fifo_full $end
$var reg 32 ." ar_addr [31:0] $end
$var reg 4 /" ar_id [3:0] $end
$var reg 1 0" arready_r $end
$var reg 1 1" awready_r $end
$var reg 16 2" baud_div_r [15:0] $end
$var reg 4 3" bid_r [3:0] $end
$var reg 1 4" bvalid_r $end
$var reg 1 5" rd_state $end
$var reg 32 6" rdata_r [31:0] $end
$var reg 4 7" rid_r [3:0] $end
$var reg 1 8" rvalid_r $end
$var reg 1 9" rx_irq_en_r $end
$var reg 1 :" rx_irq_r $end
$var reg 1 ;" rx_pop_r $end
$var reg 8 <" tx_data_r [7:0] $end
$var reg 1 =" tx_irq_en_r $end
$var reg 1 >" tx_irq_r $end
$var reg 1 ?" tx_push_r $end
$var reg 32 @" wr_addr [31:0] $end
$var reg 4 A" wr_id [3:0] $end
$var reg 2 B" wr_state [1:0] $end
$var reg 1 C" wready_r $end
$upscope $end
$scope module u_baud $end
$var wire 1 K clk $end
$var wire 16 D" divisor [15:0] $end
$var wire 16 E" divisor_os [15:0] $end
$var wire 1 R rst_n $end
$var wire 1 q tick_rx16 $end
$var wire 1 r tick_tx $end
$var reg 4 F" cnt_os [3:0] $end
$var reg 16 G" cnt_tx [15:0] $end
$var reg 1 H" tick_rx16_r $end
$var reg 1 I" tick_tx_r $end
$upscope $end
$scope module u_tx_fifo $end
$var wire 1 J" almost_full $end
$var wire 1 K clk $end
$var wire 5 K" count [4:0] $end
$var wire 8 L" din [7:0] $end
$var wire 8 M" dout [7:0] $end
$var wire 1 u empty $end
$var wire 1 v full $end
$var wire 1 w pop $end
$var wire 1 Q push $end
$var wire 1 R rst_n $end
$var integer 32 N" i [31:0] $end
$var reg 5 O" rd_ptr [4:0] $end
$var reg 5 P" wr_ptr [4:0] $end
$upscope $end
$scope module u_tx $end
$var wire 1 K clk $end
$var wire 8 Q" fifo_dout [7:0] $end
$var wire 1 u fifo_empty $end
$var wire 1 w fifo_pop $end
$var wire 1 R rst_n $end
$var wire 1 r tick_tx $end
$var wire 1 R" tx_busy $end
$var wire 1 - tx_out $end
$var reg 3 S" bit_cnt [2:0] $end
$var reg 1 T" pop_reg $end
$var reg 8 U" shift_reg [7:0] $end
$var reg 2 V" state [1:0] $end
$var reg 1 W" tx_reg $end
$upscope $end
$scope module u_rx_fifo $end
$var wire 1 X" almost_full $end
$var wire 1 K clk $end
$var wire 5 Y" count [4:0] $end
$var wire 8 Z" din [7:0] $end
$var wire 8 [" dout [7:0] $end
$var wire 1 U empty $end
$var wire 1 V full $end
$var wire 1 N pop $end
$var wire 1 W push $end
$var wire 1 R rst_n $end
$var integer 32 \" i [31:0] $end
$var reg 5 ]" rd_ptr [4:0] $end
$var reg 5 ^" wr_ptr [4:0] $end
$upscope $end
$scope module u_rx $end
$var wire 1 K clk $end
$var wire 8 _" fifo_din [7:0] $end
$var wire 1 V fifo_full $end
$var wire 1 W fifo_push $end
$var wire 1 R rst_n $end
$var wire 1 `" rx_fall $end
$var wire 1 , rx_in $end
$var wire 1 X rx_overrun $end
$var wire 1 a" rx_sync $end
$var wire 1 q tick_rx16 $end
$var reg 3 b" bit_cnt [2:0] $end
$var reg 4 c" os_cnt [3:0] $end
$var reg 1 d" overrun_r $end
$var reg 1 e" push_r $end
$var reg 1 f" rx_ff1 $end
$var reg 1 g" rx_ff2 $end
$var reg 1 h" rx_ff3 $end
$var reg 8 i" shift_reg [7:0] $end
$var reg 2 j" state [1:0] $end
$upscope $end
$scope module u_irq $end
$var wire 1 K clk $end
$var wire 1 R rst_n $end
$var wire 1 U rx_fifo_empty $end
$var wire 1 Y rx_valid_irq $end
$var wire 1 s tx_empty_irq $end
$var wire 1 u tx_fifo_empty $end
$var reg 1 k" rx_empty_prev $end
$var reg 1 l" tx_empty_prev $end
$upscope $end
$upscope $end
$scope task axi_read $end
$var reg 32 m" t_addr [31:0] $end
$var reg 32 n" t_data [31:0] $end
$var reg 4 o" t_id [3:0] $end
$upscope $end
$scope task axi_write $end
$var reg 32 p" t_addr [31:0] $end
$var reg 32 q" t_data [31:0] $end
$var reg 4 r" t_id [3:0] $end
$var reg 4 s" t_strb [3:0] $end
$upscope $end
$scope task check_bit $end
$var reg 1 t" actual $end
$var reg 1 u" expected $end
$var reg 384 v" name [383:0] $end
$upscope $end
$scope task check_eq $end
$var reg 32 w" actual [31:0] $end
$var reg 32 x" expected [31:0] $end
$var reg 384 y" name [383:0] $end
$upscope $end
$scope task do_reset $end
$upscope $end
$scope task read_reg $end
$var reg 32 z" dat [31:0] $end
$var reg 8 {" off [7:0] $end
$upscope $end
$scope task send_uart_byte $end
$var reg 8 |" b [7:0] $end
$var integer 32 }" i [31:0] $end
$upscope $end
$scope task set_fast_baud $end
$upscope $end
$scope task wait_loopback_rx $end
$var integer 32 ~" n [31:0] $end
$upscope $end
$scope task write_reg $end
$var reg 32 !# dat [31:0] $end
$var reg 8 "# off [7:0] $end
$var reg 4 ## strb [3:0] $end
$upscope $end
$upscope $end
$enddefinitions $end
#0
$dumpvars
bx ##
bx "#
bx !#
bx ~"
bx }"
bx |"
bx {"
bx z"
bx y"
bx x"
bx w"
bx v"
xu"
xt"
bx s"
bx r"
bx q"
bx p"
bx o"
bx n"
bx m"
1l"
1k"
b0 j"
b0 i"
1h"
1g"
1f"
0e"
0d"
b0 c"
b0 b"
1a"
0`"
b0 _"
b0 ^"
b0 ]"
b10000 \"
b0 ["
b0 Z"
b0 Y"
0X"
1W"
b0 V"
b0 U"
0T"
b0 S"
0R"
b0 Q"
b0 P"
b0 O"
b10000 N"
b0 M"
b0 L"
b0 K"
0J"
0I"
0H"
b0 G"
b0 F"
b110110 E"
b1101100011 D"
0C"
b0 B"
b0 A"
b0 @"
0?"
0>"
0="
b0 <"
0;"
0:"
09"
08"
b0 7"
b0 6"
05"
04"
b0 3"
b1101100011 2"
11"
10"
b0 /"
b0 ."
b1111 -"
b0 ,"
b0 +"
b0 *"
b0 )"
b0 ("
b0 '"
b10 &"
b0 %"
b0 $"
b1 #"
b0 ""
b10 !"
b0 ~
b0 }
b1 |
b0 {
b0 z
b0 y
b1101100011 x
0w
0v
1u
b0 t
0s
0r
0q
0p
b1111 o
0n
b0 m
b0 l
0k
b0 j
b0 i
b0 h
0g
b0 f
0e
b10 d
b0 c
b0 b
b1 a
b0 `
0_
b10 ^
b0 ]
b0 \
b1 [
b0 Z
0Y
0X
0W
0V
1U
b0 T
b0 S
0R
0Q
0P
b0 O
0N
0M
b1101100011 L
0K
0J
b1111 I
0H
b0 G
1F
0E
0D
bx C
b0 B
0A
bx @
bx ?
b0 >
0=
0<
0;
b10 :
b0 9
b0 8
b1 7
b0 6
05
b10 4
b0 3
b0 2
b1 1
b0 0
bx /
0.
1-
1,
0+
b0 *
0)
b0 (
b0 '
0&
0%
b0 $
b0 #
1"
1!
$end
#5000
b10000 \"
b10000 N"
1=
1K
#10000
0=
0K
#15000
b10000 N"
b10000 \"
1=
1K
#20000
0=
0K
#25000
b10000 \"
b10000 N"
1=
1K
#30000
0=
0K
#35000
b10000 N"
b10000 \"
1=
1K
#40000
0=
0K
#45000
b10000 \"
b10000 N"
1=
1K
#50000
0=
0K
#55000
b10000 N"
b10000 \"
1=
1K
#60000
0=
0K
#65000
b10000 \"
b10000 N"
1=
1K
#70000
0=
0K
#75000
b10000 N"
b10000 \"
1=
1K
#80000
0=
0K
#85000
b10000 \"
b10000 N"
1=
1K
#90000
0=
0K
#95000
b1 G"
1E
1R
1=
1K
#100000
0=
0K
#105000
b10 G"
1=
1K
#110000
0=
0K
#115000
b11 G"
1=
1K
#120000
0=
0K
#125000
b100 G"
1=
1K
#130000
0=
0K
#135000
b101 G"
1=
1K
#140000
0=
0K
#145000
b110 G"
b1010000000000000000000000001000 m"
b10 o"
b1000 {"
1=
1K
#150000
0=
0K
#155000
b111 G"
1=
1K
#156000
15
1_
b1010000000000000000000000001000 0
b1010000000000000000000000001000 Z
b1010000000000000000000000001000 {
b10 2
b10 \
b10 }
#160000
0=
0K
#165000
b1000 G"
15"
18"
1)
1+
b10 7"
b10 (
b10 j
b10 *"
b101 6"
b101 '
b101 i
b101 )"
00"
0!
b1010000000000000000000000001000 ."
b10 /"
1=
1K
#166000
b101 n"
1D
1k
05
0_
#170000
0=
0K
#175000
05"
10"
1!
08"
0)
0+
b1001 G"
1=
1K
#176000
0D
0k
#180000
0=
0K
#185000
b1010 G"
1=
1K
#186000
b1010000000000000000000000010000 m"
b10000 {"
b1 B
b10101000101111100110000001100010011101000100000010100110101010001000001010101000101010101010011001111010111101101110010011110000101111101100101011011010111000001110100011110010011110100110001001011000111010001111000010111110110010101101101011100000111010001111001001111010011000101111101001000000110000101100110011101000110010101110010001000000111001001100101011100110110010101110100 y"
b101 x"
b101 w"
b101 C
b101 z"
#190000
0=
0K
#195000
b1011 G"
1=
1K
#196000
15
1_
b1010000000000000000000000010000 0
b1010000000000000000000000010000 Z
b1010000000000000000000000010000 {
#200000
0=
0K
#205000
b1100 G"
15"
18"
1)
1+
b1101100011 6"
b1101100011 '
b1101100011 i
b1101100011 )"
00"
0!
b1010000000000000000000000010000 ."
1=
1K
#206000
b1101100011 n"
1D
1k
05
0_
#210000
0=
0K
#215000
05"
10"
1!
08"
0)
0+
b1101 G"
1=
1K
#216000
0D
0k
#220000
0=
0K
#225000
b1110 G"
1=
1K
#226000
b1010000000000000000000000001100 m"
b1100 {"
b10 B
b1010100010000110101111101010010010100110101010001011111001100000011001000111010001000000100001001000001010101010100010001011111010001000100100101010110001000000110010001100101011001100110000101110101011011000111010000111101001110000011011000110111 y"
b1101100011 x"
b1101100011 w"
b1101100011 C
b1101100011 z"
#230000
0=
0K
#235000
b1111 G"
1=
1K
#236000
15
1_
b1010000000000000000000000001100 0
b1010000000000000000000000001100 Z
b1010000000000000000000000001100 {
#240000
0=
0K
#245000
b10000 G"
15"
18"
1)
1+
b0 6"
b0 '
b0 i
b0 )"
00"
0!
b1010000000000000000000000001100 ."
1=
1K
#246000
b0 n"
1D
1k
05
0_
#250000
0=
0K
#255000
05"
10"
1!
08"
0)
0+
b10001 G"
1=
1K
#256000
0D
0k
#260000
0=
0K
#265000
b10010 G"
1=
1K
#266000
b1010000000000000000000000010100 m"
b10100 {"
b11 B
b101010001000011010111110101001001010011010101000101111100110000001100110011101000100000010000110101010001010010010011000010000001100100011001010110011001100001011101010110110001110100001111010011000000100000001010000100100101010010010100010111001100100000011001000110100101110011011000010110001001101100011001010110010000101001 y"
b0 x"
b0 w"
b0 C
b0 z"
#270000
0=
0K
#275000
b10011 G"
1=
1K
#276000
15
1_
b1010000000000000000000000010100 0
b1010000000000000000000000010100 Z
b1010000000000000000000000010100 {
#280000
0=
0K
#285000
b10100 G"
15"
18"
1)
1+
00"
0!
b1010000000000000000000000010100 ."
1=
1K
#286000
1D
1k
05
0_
#290000
0=
0K
#295000
05"
10"
1!
08"
0)
0+
b10101 G"
1=
1K
#296000
0D
0k
#300000
0=
0K
#305000
b10110 G"
1=
1K
#306000
b0 ."
b0 /"
b0 7"
b0 (
b0 j
b0 *"
b0 G"
b10000 N"
b10000 \"
b0 0
b0 Z
b0 {
b0 2
b0 \
b0 }
0E
0R
b101010001000011010111110101001001010011010101000101111100110000001101010011101000100000011010010111001001110001010111110110111101110101011101000011110100110000001000000110000101100110011101000110010101110010001000000111001001100101011100110110010101110100 v"
0u"
0t"
b101 B
b1010100010000110101111101010010010100110101010001011111001100000011010000111010001000000100100101010010010100010101111101010011010101000100000101010100010101010101001100100000011001000110010101100110011000010111010101101100011101000011110100110000 y"
#310000
0=
0K
#315000
b10000 \"
b10000 N"
1=
1K
#320000
0=
0K
#325000
b10000 N"
b10000 \"
1=
1K
#330000
0=
0K
#335000
b10000 \"
b10000 N"
1=
1K
#340000
0=
0K
#345000
b10000 N"
b10000 \"
1=
1K
#350000
0=
0K
#355000
b10000 \"
b10000 N"
1=
1K
#360000
0=
0K
#365000
b10000 N"
b10000 \"
1=
1K
#370000
0=
0K
#375000
b10000 \"
b10000 N"
1=
1K
#380000
0=
0K
#385000
b10000 N"
b10000 \"
1=
1K
#390000
0=
0K
#395000
b10000 \"
b10000 N"
1=
1K
#400000
0=
0K
#405000
b1 G"
1E
1R
1=
1K
#410000
0=
0K
#415000
b10 G"
1=
1K
#420000
0=
0K
#425000
b11 G"
1=
1K
#430000
0=
0K
#435000
b100 G"
1=
1K
#440000
0=
0K
#445000
b101 G"
1=
1K
#450000
0=
0K
#455000
b110 G"
b1111 s"
b111000010 q"
b1010000000000000000000000010000 p"
b1 r"
b1111 ##
b111000010 !#
b10000 "#
1=
1K
#460000
0=
0K
#465000
b111 G"
1=
1K
#466000
1;
1e
b1010000000000000000000000010000 6
b1010000000000000000000000010000 `
b1010000000000000000000000010000 ""
b1 8
b1 b
b1 $"
#470000
0=
0K
#475000
b1000 G"
b1 B"
1C"
1.
01"
0"
b1010000000000000000000000010000 @"
b1 A"
1=
1K
#476000
1J
1p
1H
1n
b111000010 G
b111000010 m
b111000010 ,"
0;
0e
#480000
0=
0K
#485000
b11100 E"
b10 B"
b1 3"
b1 #
b1 f
b1 '"
14"
1%
b111000010 2"
b111000010 L
b111000010 x
b111000010 D"
0C"
0.
b1001 G"
1=
1K
#486000
1<
1g
0H
0n
0J
0p
#490000
0=
0K
#495000
b1010 G"
b0 B"
04"
0%
1=
1K
#496000
0<
0g
#500000
0=
0K
#505000
11"
1"
b1011 G"
1=
1K
#506000
b1010000000000000000000000010000 m"
b10000 {"
#510000
0=
0K
#515000
b1100 G"
1=
1K
#516000
15
1_
b1010000000000000000000000010000 0
b1010000000000000000000000010000 Z
b1010000000000000000000000010000 {
b10 2
b10 \
b10 }
#520000
0=
0K
#525000
15"
18"
1)
1+
b10 7"
b10 (
b10 j
b10 *"
b111000010 6"
b111000010 '
b111000010 i
b111000010 )"
00"
0!
b1010000000000000000000000010000 ."
b10 /"
b1101 G"
1=
1K
#526000
b111000010 n"
1D
1k
05
0_
#530000
0=
0K
#535000
b1110 G"
05"
10"
1!
08"
0)
0+
1=
1K
#536000
0D
0k
#540000
0=
0K
#545000
b1111 G"
1=
1K
#546000
b11 q"
b1010000000000000000000000001100 p"
b11 !#
b1100 "#
b110 B
b1010100010000110101111101000001010110000100100101011111001100000011000100111010001000000100001001000001010101010100010001011111010001000100100101010110001000000111011101110010011010010111010001100101001010110111001001100101011000010110010001100010011000010110001101101011 y"
b111000010 x"
b111000010 w"
b111000010 C
b111000010 z"
#550000
0=
0K
#555000
b10000 G"
1=
1K
#556000
1;
1e
b1010000000000000000000000001100 6
b1010000000000000000000000001100 `
b1010000000000000000000000001100 ""
#560000
0=
0K
#565000
b1 B"
1C"
1.
01"
0"
b1010000000000000000000000001100 @"
b10001 G"
1=
1K
#566000
1J
1p
1H
1n
b11 G
b11 m
b11 ,"
0;
0e
#570000
0=
0K
#575000
b10010 G"
b10 B"
14"
1%
19"
1M
1="
1P
0C"
0.
1=
1K
#576000
1<
1g
0H
0n
0J
0p
#580000
0=
0K
#585000
b0 B"
04"
0%
b10011 G"
1=
1K
#586000
0<
0g
#590000
0=
0K
#595000
b10100 G"
11"
1"
1=
1K
#596000
b1010000000000000000000000001100 m"
b1100 {"
#600000
0=
0K
#605000
b10101 G"
1=
1K
#606000
15
1_
b1010000000000000000000000001100 0
b1010000000000000000000000001100 Z
b1010000000000000000000000001100 {
#610000
0=
0K
#615000
b10110 G"
15"
18"
1)
1+
b11 6"
b11 '
b11 i
b11 )"
00"
0!
b1010000000000000000000000001100 ."
1=
1K
#616000
b11 n"
1D
1k
05
0_
#620000
0=
0K
#625000
05"
10"
1!
08"
0)
0+
b10111 G"
1=
1K
#626000
0D
0k
#630000
0=
0K
#635000
b11000 G"
1=
1K
#636000
b0 q"
b0 !#
b111 B
b101010001000011010111110100000101011000010010010101111100110000001100100011101000100000010000110101010001010010010011000011110100110010011000100011000100110001001000000111011101110010011010010111010001100101001010110111001001100101011000010110010001100010011000010110001101101011 y"
b11 x"
b11 w"
b11 C
b11 z"
#640000
0=
0K
#645000
b11001 G"
1=
1K
#646000
1;
1e
#650000
0=
0K
#655000
b11010 G"
b1 B"
1C"
1.
01"
0"
1=
1K
#656000
1J
1p
1H
1n
b0 G
b0 m
b0 ,"
0;
0e
#660000
0=
0K
#665000
b10 B"
14"
1%
09"
0M
0="
0P
0C"
0.
b11011 G"
1=
1K
#666000
1<
1g
0H
0n
0J
0p
#670000
0=
0K
#675000
b11100 G"
b0 B"
04"
0%
1=
1K
#676000
0<
0g
#680000
0=
0K
#685000
11"
1"
b1 F"
1H"
1q
b0 G"
1=
1K
#690000
0=
0K
#695000
b1 G"
0H"
0q
1=
1K
#696000
15
1_
#700000
0=
0K
#705000
15"
18"
1)
1+
b0 6"
b0 '
b0 i
b0 )"
00"
0!
b10 G"
1=
1K
#706000
b0 n"
1D
1k
05
0_
#710000
0=
0K
#715000
b11 G"
05"
10"
1!
08"
0)
0+
1=
1K
#716000
0D
0k
#720000
0=
0K
#725000
b100 G"
1=
1K
#726000
b1000 B
b101010001000011010111110100000101011000010010010101111100110000001100100011101000100000010000110101010001010010010011000011110100110010011000100011000000110000001000000111011101110010011010010111010001100101001010110111001001100101011000010110010001100010011000010110001101101011 y"
b0 x"
b0 w"
b0 C
b0 z"
#730000
0=
0K
#735000
b101 G"
1=
1K
#736000
1;
1e
b1010000000000000000000000010000 6
b1010000000000000000000000010000 `
b1010000000000000000000000010000 ""
b111 8
b111 b
b111 $"
#740000
0=
0K
#745000
b1 B"
1C"
1.
01"
0"
b1010000000000000000000000010000 @"
b111 A"
b110 G"
1=
1K
#746000
1J
1p
1H
1n
b1000000000 G
b1000000000 m
b1000000000 ,"
0;
0e
#750000
0=
0K
#755000
b100000 E"
b111 G"
b10 B"
b111 3"
b111 #
b111 f
b111 '"
14"
1%
b1000000000 2"
b1000000000 L
b1000000000 x
b1000000000 D"
0C"
0.
1=
1K
#756000
b1001 B
b1010100010000110101111101000001010110000100100101011111001100000011001100111010001000000100001001001001010001000011110100111101010000010101011101001001010001000011110100110111 y"
b111 x"
b111 w"
1<
1g
0H
0n
0J
0p
#760000
0=
0K
#765000
b0 B"
04"
0%
b1000 G"
1=
1K
#766000
0<
0g
#770000
0=
0K
#775000
b1001 G"
11"
1"
1=
1K
#780000
0=
0K
#785000
b1010 G"
1=
1K
#786000
15
1_
b1010000000000000000000000010000 0
b1010000000000000000000000010000 Z
b1010000000000000000000000010000 {
b1010 2
b1010 \
b1010 }
#790000
0=
0K
#795000
b1011 G"
15"
18"
1)
1+
b1010 7"
b1010 (
b1010 j
b1010 *"
b1000000000 6"
b1000000000 '
b1000000000 i
b1000000000 )"
00"
0!
b1010000000000000000000000010000 ."
b1010 /"
1=
1K
#796000
b10101000100001101011111010000010101100001001001010111110011000000110101001110100010000001010010010011000100000101010011010101000011110100110001001000000111001101101001011011100110011101101100011001010010110101100010011001010110000101110100 v"
1u"
1t"
b1011 B
b10101000100001101011111010000010101100001001001010111110011000000110100001110100010000001010010010010010100010000111101001111010100000101010010010010010100010000111101001100000111100001000001 y"
b1010 x"
b1010 w"
1D
1k
05
0_
#800000
0=
0K
#805000
05"
10"
1!
08"
0)
0+
b1100 G"
1=
1K
#806000
0D
0k
#810000
0=
0K
#815000
b1101 G"
1=
1K
#816000
b10101011 q"
b1010000000000000000000000000000 p"
b10101011 !#
b0 "#
#820000
0=
0K
#825000
b1110 G"
1=
1K
#826000
1;
1e
b1010000000000000000000000000000 6
b1010000000000000000000000000000 `
b1010000000000000000000000000000 ""
b1 8
b1 b
b1 $"
#830000
0=
0K
#835000
b1111 G"
b1 B"
1C"
1.
01"
0"
b1010000000000000000000000000000 @"
b1 A"
1=
1K
#836000
1J
1p
1H
1n
b10101011 G
b10101011 m
b10101011 ,"
0;
0e
#840000
0=
0K
#845000
b10 B"
b1 3"
b1 #
b1 f
b1 '"
14"
1%
1?"
1Q
b10101011 <"
b10101011 O
b10101011 z
b10101011 L"
0C"
0.
b10000 G"
1=
1K
#846000
1<
1g
0H
0n
0J
0p
#850000
0=
0K
#855000
b1 P"
0u
b1 K"
b10101011 t
b10101011 M"
b10101011 Q"
b10001 G"
b0 B"
04"
0%
0?"
0Q
1=
1K
#856000
0<
0g
#860000
0=
0K
#865000
11"
1"
b10010 G"
0l"
1=
1K
#866000
b1010000000000000000000000000000 m"
b0 {"
#870000
0=
0K
#875000
b10011 G"
1=
1K
#876000
15
1_
b1010000000000000000000000000000 0
b1010000000000000000000000000000 Z
b1010000000000000000000000000000 {
b10 2
b10 \
b10 }
#880000
0=
0K
#885000
15"
18"
1)
1+
b10 7"
b10 (
b10 j
b10 *"
b0 6"
b0 '
b0 i
b0 )"
00"
0!
b1010000000000000000000000000000 ."
b10 /"
b10100 G"
1=
1K
#886000
1D
1k
05
0_
#890000
0=
0K
#895000
b10101 G"
05"
10"
1!
08"
0)
0+
1=
1K
#896000
0D
0k
#900000
0=
0K
#905000
b10110 G"
1=
1K
#906000
b1010000000000000000000011111111 m"
b11111111 {"
b1100 B
b1010100010000110101111101000001010110000100100101011111001100000011011000111010001000000101010001011000010111110100010001000001010101000100000100100000010101110100111100100000001011010011111000100000011100100110010101100001011001000011110100110000 y"
b0 x"
b0 w"
#910000
0=
0K
#915000
b10111 G"
1=
1K
#916000
15
1_
b1010000000000000000000011111111 0
b1010000000000000000000011111111 Z
b1010000000000000000000011111111 {
#920000
0=
0K
#925000
15"
18"
1)
1+
b11011110101011011011111011101111 6"
b11011110101011011011111011101111 '
b11011110101011011011111011101111 i
b11011110101011011011111011101111 )"
00"
0!
b1010000000000000000000011111111 ."
b11000 G"
1=
1K
#926000
b11011110101011011011111011101111 n"
1D
1k
05
0_
#930000
0=
0K
#935000
b11001 G"
05"
10"
1!
08"
0)
0+
1=
1K
#936000
0D
0k
#940000
0=
0K
#945000
b11010 G"
1=
1K
#946000
b1111111111111111 q"
b1010000000000000000000000001000 p"
b1111111111111111 !#
b1000 "#
b1101 B
b1010100010000110101111101000001010110000100100101011111001100000011011100111010001000000111010101101110011010110110111001101111011101110110111000100000011000010110010001100100011100100010000000101101001111100010000000110000011110000100010001000101010000010100010001000010010001010100010101000110 y"
b11011110101011011011111011101111 x"
b11011110101011011011111011101111 w"
b11011110101011011011111011101111 C
b11011110101011011011111011101111 z"
#950000
0=
0K
#955000
b11011 G"
1=
1K
#956000
1;
1e
b1010000000000000000000000001000 6
b1010000000000000000000000001000 `
b1010000000000000000000000001000 ""
#960000
0=
0K
#965000
b1 B"
1C"
1.
01"
0"
b1010000000000000000000000001000 @"
b11100 G"
1=
1K
#966000
1J
1p
1H
1n
b1111111111111111 G
b1111111111111111 m
b1111111111111111 ,"
0;
0e
#970000
0=
0K
#975000
b11101 G"
b10 B"
14"
1%
0C"
0.
1=
1K
#976000
1<
1g
0H
0n
0J
0p
#980000
0=
0K
#985000
b0 B"
04"
0%
b11110 G"
1=
1K
#986000
0<
0g
#990000
0=
0K
#995000
b11111 G"
11"
1"
1=
1K
#996000
b1010000000000000000000000000100 p"
b100 "#
#1000000
0=
0K
#1005000
b100000 G"
1=
1K
#1006000
1;
1e
b1010000000000000000000000000100 6
b1010000000000000000000000000100 `
b1010000000000000000000000000100 ""
#1010000
0=
0K
#1015000
b10 F"
1H"
1q
b0 G"
b1 B"
1C"
1.
01"
0"
b1010000000000000000000000000100 @"
1=
1K
#1016000
1J
1p
1H
1n
0;
0e
#1020000
0=
0K
#1025000
b10 B"
14"
1%
0C"
0.
b1 G"
0H"
0q
1=
1K
#1026000
1<
1g
0H
0n
0J
0p
#1030000
0=
0K
#1035000
b10 G"
b0 B"
04"
0%
1=
1K
#1036000
0<
0g
#1040000
0=
0K
#1045000
11"
1"
b11 G"
1=
1K
