cpu/axi4_lite_master_tb.vcd
$date
	Sat Jan 24 09:28:46 2026
$end
$version
	Icarus Verilog
$end
$timescale
	1ps
$end
$scope module tb_axi4_lite_master_if $end
$var wire 3 ! M_AXI_ARPROT [2:0] $end
$var wire 3 " M_AXI_AWPROT [2:0] $end
$var wire 1 # cpu_ready $end
$var wire 32 $ cpu_rdata [31:0] $end
$var wire 1 % cpu_error $end
$var wire 1 & M_AXI_WVALID $end
$var wire 4 ' M_AXI_WSTRB [3:0] $end
$var wire 32 ( M_AXI_WDATA [31:0] $end
$var wire 1 ) M_AXI_RREADY $end
$var wire 1 * M_AXI_BREADY $end
$var wire 1 + M_AXI_AWVALID $end
$var wire 32 , M_AXI_AWADDR [31:0] $end
$var wire 1 - M_AXI_ARVALID $end
$var wire 32 . M_AXI_ARADDR [31:0] $end
$var reg 1 / M_AXI_ARREADY $end
$var reg 1 0 M_AXI_AWREADY $end
$var reg 2 1 M_AXI_BRESP [1:0] $end
$var reg 1 2 M_AXI_BVALID $end
$var reg 32 3 M_AXI_RDATA [31:0] $end
$var reg 2 4 M_AXI_RRESP [1:0] $end
$var reg 1 5 M_AXI_RVALID $end
$var reg 1 6 M_AXI_WREADY $end
$var reg 1 7 clk $end
$var reg 32 8 cpu_addr [31:0] $end
$var reg 1 9 cpu_req $end
$var reg 32 : cpu_wdata [31:0] $end
$var reg 1 ; cpu_wr $end
$var reg 4 < cpu_wstrb [3:0] $end
$var reg 1 = rst_n $end
$var reg 32 > write_addr_latched [31:0] $end
$var integer 32 ? fail_count [31:0] $end
$var integer 32 @ i [31:0] $end
$var integer 32 A pass_count [31:0] $end
$var integer 32 B test_count [31:0] $end
$scope module dut $end
$var wire 3 C M_AXI_ARPROT [2:0] $end
$var wire 1 / M_AXI_ARREADY $end
$var wire 3 D M_AXI_AWPROT [2:0] $end
$var wire 1 0 M_AXI_AWREADY $end
$var wire 2 E M_AXI_BRESP [1:0] $end
$var wire 1 2 M_AXI_BVALID $end
$var wire 32 F M_AXI_RDATA [31:0] $end
$var wire 2 G M_AXI_RRESP [1:0] $end
$var wire 1 5 M_AXI_RVALID $end
$var wire 1 6 M_AXI_WREADY $end
$var wire 1 7 clk $end
$var wire 32 H cpu_addr [31:0] $end
$var wire 1 9 cpu_req $end
$var wire 32 I cpu_wdata [31:0] $end
$var wire 1 ; cpu_wr $end
$var wire 4 J cpu_wstrb [3:0] $end
$var wire 1 = rst_n $end
$var parameter 3 K DONE $end
$var parameter 3 L IDLE $end
$var parameter 3 M PROT_DEFAULT $end
$var parameter 3 N READ_ADDR $end
$var parameter 3 O READ_DATA $end
$var parameter 2 P RESP_OKAY $end
$var parameter 3 Q WRITE_ADDR $end
$var parameter 3 R WRITE_DATA $end
$var parameter 3 S WRITE_RESP $end
$var reg 32 T M_AXI_ARADDR [31:0] $end
$var reg 1 - M_AXI_ARVALID $end
$var reg 32 U M_AXI_AWADDR [31:0] $end
$var reg 1 + M_AXI_AWVALID $end
$var reg 1 * M_AXI_BREADY $end
$var reg 1 ) M_AXI_RREADY $end
$var reg 32 V M_AXI_WDATA [31:0] $end
$var reg 4 W M_AXI_WSTRB [3:0] $end
$var reg 1 & M_AXI_WVALID $end
$var reg 32 X addr_reg [31:0] $end
$var reg 1 % cpu_error $end
$var reg 32 Y cpu_rdata [31:0] $end
$var reg 1 # cpu_ready $end
$var reg 3 Z next_state [2:0] $end
$var reg 1 [ req_pending $end
$var reg 3 \ state [2:0] $end
$var reg 32 ] wdata_reg [31:0] $end
$var reg 1 ^ wr_reg $end
$var reg 4 _ wstrb_reg [3:0] $end
$upscope $end
$scope task cpu_read $end
$var reg 32 ` addr [31:0] $end
$var reg 32 a expected_data [31:0] $end
$upscope $end
$scope task cpu_write $end
$var reg 32 b addr [31:0] $end
$var reg 32 c data [31:0] $end
$var reg 4 d strb [3:0] $end
$upscope $end
$scope task reset_system $end
$upscope $end
$upscope $end
$enddefinitions $end
$comment Show the parameter values. $end
$dumpall
b11 S
b10 R
b1 Q
b0 P
b101 O
b100 N
b0 M
b0 L
b110 K
$end
#0
$dumpvars
bx d
bx c
bx b
bx a
bx `
b0 _
0^
b0 ]
b0 \
0[
b0 Z
b0 Y
b0 X
b0 W
b0 V
b0 U
b0 T
b0 J
b0 I
b0 H
b0 G
b0 F
b0 E
b0 D
b0 C
b0 B
b0 A
b100000000 @
b0 ?
b0 >
0=
b0 <
0;
b0 :
09
b0 8
07
06
05
b0 4
b0 3
02
b0 1
00
0/
b0 .
0-
b0 ,
0+
0*
0)
b0 (
b0 '
0&
0%
b0 $
0#
b0 "
b0 !
$end
#5000
17
#10000
07
#15000
17
#20000
07
#25000
17
#30000
07
#35000
17
#40000
07
#45000
1=
17
#50000
07
#55000
17
#60000
07
#65000
b1111 d
b11011110101011011011111011101111 c
b0 b
17
#70000
07
#75000
b1 Z
1[
1^
b1111 _
b11011110101011011011111011101111 ]
19
1;
b1111 <
b1111 J
b11011110101011011011111011101111 :
b11011110101011011011111011101111 I
17
#80000
07
#85000
1&
b1111 '
b1111 W
b11011110101011011011111011101111 (
b11011110101011011011111011101111 V
1+
b1 \
09
17
#90000
07
#95000
b11 Z
10
16
17
#100000
07
#105000
12
06
00
0&
0+
b11 \
17
#110000
07
#115000
b110 Z
1*
17
#120000
07
#125000
b0 Z
02
b110 \
17
#130000
07
#135000
b0 \
0[
0*
1#
17
#140000
07
#145000
0#
b10010001101000101011001111000 c
b100 b
b1 B
b1 A
17
#150000
07
#155000
b1 Z
1[
b10010001101000101011001111000 ]
b100 X
19
b10010001101000101011001111000 :
b10010001101000101011001111000 I
b100 8
b100 H
17
#160000
07
#165000
1&
b10010001101000101011001111000 (
b10010001101000101011001111000 V
1+
b100 ,
b100 U
b1 \
09
17
#170000
07
#175000
b11 Z
10
16
17
#180000
07
#185000
12
06
b100 >
00
0&
0+
b11 \
17
#190000
07
#195000
b110 Z
1*
17
#200000
07
#205000
b0 Z
02
b110 \
17
#210000
07
#215000
b0 \
0[
0*
1#
17
#220000
07
#225000
0#
b10101011110011011110111100000000 c
b1000 b
b10 B
b10 A
17
#230000
07
#235000
b1 Z
1[
b10101011110011011110111100000000 ]
b1000 X
19
b10101011110011011110111100000000 :
b10101011110011011110111100000000 I
b1000 8
b1000 H
17
#240000
07
#245000
1&
b10101011110011011110111100000000 (
b10101011110011011110111100000000 V
1+
b1000 ,
b1000 U
b1 \
09
17
#250000
07
#255000
b11 Z
10
16
17
#260000
07
#265000
12
06
b1000 >
00
0&
0+
b11 \
17
#270000
07
#275000
b110 Z
1*
17
#280000
07
#285000
b0 Z
02
b110 \
17
#290000
07
#295000
b0 \
0[
0*
1#
17
#300000
07
#305000
0#
b11011110101011011011111011101111 a
b0 `
b11 B
b11 A
17
#310000
07
#315000
b100 Z
1[
0^
b0 X
19
0;
b0 8
b0 H
17
#320000
07
#325000
1-
b100 \
09
17
#330000
07
#335000
b101 Z
1/
17
#340000
07
#345000
b11011110101011011011111011101111 3
b11011110101011011011111011101111 F
15
0/
0-
b101 \
17
#350000
07
#355000
b110 Z
1)
b11011110101011011011111011101111 $
b11011110101011011011111011101111 Y
17
#360000
07
#365000
b0 Z
05
b110 \
17
#370000
07
#375000
b0 \
0[
0)
1#
17
#380000
07
#385000
0#
b10010001101000101011001111000 a
b100 `
b100 B
b100 A
17
#390000
07
#395000
b100 Z
1[
b100 X
19
b100 8
b100 H
17
#400000
07
#405000
1-
b100 .
b100 T
b100 \
09
17
#410000
07
#415000
b101 Z
1/
17
#420000
07
#425000
b10010001101000101011001111000 3
b10010001101000101011001111000 F
15
0/
0-
b101 \
17
#430000
07
#435000
b110 Z
1)
b10010001101000101011001111000 $
b10010001101000101011001111000 Y
17
#440000
07
#445000
b0 Z
05
b110 \
17
#450000
07
#455000
b0 \
0[
0)
1#
17
#460000
07
#465000
0#
b10101011110011011110111100000000 a
b1000 `
b101 B
b101 A
17
#470000
07
#475000
b100 Z
1[
b1000 X
19
b1000 8
b1000 H
17
#480000
07
#485000
1-
b1000 .
b1000 T
b100 \
09
17
#490000
07
#495000
b101 Z
1/
17
#500000
07
#505000
b10101011110011011110111100000000 3
b10101011110011011110111100000000 F
15
0/
0-
b101 \
17
#510000
07
#515000
b110 Z
1)
b10101011110011011110111100000000 $
b10101011110011011110111100000000 Y
17
#520000
07
#525000
b0 Z
05
b110 \
17
#530000
07
#535000
b0 \
0[
0)
1#
17
#540000
07
#545000
0#
b11001010111111101011101010111110 c
b10000 b
b110 B
b110 A
17
#550000
07
#555000
b1 Z
1[
1^
b11001010111111101011101010111110 ]
b10000 X
19
1;
b11001010111111101011101010111110 :
b11001010111111101011101010111110 I
b10000 8
b10000 H
17
#560000
07
#565000
1&
b11001010111111101011101010111110 (
b11001010111111101011101010111110 V
1+
b10000 ,
b10000 U
b1 \
09
17
#570000
07
#575000
b11 Z
10
16
17
#580000
07
#585000
12
06
b10000 >
00
0&
0+
b11 \
17
#590000
07
#595000
b110 Z
1*
17
#600000
07
#605000
b0 Z
02
b110 \
17
#610000
07
#615000
b0 \
0[
0*
1#
17
#620000
07
#625000
0#
b11001010111111101011101010111110 a
b10000 `
b111 B
b111 A
17
#630000
07
#635000
b100 Z
1[
0^
19
0;
17
#640000
07
#645000
1-
b10000 .
b10000 T
b100 \
09
17
#650000
07
#655000
b101 Z
1/
17
#660000
07
#665000
b11001010111111101011101010111110 3
b11001010111111101011101010111110 F
15
0/
0-
b101 \
17
#670000
07
#675000
b110 Z
1)
b11001010111111101011101010111110 $
b11001010111111101011101010111110 Y
17
#680000
07
#685000
b0 Z
05
b110 \
17
#690000
07
#695000
b0 \
0[
0)
1#
17
#700000
07
#705000
0#
b1010101010101011010101010101010 c
b10100 b
b1000 B
b1000 A
17
#710000
07
#715000
b1 Z
1[
1^
b1010101010101011010101010101010 ]
b10100 X
19
1;
b1010101010101011010101010101010 :
b1010101010101011010101010101010 I
b10100 8
b10100 H
17
#720000
07
#725000
1&
b1010101010101011010101010101010 (
b1010101010101011010101010101010 V
1+
b10100 ,
b10100 U
b1 \
09
17
#730000
07
#735000
b11 Z
10
16
17
#740000
07
#745000
12
06
b10100 >
00
0&
0+
b11 \
17
#750000
07
#755000
b110 Z
1*
17
#760000
07
#765000
b0 Z
02
b110 \
17
#770000
07
#775000
b0 \
0[
0*
1#
17
#780000
07
#785000
0#
b1010101010101011010101010101010 a
b10100 `
b1001 B
b1001 A
17
#790000
07
#795000
b100 Z
1[
0^
19
0;
17
#800000
07
#805000
1-
b10100 .
b10100 T
b100 \
09
17
#810000
07
#815000
b101 Z
1/
17
#820000
07
#825000
b1010101010101011010101010101010 3
b1010101010101011010101010101010 F
15
0/
0-
b101 \
17
#830000
07
#835000
b110 Z
1)
b1010101010101011010101010101010 $
b1010101010101011010101010101010 Y
17
#840000
07
#845000
b0 Z
05
b110 \
17
#850000
07
#855000
b0 \
0[
0)
1#
17
#860000
07
#865000
0#
b0 c
b100000 b
b1010 B
b1010 A
17
#870000
07
#875000
b1 Z
1[
1^
b0 ]
b100000 X
19
1;
b0 :
b0 I
b100000 8
b100000 H
17
#880000
07
#885000
1&
b0 (
b0 V
1+
b100000 ,
b100000 U
b1 \
09
17
#890000
07
#895000
b11 Z
10
16
17
#900000
07
#905000
12
06
b100000 >
00
0&
0+
b11 \
17
#910000
07
#915000
b110 Z
1*
17
#920000
07
#925000
b0 Z
02
b110 \
17
#930000
07
#935000
b0 \
0[
0*
1#
17
#940000
07
#945000
0#
b1 d
b11111111 c
b1011 B
b1011 A
17
#950000
07
#955000
b1 Z
1[
b1 _
b11111111 ]
19
b1 <
b1 J
b11111111 :
b11111111 I
17
#960000
07
#965000
1&
b1 '
b1 W
b11111111 (
b11111111 V
1+
b1 \
09
17
#970000
07
#975000
b11 Z
10
16
17
#980000
07
#985000
12
06
00
0&
0+
b11 \
17
#990000
07
#995000
b110 Z
1*
17
#1000000
07
#1005000
b0 Z
02
b110 \
17
#1010000
07
#1015000
b0 \
0[
0*
1#
17
#1020000
07
#1025000
0#
b10 d
b1111111100000000 c
b1100 B
b1100 A
17
#1030000
07
#1035000
b1 Z
1[
b10 _
b1111111100000000 ]
19
b10 <
b10 J
b1111111100000000 :
b1111111100000000 I
17
#1040000
07
#1045000
1&
b10 '
b10 W
b1111111100000000 (
b1111111100000000 V
1+
b1 \
09
17
#1050000
07
#1055000
b11 Z
10
16
17
#1060000
07
#1065000
12
06
00
0&
0+
b11 \
17
#1070000
07
#1075000
b110 Z
1*
17
#1080000
07
#1085000
b0 Z
02
b110 \
17
#1090000
07
#1095000
b0 \
0[
0*
1#
17
#1100000
07
#1105000
0#
b1111111111111111 a
b100000 `
b1101 B
b1101 A
17
#1110000
07
#1115000
b100 Z
1[
0^
19
0;
17
#1120000
07
#1125000
1-
b100000 .
b100000 T
b100 \
09
17
#1130000
07
#1135000
b101 Z
1/
17
#1140000
07
#1145000
b1111111111111111 3
b1111111111111111 F
15
0/
0-
b101 \
17
#1150000
07
#1155000
b110 Z
1)
b1111111111111111 $
b1111111111111111 Y
17
#1160000
07
#1165000
b0 Z
05
b110 \
17
#1170000
07
#1175000
b0 \
0[
0)
1#
17
#1180000
07
#1185000
0#
b1111 d
b0 c
b100000000 b
b0 @
b1110 B
b1110 A
17
#1190000
07
#1195000
b1 Z
1[
1^
b1111 _
b0 ]
b100000000 X
19
1;
b1111 <
b1111 J
b0 :
b0 I
b100000000 8
b100000000 H
17
#1200000
07
#1205000
1&
b1111 '
b1111 W
b0 (
b0 V
1+
b100000000 ,
b100000000 U
b1 \
09
17
#1210000
07
#1215000
b11 Z
10
16
17
#1220000
07
#1225000
12
06
b100000000 >
00
0&
0+
b11 \
17
#1230000
07
#1235000
b110 Z
1*
17
#1240000
07
#1245000
b0 Z
02
b110 \
17
#1250000
07
#1255000
b0 \
0[
0*
1#
17
#1260000
07
#1265000
0#
b1 c
b100000100 b
b1 @
b1111 B
b1111 A
17
#1270000
07
#1275000
b1 Z
1[
b1 ]
b100000100 X
19
b1 :
b1 I
b100000100 8
b100000100 H
17
#1280000
07
#1285000
1&
b1 (
b1 V
1+
b100000100 ,
b100000100 U
b1 \
09
17
#1290000
07
#1295000
b11 Z
10
16
17
#1300000
07
#1305000
12
06
b100000100 >
00
0&
0+
b11 \
17
#1310000
07
#1315000
b110 Z
1*
17
#1320000
07
#1325000
b0 Z
02
b110 \
17
#1330000
07
#1335000
b0 \
0[
0*
1#
17
#1340000
07
#1345000
0#
b10 c
b100001000 b
b10 @
b10000 B
b10000 A
17
#1350000
07
#1355000
b1 Z
1[
b10 ]
b100001000 X
19
b10 :
b10 I
b100001000 8
b100001000 H
17
#1360000
07
#1365000
1&
b10 (
b10 V
1+
b100001000 ,
b100001000 U
b1 \
09
17
#1370000
07
#1375000
b11 Z
10
16
17
#1380000
07
#1385000
12
06
b100001000 >
00
0&
0+
b11 \
17
#1390000
07
#1395000
b110 Z
1*
17
#1400000
07
#1405000
b0 Z
02
b110 \
17
#1410000
07
#1415000
b0 \
0[
0*
1#
17
#1420000
07
#1425000
0#
b11 c
b100001100 b
b11 @
b10001 B
b10001 A
17
#1430000
07
#1435000
b1 Z
1[
b11 ]
b100001100 X
19
b11 :
b11 I
b100001100 8
b100001100 H
17
#1440000
07
#1445000
1&
b11 (
b11 V
1+
b100001100 ,
b100001100 U
b1 \
09
17
#1450000
07
#1455000
b11 Z
10
16
17
#1460000
07
#1465000
12
06
b100001100 >
00
0&
0+
b11 \
17
#1470000
07
#1475000
b110 Z
1*
17
#1480000
07
#1485000
b0 Z
02
b110 \
17
#1490000
07
#1495000
b0 \
0[
0*
1#
17
#1500000
07
#1505000
0#
b100 c
b100010000 b
b100 @
b10010 B
b10010 A
17
#1510000
07
#1515000
b1 Z
1[
b100 ]
b100010000 X
19
b100 :
b100 I
b100010000 8
b100010000 H
17
#1520000
07
#1525000
1&
b100 (
b100 V
1+
b100010000 ,
b100010000 U
b1 \
09
17
#1530000
07
#1535000
b11 Z
10
16
17
#1540000
07
#1545000
12
06
b100010000 >
00
0&
0+
b11 \
17
#1550000
07
#1555000
b110 Z
1*
17
#1560000
07
#1565000
b0 Z
02
b110 \
17
#1570000
07
#1575000
b0 \
0[
0*
1#
17
#1580000
07
#1585000
0#
b101 c
b100010100 b
b101 @
b10011 B
b10011 A
17
#1590000
07
#1595000
b1 Z
1[
b101 ]
b100010100 X
19
b101 :
b101 I
b100010100 8
b100010100 H
17
#1600000
07
#1605000
1&
b101 (
b101 V
1+
b100010100 ,
b100010100 U
b1 \
09
17
#1610000
07
#1615000
b11 Z
10
16
17
#1620000
07
#1625000
12
06
b100010100 >
00
0&
0+
b11 \
17
#1630000
07
#1635000
b110 Z
1*
17
#1640000
07
#1645000
b0 Z
02
b110 \
17
#1650000
07
#1655000
b0 \
0[
0*
1#
17
#1660000
07
#1665000
0#
b110 c
b100011000 b
b110 @
b10100 B
b10100 A
17
#1670000
07
#1675000
b1 Z
1[
b110 ]
b100011000 X
19
b110 :
b110 I
b100011000 8
b100011000 H
17
#1680000
07
#1685000
1&
b110 (
b110 V
1+
b100011000 ,
b100011000 U
b1 \
09
17
#1690000
07
#1695000
b11 Z
10
16
17
#1700000
07
#1705000
12
06
b100011000 >
00
0&
0+
b11 \
17
#1710000
07
#1715000
b110 Z
1*
17
#1720000
07
#1725000
b0 Z
02
b110 \
17
#1730000
07
#1735000
b0 \
0[
0*
1#
17
#1740000
07
#1745000
0#
b111 c
b100011100 b
b111 @
b10101 B
b10101 A
17
#1750000
07
#1755000
b1 Z
1[
b111 ]
b100011100 X
19
b111 :
b111 I
b100011100 8
b100011100 H
17
#1760000
07
#1765000
1&
b111 (
b111 V
1+
b100011100 ,
b100011100 U
b1 \
09
17
#1770000
07
#1775000
b11 Z
10
16
17
#1780000
07
#1785000
12
06
b100011100 >
00
0&
0+
b11 \
17
#1790000
07
#1795000
b110 Z
1*
17
#1800000
07
#1805000
b0 Z
02
b110 \
17
#1810000
07
#1815000
b0 \
0[
0*
1#
17
#1820000
07
#1825000
0#
b0 a
b100000000 `
b0 @
b10110 B
b10110 A
17
#1830000
07
#1835000
b100 Z
1[
0^
b100000000 X
19
0;
b100000000 8
b100000000 H
17
#1840000
07
#1845000
1-
b100000000 .
b100000000 T
b100 \
09
17
#1850000
07
#1855000
b101 Z
1/
17
#1860000
07
#1865000
b0 3
b0 F
15
0/
0-
b101 \
17
#1870000
07
#1875000
b110 Z
1)
b0 $
b0 Y
17
#1880000
07
#1885000
b0 Z
05
b110 \
17
#1890000
07
#1895000
b0 \
0[
0)
1#
17
#1900000
07
#1905000
0#
b1 a
b100000100 `
b1 @
b10111 B
b10111 A
17
#1910000
07
#1915000
b100 Z
1[
b100000100 X
19
b100000100 8
b100000100 H
17
#1920000
07
#1925000
1-
b100000100 .
b100000100 T
b100 \
09
17
#1930000
07
#1935000
b101 Z
1/
17
#1940000
07
#1945000
b1 3
b1 F
15
0/
0-
b101 \
17
#1950000
07
#1955000
b110 Z
1)
b1 $
b1 Y
17
#1960000
07
#1965000
b0 Z
05
b110 \
17
#1970000
07
#1975000
b0 \
0[
0)
1#
17
#1980000
07
#1985000
0#
b10 a
b100001000 `
b10 @
b11000 B
b11000 A
17
#1990000
07
#1995000
b100 Z
1[
b100001000 X
19
b100001000 8
b100001000 H
17
#2000000
07
#2005000
1-
b100001000 .
b100001000 T
b100 \
09
17
#2010000
07
#2015000
b101 Z
1/
17
#2020000
07
#2025000
b10 3
b10 F
15
0/
0-
b101 \
17
#2030000
07
#2035000
b110 Z
1)
b10 $
b10 Y
17
#2040000
07
#2045000
b0 Z
05
b110 \
17
#2050000
07
#2055000
b0 \
0[
0)
1#
17
#2060000
07
#2065000
0#
b11 a
b100001100 `
b11 @
b11001 B
b11001 A
17
#2070000
07
#2075000
b100 Z
1[
b100001100 X
19
b100001100 8
b100001100 H
17
#2080000
07
#2085000
1-
b100001100 .
b100001100 T
b100 \
09
17
#2090000
07
#2095000
b101 Z
1/
17
#2100000
07
#2105000
b11 3
b11 F
15
0/
0-
b101 \
17
#2110000
07
#2115000
b110 Z
1)
b11 $
b11 Y
17
#2120000
07
#2125000
b0 Z
05
b110 \
17
#2130000
07
#2135000
b0 \
0[
0)
1#
17
#2140000
07
#2145000
0#
b100 a
b100010000 `
b100 @
b11010 B
b11010 A
17
#2150000
07
#2155000
b100 Z
1[
b100010000 X
19
b100010000 8
b100010000 H
17
#2160000
07
#2165000
1-
b100010000 .
b100010000 T
b100 \
09
17
#2170000
07
#2175000
b101 Z
1/
17
#2180000
07
#2185000
b100 3
b100 F
15
0/
0-
b101 \
17
#2190000
07
#2195000
b110 Z
1)
b100 $
b100 Y
17
#2200000
07
#2205000
b0 Z
05
b110 \
17
#2210000
07
#2215000
b0 \
0[
0)
1#
17
#2220000
07
#2225000
0#
b101 a
b100010100 `
b101 @
b11011 B
b11011 A
17
#2230000
07
#2235000
b100 Z
1[
b100010100 X
19
b100010100 8
b100010100 H
17
#2240000
07
#2245000
1-
b100010100 .
b100010100 T
b100 \
09
17
#2250000
07
#2255000
b101 Z
1/
17
#2260000
07
#2265000
b101 3
b101 F
15
0/
0-
b101 \
17
#2270000
07
#2275000
b110 Z
1)
b101 $
b101 Y
17
#2280000
07
#2285000
b0 Z
05
b110 \
17
#2290000
07
#2295000
b0 \
0[
0)
1#
17
#2300000
07
#2305000
0#
b110 a
b100011000 `
b110 @
b11100 B
b11100 A
17
#2310000
07
#2315000
b100 Z
1[
b100011000 X
19
b100011000 8
b100011000 H
17
#2320000
07
#2325000
1-
b100011000 .
b100011000 T
b100 \
09
17
#2330000
07
#2335000
b101 Z
1/
17
#2340000
07
#2345000
b110 3
b110 F
15
0/
0-
b101 \
17
#2350000
07
#2355000
b110 Z
1)
b110 $
b110 Y
17
#2360000
07
#2365000
b0 Z
05
b110 \
17
#2370000
07
#2375000
b0 \
0[
0)
1#
17
#2380000
07
#2385000
0#
b111 a
b100011100 `
b111 @
b11101 B
b11101 A
17
#2390000
07
#2395000
b100 Z
1[
b100011100 X
19
b100011100 8
b100011100 H
17
#2400000
07
#2405000
1-
b100011100 .
b100011100 T
b100 \
09
17
#2410000
07
#2415000
b101 Z
1/
17
#2420000
07
#2425000
b111 3
b111 F
15
0/
0-
b101 \
17
#2430000
07
#2435000
b110 Z
1)
b111 $
b111 Y
17
#2440000
07
#2445000
b0 Z
05
b110 \
17
#2450000
07
#2455000
b0 \
0[
0)
1#
17
#2460000
07
#2465000
0#
b10101010101010101010101010101010 c
b10000000 b
b1000 @
b11110 B
b11110 A
17
#2470000
07
#2475000
b1 Z
1[
1^
b10101010101010101010101010101010 ]
b10000000 X
19
1;
b10101010101010101010101010101010 :
b10101010101010101010101010101010 I
b10000000 8
b10000000 H
17
#2480000
07
#2485000
1&
b10101010101010101010101010101010 (
b10101010101010101010101010101010 V
1+
b10000000 ,
b10000000 U
b1 \
09
17
#2490000
07
#2495000
b11 Z
10
16
17
#2500000
07
#2505000
12
06
b10000000 >
00
0&
0+
b11 \
17
#2510000
07
#2515000
b110 Z
1*
17
#2520000
07
#2525000
b0 Z
02
b110 \
17
#2530000
07
#2535000
b0 \
0[
0*
1#
17
#2540000
07
#2545000
0#
b1010101010101010101010101010101 c
b1000000 b
b11111 B
b11111 A
17
#2550000
07
#2555000
b1 Z
1[
b1010101010101010101010101010101 ]
b1000000 X
19
b1010101010101010101010101010101 :
b1010101010101010101010101010101 I
b1000000 8
b1000000 H
17
#2560000
07
#2565000
1&
b1010101010101010101010101010101 (
b1010101010101010101010101010101 V
1+
b1000000 ,
b1000000 U
b1 \
09
17
#2570000
07
#2575000
b11 Z
10
16
17
#2580000
07
#2585000
12
06
b1000000 >
00
0&
0+
b11 \
17
#2590000
07
#2595000
b110 Z
1*
17
#2600000
07
#2605000
b0 Z
02
b110 \
17
#2610000
07
#2615000
b0 \
0[
0*
1#
17
#2620000
07
#2625000
0#
b10101010101010101010101010101010 a
b10000000 `
b100000 B
b100000 A
17
#2630000
07
#2635000
b100 Z
1[
0^
b10000000 X
19
0;
b10000000 8
b10000000 H
17
#2640000
07
#2645000
1-
b10000000 .
b10000000 T
b100 \
09
17
#2650000
07
#2655000
b101 Z
1/
17
#2660000
07
#2665000
b10101010101010101010101010101010 3
b10101010101010101010101010101010 F
15
0/
0-
b101 \
17
#2670000
07
#2675000
b110 Z
1)
b10101010101010101010101010101010 $
b10101010101010101010101010101010 Y
17
#2680000
07
#2685000
b0 Z
05
b110 \
17
#2690000
07
#2695000
b0 \
0[
0)
1#
17
#2700000
07
#2705000
0#
b1010101010101010101010101010101 a
b1000000 `
b100001 B
b100001 A
17
#2710000
07
#2715000
b100 Z
1[
b1000000 X
19
b1000000 8
b1000000 H
17
#2720000
07
#2725000
1-
b1000000 .
b1000000 T
b100 \
09
17
#2730000
07
#2735000
b101 Z
1/
17
#2740000
07
#2745000
b1010101010101010101010101010101 3
b1010101010101010101010101010101 F
15
0/
0-
b101 \
17
#2750000
07
#2755000
b110 Z
1)
b1010101010101010101010101010101 $
b1010101010101010101010101010101 Y
17
#2760000
07
#2765000
b0 Z
05
b110 \
17
#2770000
07
#2775000
b0 \
0[
0)
1#
17
#2780000
07
#2785000
0#
b100010 B
b100010 A
17
