cpu/datapath_debug.vcd
$date
	Tue Jan 20 21:11:45 2026
$end
$version
	Icarus Verilog
$end
$timescale
	1ps
$end
$scope module datapath_tb $end
$var wire 32 ! alu_result_debug [31:0] $end
$var wire 1 " branch_taken_debug $end
$var wire 32 # branch_target_debug [31:0] $end
$var wire 32 $ dmem_addr [31:0] $end
$var wire 1 % dmem_en $end
$var wire 1 & dmem_sign_ext $end
$var wire 3 ' dmem_size [2:0] $end
$var wire 32 ( dmem_wdata [31:0] $end
$var wire 1 ) dmem_we $end
$var wire 2 * forward_a_debug [1:0] $end
$var wire 2 + forward_b_debug [1:0] $end
$var wire 32 , imem_addr [31:0] $end
$var wire 32 - instruction_current [31:0] $end
$var wire 32 . mem_out_debug [31:0] $end
$var wire 32 / pc_current [31:0] $end
$var wire 1 0 stall_debug $end
$var reg 1 1 clk $end
$var integer 32 2 cycle_count [31:0] $end
$var reg 32 3 dmem_rdata [31:0] $end
$var integer 32 4 i [31:0] $end
$var reg 32 5 imem_data [31:0] $end
$var reg 32 6 last_pc [31:0] $end
$var integer 32 7 pc_idx [31:0] $end
$var reg 1 8 reset $end
$scope module dut $end
$var wire 4 9 alu_control_ex [3:0] $end
$var wire 4 : alu_control_id [3:0] $end
$var wire 32 ; alu_in1 [31:0] $end
$var wire 32 < alu_in2 [31:0] $end
$var wire 32 = alu_result_debug [31:0] $end
$var wire 32 > alu_result_ex [31:0] $end
$var wire 32 ? alu_result_mem [31:0] $end
$var wire 32 @ alu_result_wb [31:0] $end
$var wire 2 A aluop_id [1:0] $end
$var wire 1 B alusrc_ex $end
$var wire 1 C alusrc_id $end
$var wire 1 D branch_decision $end
$var wire 1 E branch_ex $end
$var wire 1 F branch_id $end
$var wire 1 G branch_taken $end
$var wire 1 " branch_taken_debug $end
$var wire 1 H branch_taken_detected $end
$var wire 1 I branch_taken_reg $end
$var wire 32 J branch_target [31:0] $end
$var wire 32 K branch_target_calc [31:0] $end
$var wire 32 L branch_target_debug [31:0] $end
$var wire 32 M branch_target_reg [31:0] $end
$var wire 2 N byte_size_ex [1:0] $end
$var wire 2 O byte_size_id [1:0] $end
$var wire 1 P clock $end
$var wire 32 Q dmem_addr [31:0] $end
$var wire 1 % dmem_en $end
$var wire 32 R dmem_rdata [31:0] $end
$var wire 1 & dmem_sign_ext $end
$var wire 3 S dmem_size [2:0] $end
$var wire 32 T dmem_wdata [31:0] $end
$var wire 1 ) dmem_we $end
$var wire 1 U flush_id_ex $end
$var wire 1 V flush_if_id $end
$var wire 2 W forward_a [1:0] $end
$var wire 2 X forward_a_debug [1:0] $end
$var wire 2 Y forward_b [1:0] $end
$var wire 2 Z forward_b_debug [1:0] $end
$var wire 3 [ funct3_ex [2:0] $end
$var wire 3 \ funct3_id [2:0] $end
$var wire 7 ] funct7_ex [6:0] $end
$var wire 7 ^ funct7_id [6:0] $end
$var wire 32 _ imem_addr [31:0] $end
$var wire 32 ` imem_data [31:0] $end
$var wire 32 a imm_ex [31:0] $end
$var wire 32 b imm_id [31:0] $end
$var wire 32 c instruction_current [31:0] $end
$var wire 32 d instruction_id [31:0] $end
$var wire 32 e instruction_if [31:0] $end
$var wire 1 f is_auipc $end
$var wire 1 g is_branch $end
$var wire 1 h is_jal $end
$var wire 1 i is_jalr $end
$var wire 1 j is_lui $end
$var wire 1 k jal_taken $end
$var wire 32 l jal_target [31:0] $end
$var wire 1 m jalr_taken $end
$var wire 32 n jalr_target [31:0] $end
$var wire 1 o jump_ex $end
$var wire 1 p jump_id $end
$var wire 1 q jump_wb $end
$var wire 1 r less_than $end
$var wire 1 s less_than_u $end
$var wire 32 t mem_data_wb [31:0] $end
$var wire 32 u mem_out_debug [31:0] $end
$var wire 32 v mem_read_data [31:0] $end
$var wire 1 w memread_ex $end
$var wire 1 x memread_id $end
$var wire 1 y memtoreg_ex $end
$var wire 1 z memtoreg_id $end
$var wire 1 { memtoreg_wb $end
$var wire 1 | memwrite_ex $end
$var wire 1 } memwrite_id $end
$var wire 7 ~ opcode_ex [6:0] $end
$var wire 7 !" opcode_id [6:0] $end
$var wire 32 "" pc_current [31:0] $end
$var wire 32 #" pc_ex [31:0] $end
$var wire 32 $" pc_id [31:0] $end
$var wire 32 %" pc_if [31:0] $end
$var wire 32 &" pc_plus_4_ex [31:0] $end
$var wire 32 '" pc_plus_4_wb [31:0] $end
$var wire 5 (" rd_ex [4:0] $end
$var wire 5 )" rd_id [4:0] $end
$var wire 5 *" rd_mem [4:0] $end
$var wire 5 +" rd_wb [4:0] $end
$var wire 32 ," read_data1_ex [31:0] $end
$var wire 32 -" read_data1_id [31:0] $end
$var wire 32 ." read_data2_ex [31:0] $end
$var wire 32 /" read_data2_id [31:0] $end
$var wire 1 0" regwrite_ex $end
$var wire 1 1" regwrite_id $end
$var wire 1 2" regwrite_mem $end
$var wire 1 3" regwrite_wb $end
$var wire 1 4" reset $end
$var wire 5 5" rs1_ex [4:0] $end
$var wire 5 6" rs1_id [4:0] $end
$var wire 5 7" rs2_ex [4:0] $end
$var wire 5 8" rs2_id [4:0] $end
$var wire 1 9" sign_ext $end
$var wire 1 :" stall $end
$var wire 1 0 stall_debug $end
$var wire 32 ;" wb_data_temp [31:0] $end
$var wire 32 <" write_data_wb [31:0] $end
$var wire 1 =" zero_flag $end
$var reg 4 >" alu_control_ex_reg [3:0] $end
$var reg 32 ?" alu_in1_forwarded [31:0] $end
$var reg 32 @" alu_result_mem_reg [31:0] $end
$var reg 32 A" alu_result_wb_reg [31:0] $end
$var reg 1 B" branch_taken_ff $end
$var reg 32 C" branch_target_ff [31:0] $end
$var reg 2 D" byte_size_ex_reg [1:0] $end
$var reg 2 E" byte_size_mem_reg [1:0] $end
$var reg 32 F" forwarded_data2 [31:0] $end
$var reg 3 G" funct3_mem_reg [2:0] $end
$var reg 1 H" jump_mem_reg $end
$var reg 1 I" jump_wb_reg $end
$var reg 32 J" mem_data_wb_reg [31:0] $end
$var reg 1 K" memread_mem_reg $end
$var reg 1 L" memtoreg_mem_reg $end
$var reg 1 M" memtoreg_wb_reg $end
$var reg 1 N" memwrite_mem_reg $end
$var reg 7 O" opcode_ex_reg [6:0] $end
$var reg 32 P" pc_plus_4_mem_reg [31:0] $end
$var reg 32 Q" pc_plus_4_wb_reg [31:0] $end
$var reg 5 R" rd_mem_reg [4:0] $end
$var reg 5 S" rd_wb_reg [4:0] $end
$var reg 1 T" regwrite_mem_reg $end
$var reg 1 U" regwrite_wb_reg $end
$var reg 32 V" write_data_mem_reg [31:0] $end
$scope module ifu $end
$var wire 32 W" Instruction_Code [31:0] $end
$var wire 1 P clock $end
$var wire 32 X" imem_addr [31:0] $end
$var wire 32 Y" imem_data [31:0] $end
$var wire 32 Z" next_pc [31:0] $end
$var wire 1 I pc_src $end
$var wire 1 4" reset $end
$var wire 1 :" stall $end
$var wire 32 [" target_pc [31:0] $end
$var reg 32 \" PC [31:0] $end
$var reg 32 ]" PC_out [31:0] $end
$upscope $end
$scope module if_id_reg $end
$var wire 1 P clock $end
$var wire 1 V flush $end
$var wire 32 ^" instr_in [31:0] $end
$var wire 32 _" pc_in [31:0] $end
$var wire 1 4" reset $end
$var wire 1 :" stall $end
$var reg 32 `" instr_out [31:0] $end
$var reg 32 a" pc_out [31:0] $end
$upscope $end
$scope module control_unit $end
$var wire 3 b" funct3 [2:0] $end
$var wire 7 c" funct7 [6:0] $end
$var wire 7 d" opcode [6:0] $end
$var reg 4 e" alu_control [3:0] $end
$var reg 2 f" aluop [1:0] $end
$var reg 1 g" alusrc $end
$var reg 1 h" branch $end
$var reg 2 i" byte_size [1:0] $end
$var reg 1 j" jump $end
$var reg 1 k" memread $end
$var reg 1 l" memtoreg $end
$var reg 1 m" memwrite $end
$var reg 1 n" regwrite $end
$upscope $end
$scope module register_file $end
$var wire 1 P clock $end
$var wire 32 o" read_data1 [31:0] $end
$var wire 32 p" read_data2 [31:0] $end
$var wire 5 q" read_reg_num1 [4:0] $end
$var wire 5 r" read_reg_num2 [4:0] $end
$var wire 1 3" regwrite $end
$var wire 1 4" reset $end
$var wire 32 s" write_data [31:0] $end
$var wire 5 t" write_reg [4:0] $end
$var integer 32 u" i [31:0] $end
$upscope $end
$scope module immediate_gen $end
$var wire 32 v" instr [31:0] $end
$var wire 7 w" opcode [6:0] $end
$var reg 32 x" imm [31:0] $end
$upscope $end
$scope module hazard_unit $end
$var wire 1 I branch_taken $end
$var wire 1 w memread_id_ex $end
$var wire 5 y" rd_id_ex [4:0] $end
$var wire 5 z" rs1_id [4:0] $end
$var wire 5 {" rs2_id [4:0] $end
$var reg 1 |" flush_id_ex $end
$var reg 1 }" flush_if_id $end
$var reg 1 ~" stall $end
$upscope $end
$scope module id_ex_reg $end
$var wire 1 C alusrc_in $end
$var wire 1 F branch_in $end
$var wire 1 P clock $end
$var wire 1 U flush $end
$var wire 3 !# funct3_in [2:0] $end
$var wire 7 "# funct7_in [6:0] $end
$var wire 32 ## imm_in [31:0] $end
$var wire 1 p jump_in $end
$var wire 1 x memread_in $end
$var wire 1 z memtoreg_in $end
$var wire 1 } memwrite_in $end
$var wire 32 $# pc_in [31:0] $end
$var wire 5 %# rd_in [4:0] $end
$var wire 32 &# read_data1_in [31:0] $end
$var wire 32 '# read_data2_in [31:0] $end
$var wire 1 1" regwrite_in $end
$var wire 1 4" reset $end
$var wire 5 (# rs1_in [4:0] $end
$var wire 5 )# rs2_in [4:0] $end
$var wire 1 *# stall $end
$var reg 1 +# alusrc_out $end
$var reg 1 ,# branch_out $end
$var reg 3 -# funct3_out [2:0] $end
$var reg 7 .# funct7_out [6:0] $end
$var reg 32 /# imm_out [31:0] $end
$var reg 1 0# jump_out $end
$var reg 1 1# memread_out $end
$var reg 1 2# memtoreg_out $end
$var reg 1 3# memwrite_out $end
$var reg 32 4# pc_out [31:0] $end
$var reg 5 5# rd_out [4:0] $end
$var reg 32 6# read_data1_out [31:0] $end
$var reg 32 7# read_data2_out [31:0] $end
$var reg 1 8# regwrite_out $end
$var reg 5 9# rs1_out [4:0] $end
$var reg 5 :# rs2_out [4:0] $end
$upscope $end
$scope module forward_unit $end
$var wire 5 ;# rd_mem [4:0] $end
$var wire 5 <# rd_wb [4:0] $end
$var wire 1 2" regwrite_mem $end
$var wire 1 3" regwrite_wb $end
$var wire 5 =# rs1_ex [4:0] $end
$var wire 5 ># rs2_ex [4:0] $end
$var reg 2 ?# forward_a [1:0] $end
$var reg 2 @# forward_b [1:0] $end
$upscope $end
$scope module alu_unit $end
$var wire 4 A# alu_control [3:0] $end
$var wire 32 B# in1 [31:0] $end
$var wire 32 C# in1_signed [31:0] $end
$var wire 32 D# in2 [31:0] $end
$var wire 32 E# in2_signed [31:0] $end
$var wire 1 r less_than $end
$var wire 1 s less_than_u $end
$var wire 64 F# mul_result_signed [63:0] $end
$var wire 64 G# mul_result_unsigned [63:0] $end
$var wire 1 =" zero_flag $end
$var reg 32 H# alu_result [31:0] $end
$upscope $end
$scope module branch_unit $end
$var wire 1 E branch $end
$var wire 3 I# funct3 [2:0] $end
$var wire 1 r less_than $end
$var wire 1 s less_than_u $end
$var wire 1 =" zero_flag $end
$var reg 1 J# taken $end
$upscope $end
$upscope $end
$scope task wait_cycles $end
$var integer 32 K# k [31:0] $end
$var integer 32 L# n [31:0] $end
$upscope $end
$upscope $end
$enddefinitions $end
#0
$dumpvars
b101 L#
b0 K#
0J#
b0 I#
b0 H#
b0 G#
b0 F#
b0 E#
b0 D#
b0 C#
b0 B#
b0 A#
b0 @#
b0 ?#
b0 >#
b0 =#
b0 <#
b0 ;#
b0 :#
b0 9#
08#
b0 7#
b0 6#
b0 5#
b0 4#
03#
02#
01#
00#
b0 /#
b0 .#
b0 -#
0,#
0+#
0*#
b0 )#
b0 (#
b0 '#
b0 &#
b0 %#
b0 $#
b0 ##
b0 "#
b0 !#
0~"
0}"
0|"
b0 {"
b0 z"
b0 y"
b0 x"
b10011 w"
b10011 v"
b100000 u"
b0 t"
b0 s"
b0 r"
b0 q"
b0 p"
b0 o"
1n"
0m"
0l"
0k"
0j"
b10 i"
0h"
1g"
b10 f"
b0 e"
b10011 d"
b0 c"
b0 b"
b0 a"
b10011 `"
b0 _"
b10100000000000010010011 ^"
b0 ]"
b0 \"
b0 ["
b100 Z"
b10100000000000010010011 Y"
b0 X"
b10100000000000010010011 W"
b0 V"
0U"
0T"
b0 S"
b0 R"
b0 Q"
b0 P"
b0 O"
0N"
0M"
0L"
0K"
b0 J"
0I"
0H"
b0 G"
b0 F"
b10 E"
b10 D"
b0 C"
0B"
b0 A"
b0 @"
b0 ?"
b0 >"
1="
b0 <"
b0 ;"
0:"
19"
b0 8"
b0 7"
b0 6"
b0 5"
14"
03"
02"
11"
00"
b0 /"
b0 ."
b0 -"
b0 ,"
b0 +"
b0 *"
b0 )"
b0 ("
b0 '"
b100 &"
b0 %"
b0 $"
b0 #"
b0 ""
b10011 !"
b0 ~
0}
0|
0{
0z
0y
0x
0w
b0 v
b0 u
b0 t
0s
0r
0q
0p
0o
b0 n
0m
b0 l
0k
0j
0i
0h
0g
0f
b10100000000000010010011 e
b10011 d
b10100000000000010010011 c
b0 b
b0 a
b10100000000000010010011 `
b0 _
b0 ^
b0 ]
b0 \
b0 [
b0 Z
b0 Y
b0 X
b0 W
0V
0U
b0 T
b10 S
b0 R
b0 Q
0P
b10 O
b10 N
b0 M
b0 L
b0 K
b0 J
0I
0H
0G
0F
0E
0D
1C
0B
b10 A
b0 @
b0 ?
b0 >
b0 =
b0 <
b0 ;
b0 :
b0 9
18
b10000 7
b0 6
b10100000000000010010011 5
b10000000000 4
b0 3
b0 2
01
00
b0 /
b0 .
b10100000000000010010011 -
b0 ,
b0 +
b0 *
0)
b0 (
b10 '
1&
0%
b0 $
b0 #
0"
b0 !
$end
#5000
b100000 u"
b1 K#
11
1P
#10000
01
0P
#15000
b100000 u"
b10 K#
11
1P
#20000
01
0P
#25000
b100000 u"
b11 K#
11
1P
#30000
01
0P
#35000
b100000 u"
b100 K#
11
1P
#40000
01
0P
#45000
b1000 Z"
b101 8"
b101 r"
b101 {"
b101 )#
b1 )"
b1 %#
b101 x"
b101 b
b101 ##
b100 ]"
b100 %"
b100 _"
b100 /
b100 ""
b101000000000000100010011 5
b101000000000000100010011 `
b101000000000000100010011 Y"
b101000000000000100010011 e
b101000000000000100010011 W"
b101000000000000100010011 ^"
b101000000000000100010011 -
b101000000000000100010011 c
b100 P"
b10011 O"
b10011 ~
1+#
1B
18#
10"
b10100000000000010010011 `"
b10100000000000010010011 d
b10100000000000010010011 v"
b100 \"
b100 ,
b100 _
b100 X"
b1100100 L#
08
04"
b0 K#
11
1P
#50000
01
0P
#55000
b1100 Z"
b101 K
b101 H#
0="
b101 >
b101 !
b101 =
b1000 ]"
b1000 %"
b1000 _"
b1000 /
b1000 ""
b1000001000000110110011 5
b1000001000000110110011 `
b1000001000000110110011 Y"
b1000001000000110110011 e
b1000001000000110110011 W"
b1000001000000110110011 ^"
b1000001000000110110011 -
b1000001000000110110011 c
b1010 8"
b1010 r"
b1010 {"
b1010 )#
b10 )"
b10 %#
b1010 x"
b1010 b
b1010 ##
b100 n
1r
1s
b101 <
b101 D#
b101 E#
b1000 \"
b1000 ,
b1000 _
b1000 X"
b100 a"
b100 $"
b100 $#
b101000000000000100010011 `"
b101000000000000100010011 d
b101000000000000100010011 v"
b1 5#
b1 ("
b1 y"
b101 :#
b101 7"
b101 >#
b101 /#
b101 J
b101 l
b101 a
1T"
12"
b100 Q"
b100 '"
b100 6
b1 2
b1 K#
11
1P
#60000
01
0P
#65000
b1110 K
b1010 H#
b1010 >
b1010 !
b1010 =
b10 f"
b10 A
0g"
0C
1n"
11"
b10000 Z"
b1010 n
b1010 <
b1010 D#
b1010 E#
b110011 w"
b10 8"
b10 r"
b10 {"
b10 )#
b1 6"
b1 q"
b1 z"
b1 (#
b11 )"
b11 %#
b110011 !"
b110011 d"
b0 x"
b0 b
b0 ##
b1100 ]"
b1100 %"
b1100 _"
b1100 /
b1100 ""
b1000001000010001100011 5
b1000001000010001100011 `
b1000001000010001100011 Y"
b1000001000010001100011 e
b1000001000010001100011 W"
b1000001000010001100011 ^"
b1000001000010001100011 -
b1000001000010001100011 c
1U"
13"
b1 R"
b1 *"
b1 ;#
b101 @"
b101 ?
b101 $
b101 Q
b101 C"
b101 M
b101 ["
b101 #
b101 L
b10 5#
b10 ("
b10 y"
b1010 :#
b1010 7"
b1010 >#
b100 4#
b1000 &"
b100 #"
b1010 /#
b1110 J
b1110 l
b1010 a
b1000 a"
b1000 $"
b1000 $#
b1000001000000110110011 `"
b1000001000000110110011 d
b1000001000000110110011 v"
b1100 \"
b1100 ,
b1100 _
b1100 X"
b10 K#
b1000 6
b10 2
11
1P
#70000
01
0P
#75000
b1111 H#
b1111 >
b1111 !
b1111 =
b110010 F#
b110010 G#
b101 ;
b101 B#
b101 C#
b101 -"
b101 o"
b101 &#
b101 ?"
b10100 Z"
b1000 x"
b1000 b
b1000 ##
b1 e"
b1 :
1h"
1F
b0 f"
b0 A
0n"
01"
b1000 K
b101 <"
b101 s"
b10000 ]"
b10000 %"
b10000 _"
b10000 /
b10000 ""
b100000000001000010011 5
b100000000001000010011 `
b100000000001000010011 Y"
b100000000001000010011 e
b100000000001000010011 W"
b100000000001000010011 ^"
b100000000001000010011 -
b100000000001000010011 c
b1100011 w"
b1000 )"
b1000 %#
b1100011 !"
b1100011 d"
b100 n
b1010 F"
b10 @#
b10 Y
b10 +
b10 Z
b1 ?#
b1 W
b1 *
b1 X
b101 ;"
b10000 \"
b10000 ,
b10000 _
b10000 X"
b1100 a"
b1100 $"
b1100 $#
b1000001000010001100011 `"
b1000001000010001100011 d
b1000001000010001100011 v"
b11 5#
b11 ("
b11 y"
b10 :#
b10 7"
b10 >#
b1 9#
b1 5"
b1 =#
b1000 4#
b1100 &"
b1000 #"
b0 /#
b1000 J
b1000 l
b0 a
0+#
0B
b110011 O"
b110011 ~
b1110 C"
b1110 M
b1110 ["
b1110 #
b1110 L
b1000 P"
b10 R"
b10 *"
b10 ;#
b1010 @"
b1010 ?
b1010 $
b1010 Q
b1 S"
b1 +"
b1 t"
b1 <#
b101 A"
b101 @
b1100 6
b11 2
b11 K#
11
1P
#80000
01
0P
#85000
0H
0G
0J#
0D
0="
1r
1s
b101 /"
b101 p"
b101 '#
b1010 <"
b1010 s"
b110010 F#
b110010 G#
b1010 <
b1010 D#
b1010 E#
b10100 K
b0 -"
b0 o"
b0 &#
b10 f"
b10 A
1g"
1C
1n"
11"
b0 e"
b0 :
0h"
0F
b11000 Z"
b1010 ;"
b1 @#
b1 Y
b1 +
b1 Z
b0 ?#
b0 W
b0 *
b0 X
b1010 F"
b11111111111111111111111111111011 H#
b11111111111111111111111111111011 >
b11111111111111111111111111111011 !
b11111111111111111111111111111011 =
b1100 n
b10011 w"
b1 8"
b1 r"
b1 {"
b1 )#
b0 6"
b0 q"
b0 z"
b0 (#
b100 )"
b100 %#
b10011 !"
b10011 d"
b1 x"
b1 b
b1 ##
b10100 ]"
b10100 %"
b10100 _"
b10100 /
b10100 ""
b100001000010001100011 5
b100001000010001100011 `
b100001000010001100011 Y"
b100001000010001100011 e
b100001000010001100011 W"
b100001000010001100011 ^"
b100001000010001100011 -
b100001000010001100011 c
b10 S"
b10 +"
b10 t"
b10 <#
b1000 Q"
b1000 '"
b1010 A"
b1010 @
b1100 P"
b11 R"
b11 *"
b11 ;#
b1010 V"
b1010 (
b1010 T
b1111 @"
b1111 ?
b1111 $
b1111 Q
b1000 C"
b1000 M
b1000 ["
b1000 #
b1000 L
b1100011 O"
1g
b1100011 ~
b1 >"
b1 9
b1 A#
b1000 5#
b1000 ("
b1000 y"
b1100 4#
b10000 &"
b1100 #"
b1000 /#
b10100 J
b10100 l
b1000 a
b101 6#
b101 ,"
1,#
1E
08#
00"
b10000 a"
b10000 $"
b10000 $#
b100000000001000010011 `"
b100000000001000010011 d
b100000000001000010011 v"
b10100 \"
b10100 ,
b10100 _
b10100 X"
b100 K#
b10000 6
b100 2
11
1P
#90000
01
0P
#95000
b0 ;
b0 B#
b0 C#
b11100 Z"
b1000 x"
b1000 b
b1000 ##
b101 -"
b101 o"
b101 &#
b1 e"
b1 :
1h"
1F
b0 f"
b0 A
0g"
0C
0n"
01"
b10001 K
b1111 <"
b1111 s"
b11000 ]"
b11000 %"
b11000 _"
b11000 /
b11000 ""
b1000000000001010010011 5
b1000000000001010010011 `
b1000000000001010010011 Y"
b1000000000001010010011 e
b1000000000001010010011 W"
b1000000000001010010011 ^"
b1000000000001010010011 -
b1000000000001010010011 c
b1100011 w"
b1 6"
b1 q"
b1 z"
b1 (#
b1000 )"
b1000 %#
b1100011 !"
b1100011 d"
b0 n
b0 F#
b0 G#
1r
1s
b1 <
b1 D#
b1 E#
b1 H#
b1 >
b1 !
b1 =
b101 F"
b0 ?"
b0 @#
b0 Y
b0 +
b0 Z
b1111 ;"
b11000 \"
b11000 ,
b11000 _
b11000 X"
b10100 a"
b10100 $"
b10100 $#
b100001000010001100011 `"
b100001000010001100011 d
b100001000010001100011 v"
b100 5#
b100 ("
b100 y"
b1 :#
b1 7"
b1 >#
b0 9#
b0 5"
b0 =#
b10000 4#
b10100 &"
b10000 #"
b1 /#
b10001 J
b10001 l
b1 a
b101 7#
b101 ."
b0 6#
b0 ,"
0,#
0E
1+#
1B
18#
10"
b10011 O"
0g
b10011 ~
b0 >"
b0 9
b0 A#
b10100 C"
b10100 M
b10100 ["
b10100 #
b10100 L
b10000 P"
b1000 R"
b1000 *"
b1000 ;#
b11111111111111111111111111111011 @"
b11111111111111111111111111111011 ?
b11111111111111111111111111111011 $
b11111111111111111111111111111011 Q
0T"
02"
b11 S"
b11 +"
b11 t"
b11 <#
b1100 Q"
b1100 '"
b1111 A"
b1111 @
b10100 6
b101 2
b101 K#
11
1P
#100000
01
0P
#105000
1H
1G
1J#
1D
1="
b11001 F#
b11001 G#
0r
0s
b101 ;
b101 B#
b101 C#
b1010 /"
b1010 p"
b1010 '#
b11111111111111111111111111111011 <"
b11111111111111111111111111111011 s"
b11100 K
b0 -"
b0 o"
b0 &#
b10 f"
b10 A
1g"
1C
1n"
11"
b0 e"
b0 :
0h"
0F
b100000 Z"
b11111111111111111111111111111011 ;"
b0 H#
b0 >
b0 !
b0 =
b1100 n
b101 ?"
b101 <
b101 D#
b101 E#
b10011 w"
b10 8"
b10 r"
b10 {"
b10 )#
b0 6"
b0 q"
b0 z"
b0 (#
b101 )"
b101 %#
b10011 !"
b10011 d"
b10 x"
b10 b
b10 ##
b11100 ]"
b11100 %"
b11100 _"
b11100 /
b11100 ""
b1100000000001100010011 5
b1100000000001100010011 `
b1100000000001100010011 Y"
b1100000000001100010011 e
b1100000000001100010011 W"
b1100000000001100010011 ^"
b1100000000001100010011 -
b1100000000001100010011 c
b1000 S"
b1000 +"
b1000 t"
b1000 <#
b10000 Q"
b10000 '"
b11111111111111111111111111111011 A"
b11111111111111111111111111111011 @
0U"
03"
b10100 P"
b100 R"
b100 *"
b100 ;#
b101 V"
b101 (
b101 T
b1 @"
b1 ?
b1 $
b1 Q
1T"
12"
b10001 C"
b10001 M
b10001 ["
b10001 #
b10001 L
b1100011 O"
1g
b1100011 ~
b1 >"
b1 9
b1 A#
b1000 5#
b1000 ("
b1000 y"
b1 9#
b1 5"
b1 =#
b10100 4#
b11000 &"
b10100 #"
b1000 /#
b11100 J
b11100 l
b1000 a
b101 6#
b101 ,"
1,#
1E
0+#
0B
08#
00"
b11000 a"
b11000 $"
b11000 $#
b1000000000001010010011 `"
b1000000000001010010011 d
b1000000000001010010011 v"
b11100 \"
b11100 ,
b11100 _
b11100 X"
b110 K#
b11000 6
b110 2
11
1P
#110000
01
0P
#115000
b1111 /"
b1111 p"
b1111 '#
1r
1s
b0 ;
b0 B#
b0 C#
b11010 K
0H
b11100 Z"
b1 <"
b1 s"
b100000 ]"
b100000 %"
b100000 _"
b100000 /
b100000 ""
b100000000000000011101111 5
b100000000000000011101111 `
b100000000000000011101111 Y"
b100000000000000011101111 e
b100000000000000011101111 W"
b100000000000000011101111 ^"
b100000000000000011101111 -
b100000000000000011101111 c
b11 8"
b11 r"
b11 {"
b11 )#
b110 )"
b110 %#
b11 x"
b11 b
b11 ##
b10 n
0J#
0D
0G
b0 F#
b0 G#
b10 <
b10 D#
b10 E#
b10 H#
0="
b10 >
b10 !
b10 =
1|"
1U
1}"
1V
b1010 F"
b0 ?"
b1 ;"
b100000 \"
b100000 ,
b100000 _
b100000 X"
b11100 a"
b11100 $"
b11100 $#
b1100000000001100010011 `"
b1100000000001100010011 d
b1100000000001100010011 v"
b101 5#
b101 ("
b101 y"
b10 :#
b10 7"
b10 >#
b0 9#
b0 5"
b0 =#
b11000 4#
b11100 &"
b11000 #"
b10 /#
b11010 J
b11010 l
b10 a
b1010 7#
b1010 ."
b0 6#
b0 ,"
0,#
0E
1+#
1B
18#
10"
b10011 O"
0g
b10011 ~
b0 >"
b0 9
b0 A#
b11100 C"
b11100 M
b11100 ["
b11100 #
b11100 L
1B"
1I
1"
b11000 P"
b1000 R"
b1000 *"
b1000 ;#
b0 @"
b0 ?
b0 $
b0 Q
0T"
02"
b100 S"
b100 +"
b100 t"
b100 <#
b10100 Q"
b10100 '"
b1 A"
b1 @
1U"
13"
b11100 6
b111 2
b111 K#
11
1P
#120000
01
0P
#125000
1="
b0 <"
b0 s"
b100000 Z"
b0 K
0r
0s
b0 H#
b0 >
b0 !
b0 =
b0 /"
b0 p"
b0 '#
b0 ;"
0|"
0U
0}"
0V
b0 n
b0 F"
b0 <
b0 D#
b0 E#
b0 8"
b0 r"
b0 {"
b0 )#
b0 )"
b0 %#
b0 x"
b0 b
b0 ##
b11100 ]"
b11100 %"
b11100 _"
b11100 /
b11100 ""
b1100000000001100010011 5
b1100000000001100010011 `
b1100000000001100010011 Y"
b1100000000001100010011 e
b1100000000001100010011 W"
b1100000000001100010011 ^"
b1100000000001100010011 -
b1100000000001100010011 c
b1000 S"
b1000 +"
b1000 t"
b1000 <#
b11000 Q"
b11000 '"
b0 A"
b0 @
0U"
03"
b11100 P"
b101 R"
b101 *"
b101 ;#
b1010 V"
b1010 (
b1010 T
b10 @"
b10 ?
b10 $
b10 Q
1T"
12"
b11010 C"
b11010 M
b11010 ["
b11010 #
b11010 L
0B"
0I
0"
b0 O"
b0 ~
b0 5#
b0 ("
b0 y"
b0 :#
b0 7"
b0 >#
b0 4#
b100 &"
b0 #"
b0 /#
b0 J
b0 l
b0 a
b0 7#
b0 ."
0+#
0B
08#
00"
b0 a"
b0 $"
b0 $#
b10011 `"
b10011 d
b10011 v"
b11100 \"
b11100 ,
b11100 _
b11100 X"
b1000 K#
b100000 6
b1000 2
11
1P
#130000
01
0P
#135000
b100100 Z"
b1111 /"
b1111 p"
b1111 '#
b10 <"
b10 s"
b100000 ]"
b100000 %"
b100000 _"
b100000 /
b100000 ""
b100000000000000011101111 5
b100000000000000011101111 `
b100000000000000011101111 Y"
b100000000000000011101111 e
b100000000000000011101111 W"
b100000000000000011101111 ^"
b100000000000000011101111 -
b100000000000000011101111 c
b11 8"
b11 r"
b11 {"
b11 )#
b110 )"
b110 %#
b11 x"
b11 b
b11 ##
b10 ;"
b100000 \"
b100000 ,
b100000 _
b100000 X"
b11100 a"
b11100 $"
b11100 $#
b1100000000001100010011 `"
b1100000000001100010011 d
b1100000000001100010011 v"
1+#
1B
18#
10"
b10011 O"
b10011 ~
b0 C"
b0 M
b0 ["
b0 #
b0 L
b100 P"
b0 R"
b0 *"
b0 ;#
b0 V"
b0 (
b0 T
b0 @"
b0 ?
b0 $
b0 Q
0T"
02"
b101 S"
b101 +"
b101 t"
b101 <#
b11100 Q"
b11100 '"
b10 A"
b10 @
1U"
13"
b11100 6
b1001 2
b1001 K#
11
1P
#140000
01
0P
#145000
b0 /"
b0 p"
b0 '#
b0 <"
b0 s"
b11111 K
b11 H#
0="
b11 >
b11 !
b11 =
1j"
1p
b0 f"
b0 A
0g"
0C
1n"
11"
b101000 Z"
b0 ;"
b10 n
1r
1s
b11 <
b11 D#
b11 E#
b1111 F"
b1101111 w"
b1000 8"
b1000 r"
b1000 {"
b1000 )#
b1 )"
b1 %#
b1101111 !"
b1101111 d"
b1000 x"
b1000 b
b1000 ##
b100100 ]"
b100100 %"
b100100 _"
b100100 /
b100100 ""
b10000000000001110010011 5
b10000000000001110010011 `
b10000000000001110010011 Y"
b10000000000001110010011 e
b10000000000001110010011 W"
b10000000000001110010011 ^"
b10000000000001110010011 -
b10000000000001110010011 c
b0 S"
b0 +"
b0 t"
b0 <#
b100 Q"
b100 '"
b0 A"
b0 @
0U"
03"
1T"
12"
b110 5#
b110 ("
b110 y"
b11 :#
b11 7"
b11 >#
b11100 4#
b100000 &"
b11100 #"
b11 /#
b11111 J
b11111 l
b11 a
b1111 7#
b1111 ."
b100000 a"
b100000 $"
b100000 $#
b100000000000000011101111 `"
b100000000000000011101111 d
b100000000000000011101111 v"
b100100 \"
b100100 ,
b100100 _
b100100 X"
b1010 K#
b100000 6
b1010 2
11
1P
#150000
01
0P
