cpu/datapath_soc.vcd
$date
	Wed Jan 21 08:46:10 2026
$end
$version
	Icarus Verilog
$end
$timescale
	1ps
$end
$scope module datapath_tb $end
$var wire 32 ! alu_result_debug [31:0] $end
$var wire 1 " branch_taken_debug $end
$var wire 32 # branch_target_debug [31:0] $end
$var wire 32 $ dmem_addr [31:0] $end
$var wire 1 % dmem_valid $end
$var wire 32 & dmem_wdata [31:0] $end
$var wire 1 ' dmem_we $end
$var wire 4 ( dmem_wstrb [3:0] $end
$var wire 2 ) forward_a_debug [1:0] $end
$var wire 2 * forward_b_debug [1:0] $end
$var wire 32 + imem_addr [31:0] $end
$var wire 1 , imem_valid $end
$var wire 32 - instruction_current [31:0] $end
$var wire 32 . mem_out_debug [31:0] $end
$var wire 32 / pc_current [31:0] $end
$var wire 1 0 stall_debug $end
$var reg 1 1 clk $end
$var integer 32 2 cycle_count [31:0] $end
$var reg 32 3 dmem_rdata [31:0] $end
$var reg 1 4 dmem_ready $end
$var integer 32 5 i [31:0] $end
$var reg 32 6 imem_rdata [31:0] $end
$var reg 1 7 imem_ready $end
$var reg 32 8 last_pc [31:0] $end
$var integer 32 9 pc_idx [31:0] $end
$var integer 32 : reg_idx [31:0] $end
$var reg 1 ; reset $end
$var reg 32 < temp_wdata [31:0] $end
$scope module dut $end
$var wire 4 = alu_control_ex [3:0] $end
$var wire 4 > alu_control_id [3:0] $end
$var wire 32 ? alu_in1 [31:0] $end
$var wire 32 @ alu_in2 [31:0] $end
$var wire 32 A alu_result_debug [31:0] $end
$var wire 32 B alu_result_ex [31:0] $end
$var wire 32 C alu_result_mem [31:0] $end
$var wire 32 D alu_result_wb [31:0] $end
$var wire 2 E aluop_id [1:0] $end
$var wire 1 F alusrc_ex $end
$var wire 1 G alusrc_id $end
$var wire 1 H branch_decision $end
$var wire 1 I branch_ex $end
$var wire 1 J branch_id $end
$var wire 1 " branch_taken_debug $end
$var wire 1 K branch_taken_detected $end
$var wire 1 L branch_taken_reg $end
$var wire 32 M branch_target_calc [31:0] $end
$var wire 32 N branch_target_debug [31:0] $end
$var wire 32 O branch_target_pc_based [31:0] $end
$var wire 32 P branch_target_reg [31:0] $end
$var wire 2 Q byte_size_ex [1:0] $end
$var wire 2 R byte_size_id [1:0] $end
$var wire 1 S clock $end
$var wire 32 T dmem_addr [31:0] $end
$var wire 32 U dmem_rdata [31:0] $end
$var wire 1 V dmem_ready $end
$var wire 1 % dmem_valid $end
$var wire 32 W dmem_wdata [31:0] $end
$var wire 1 ' dmem_we $end
$var wire 4 X dmem_wstrb [3:0] $end
$var wire 1 Y flush_id_ex $end
$var wire 1 Z flush_if_id $end
$var wire 2 [ forward_a [1:0] $end
$var wire 2 \ forward_a_debug [1:0] $end
$var wire 2 ] forward_b [1:0] $end
$var wire 2 ^ forward_b_debug [1:0] $end
$var wire 3 _ funct3_ex [2:0] $end
$var wire 3 ` funct3_id [2:0] $end
$var wire 7 a funct7_ex [6:0] $end
$var wire 7 b funct7_id [6:0] $end
$var wire 32 c imem_addr [31:0] $end
$var wire 32 d imem_rdata [31:0] $end
$var wire 1 e imem_ready $end
$var wire 1 , imem_valid $end
$var wire 32 f imm_ex [31:0] $end
$var wire 32 g imm_id [31:0] $end
$var wire 32 h instruction_current [31:0] $end
$var wire 32 i instruction_id [31:0] $end
$var wire 32 j instruction_if [31:0] $end
$var wire 1 k is_auipc $end
$var wire 1 l is_branch $end
$var wire 1 m is_ecall_id $end
$var wire 1 n is_jal $end
$var wire 1 o is_jalr $end
$var wire 1 p is_lui $end
$var wire 32 q jalr_target [31:0] $end
$var wire 32 r jalr_target_aligned [31:0] $end
$var wire 1 s jump_ex $end
$var wire 1 t jump_id $end
$var wire 1 u jump_wb $end
$var wire 1 v less_than $end
$var wire 1 w less_than_u $end
$var wire 32 x mem_data_wb [31:0] $end
$var wire 32 y mem_out_debug [31:0] $end
$var wire 1 z memread_ex $end
$var wire 1 { memread_id $end
$var wire 1 | memtoreg_ex $end
$var wire 1 } memtoreg_id $end
$var wire 1 ~ memtoreg_wb $end
$var wire 1 !" memwrite_ex $end
$var wire 1 "" memwrite_id $end
$var wire 7 #" opcode_ex [6:0] $end
$var wire 7 $" opcode_id [6:0] $end
$var wire 32 %" pc_current [31:0] $end
$var wire 32 &" pc_ex [31:0] $end
$var wire 32 '" pc_id [31:0] $end
$var wire 32 (" pc_if [31:0] $end
$var wire 32 )" pc_plus_4_ex [31:0] $end
$var wire 32 *" pc_plus_4_wb [31:0] $end
$var wire 5 +" rd_ex [4:0] $end
$var wire 5 ," rd_id [4:0] $end
$var wire 5 -" rd_mem [4:0] $end
$var wire 5 ." rd_wb [4:0] $end
$var wire 32 /" read_data1_ex [31:0] $end
$var wire 32 0" read_data1_id [31:0] $end
$var wire 32 1" read_data2_ex [31:0] $end
$var wire 32 2" read_data2_id [31:0] $end
$var wire 1 3" regwrite_ex $end
$var wire 1 4" regwrite_id $end
$var wire 1 5" regwrite_mem $end
$var wire 1 6" regwrite_wb $end
$var wire 1 7" reset $end
$var wire 5 8" rs1_ex [4:0] $end
$var wire 5 9" rs1_id [4:0] $end
$var wire 5 :" rs2_ex [4:0] $end
$var wire 5 ;" rs2_id [4:0] $end
$var wire 1 <" sign_ext $end
$var wire 1 =" stall $end
$var wire 1 0 stall_debug $end
$var wire 1 >" stall_with_halt $end
$var wire 32 ?" wb_data_temp [31:0] $end
$var wire 32 @" write_data_wb [31:0] $end
$var wire 1 A" zero_flag $end
$var reg 4 B" alu_control_ex_reg [3:0] $end
$var reg 32 C" alu_in1_forwarded [31:0] $end
$var reg 32 D" alu_result_mem_reg [31:0] $end
$var reg 32 E" alu_result_wb_reg [31:0] $end
$var reg 2 F" byte_size_ex_reg [1:0] $end
$var reg 2 G" byte_size_mem [1:0] $end
$var reg 32 H" forwarded_data2 [31:0] $end
$var reg 3 I" funct3_mem [2:0] $end
$var reg 1 J" halt $end
$var reg 1 K" jump_mem $end
$var reg 1 L" jump_wb_reg $end
$var reg 32 M" mem_data_wb_reg [31:0] $end
$var reg 32 N" mem_read_data [31:0] $end
$var reg 1 O" memread_mem $end
$var reg 1 P" memtoreg_mem $end
$var reg 1 Q" memtoreg_wb_reg $end
$var reg 1 R" memwrite_mem $end
$var reg 7 S" opcode_ex_reg [6:0] $end
$var reg 32 T" pc_plus_4_mem [31:0] $end
$var reg 32 U" pc_plus_4_wb_reg [31:0] $end
$var reg 5 V" rd_mem_reg [4:0] $end
$var reg 5 W" rd_wb_reg [4:0] $end
$var reg 1 X" regwrite_mem_reg $end
$var reg 1 Y" regwrite_wb_reg $end
$var reg 32 Z" wdata_aligned [31:0] $end
$var reg 32 [" write_data_mem [31:0] $end
$var reg 4 \" wstrb [3:0] $end
$scope module ifu $end
$var wire 1 S clock $end
$var wire 32 ]" imem_rdata [31:0] $end
$var wire 1 e imem_ready $end
$var wire 32 ^" next_pc [31:0] $end
$var wire 1 L pc_src $end
$var wire 1 7" reset $end
$var wire 1 >" stall $end
$var wire 32 _" target_pc [31:0] $end
$var reg 32 `" Instruction_Code [31:0] $end
$var reg 32 a" PC [31:0] $end
$var reg 32 b" PC_current_instr [31:0] $end
$var reg 32 c" PC_out [31:0] $end
$var reg 32 d" imem_addr [31:0] $end
$var reg 1 e" imem_valid $end
$upscope $end
$scope module if_id_reg $end
$var wire 1 S clock $end
$var wire 1 Z flush $end
$var wire 32 f" instr_in [31:0] $end
$var wire 32 g" pc_in [31:0] $end
$var wire 1 7" reset $end
$var wire 1 =" stall $end
$var reg 32 h" instr_out [31:0] $end
$var reg 32 i" pc_out [31:0] $end
$upscope $end
$scope module control_unit $end
$var wire 3 j" funct3 [2:0] $end
$var wire 7 k" funct7 [6:0] $end
$var wire 7 l" opcode [6:0] $end
$var reg 4 m" alu_control [3:0] $end
$var reg 2 n" aluop [1:0] $end
$var reg 1 o" alusrc $end
$var reg 1 p" branch $end
$var reg 2 q" byte_size [1:0] $end
$var reg 1 r" jump $end
$var reg 1 s" memread $end
$var reg 1 t" memtoreg $end
$var reg 1 u" memwrite $end
$var reg 1 v" regwrite $end
$upscope $end
$scope module register_file $end
$var wire 1 S clock $end
$var wire 32 w" read_data1 [31:0] $end
$var wire 32 x" read_data2 [31:0] $end
$var wire 5 y" read_reg_num1 [4:0] $end
$var wire 5 z" read_reg_num2 [4:0] $end
$var wire 1 6" regwrite $end
$var wire 1 7" reset $end
$var wire 32 {" write_data [31:0] $end
$var wire 5 |" write_reg [4:0] $end
$var integer 32 }" i [31:0] $end
$upscope $end
$scope module immediate_gen $end
$var wire 32 ~" instr [31:0] $end
$var wire 7 !# opcode [6:0] $end
$var reg 32 "# imm [31:0] $end
$upscope $end
$scope module hazard_unit $end
$var wire 1 K branch_taken $end
$var wire 1 z memread_id_ex $end
$var wire 5 ## rd_id_ex [4:0] $end
$var wire 5 $# rs1_id [4:0] $end
$var wire 5 %# rs2_id [4:0] $end
$var reg 1 &# flush_id_ex $end
$var reg 1 '# flush_if_id $end
$var reg 1 (# stall $end
$upscope $end
$scope module id_ex_reg $end
$var wire 1 G alusrc_in $end
$var wire 1 J branch_in $end
$var wire 1 S clock $end
$var wire 1 Y flush $end
$var wire 3 )# funct3_in [2:0] $end
$var wire 7 *# funct7_in [6:0] $end
$var wire 32 +# imm_in [31:0] $end
$var wire 1 t jump_in $end
$var wire 1 { memread_in $end
$var wire 1 } memtoreg_in $end
$var wire 1 "" memwrite_in $end
$var wire 32 ,# pc_in [31:0] $end
$var wire 5 -# rd_in [4:0] $end
$var wire 32 .# read_data1_in [31:0] $end
$var wire 32 /# read_data2_in [31:0] $end
$var wire 1 4" regwrite_in $end
$var wire 1 7" reset $end
$var wire 5 0# rs1_in [4:0] $end
$var wire 5 1# rs2_in [4:0] $end
$var wire 1 2# stall $end
$var reg 1 3# alusrc_out $end
$var reg 1 4# branch_out $end
$var reg 3 5# funct3_out [2:0] $end
$var reg 7 6# funct7_out [6:0] $end
$var reg 32 7# imm_out [31:0] $end
$var reg 1 8# jump_out $end
$var reg 1 9# memread_out $end
$var reg 1 :# memtoreg_out $end
$var reg 1 ;# memwrite_out $end
$var reg 32 <# pc_out [31:0] $end
$var reg 5 =# rd_out [4:0] $end
$var reg 32 ># read_data1_out [31:0] $end
$var reg 32 ?# read_data2_out [31:0] $end
$var reg 1 @# regwrite_out $end
$var reg 5 A# rs1_out [4:0] $end
$var reg 5 B# rs2_out [4:0] $end
$upscope $end
$scope module forward_unit $end
$var wire 5 C# rd_mem [4:0] $end
$var wire 5 D# rd_wb [4:0] $end
$var wire 1 5" regwrite_mem $end
$var wire 1 6" regwrite_wb $end
$var wire 5 E# rs1_ex [4:0] $end
$var wire 5 F# rs2_ex [4:0] $end
$var reg 2 G# forward_a [1:0] $end
$var reg 2 H# forward_b [1:0] $end
$upscope $end
$scope module alu_unit $end
$var wire 4 I# alu_control [3:0] $end
$var wire 32 J# in1 [31:0] $end
$var wire 32 K# in1_signed [31:0] $end
$var wire 32 L# in2 [31:0] $end
$var wire 32 M# in2_signed [31:0] $end
$var wire 1 v less_than $end
$var wire 1 w less_than_u $end
$var wire 64 N# mul_result_signed [63:0] $end
$var wire 64 O# mul_result_unsigned [63:0] $end
$var wire 1 A" zero_flag $end
$var reg 32 P# alu_result [31:0] $end
$upscope $end
$scope module branch_unit $end
$var wire 1 I branch $end
$var wire 3 Q# funct3 [2:0] $end
$var wire 1 v less_than $end
$var wire 1 w less_than_u $end
$var wire 1 A" zero_flag $end
$var reg 1 R# taken $end
$upscope $end
$upscope $end
$scope task wait_cycles $end
$var integer 32 S# k [31:0] $end
$var integer 32 T# n [31:0] $end
$upscope $end
$upscope $end
$enddefinitions $end
#0
$dumpvars
b101 T#
b0 S#
0R#
b0 Q#
b0 P#
b0 O#
b0 N#
b0 M#
b0 L#
b0 K#
b0 J#
b0 I#
b0 H#
b0 G#
b0 F#
b0 E#
b0 D#
b0 C#
b0 B#
b0 A#
0@#
b0 ?#
b0 >#
b0 =#
b0 <#
0;#
0:#
09#
08#
b0 7#
b0 6#
b0 5#
04#
03#
02#
b0 1#
b0 0#
b0 /#
b0 .#
b0 -#
b0 ,#
b0 +#
b0 *#
b0 )#
0(#
0'#
0&#
b0 %#
b0 $#
b0 ##
b0 "#
b10011 !#
b10011 ~"
b100000 }"
b0 |"
b0 {"
b0 z"
b0 y"
b0 x"
b0 w"
1v"
0u"
0t"
0s"
0r"
b10 q"
0p"
1o"
b10 n"
b0 m"
b10011 l"
b0 k"
b0 j"
b0 i"
b10011 h"
b0 g"
b10011 f"
1e"
b0 d"
b0 c"
b0 b"
b0 a"
b10011 `"
b0 _"
b100 ^"
b10100000000000010010011 ]"
b1111 \"
b0 ["
b0 Z"
0Y"
0X"
b0 W"
b0 V"
b0 U"
b0 T"
b0 S"
0R"
0Q"
0P"
0O"
b0 N"
b0 M"
0L"
0K"
0J"
b0 I"
b0 H"
b10 G"
b10 F"
b0 E"
b0 D"
b0 C"
b0 B"
1A"
b0 @"
b0 ?"
0>"
0="
1<"
b0 ;"
b0 :"
b0 9"
b0 8"
17"
06"
05"
14"
03"
b0 2"
b0 1"
b0 0"
b0 /"
b0 ."
b0 -"
b0 ,"
b0 +"
b0 *"
b100 )"
b0 ("
b0 '"
b0 &"
b0 %"
b10011 $"
b0 #"
0""
0!"
0~
0}
0|
0{
0z
b0 y
b0 x
0w
0v
0u
0t
0s
b0 r
b0 q
0p
0o
0n
0m
0l
0k
b10011 j
b10011 i
b10011 h
b0 g
b0 f
1e
b10100000000000010010011 d
b0 c
b0 b
b0 a
b0 `
b0 _
b0 ^
b0 ]
b0 \
b0 [
0Z
0Y
b1111 X
b0 W
0V
b0 U
b0 T
0S
b10 R
b10 Q
b0 P
b0 O
b0 N
b0 M
0L
0K
0J
0I
0H
1G
0F
b10 E
b0 D
b0 C
b0 B
b0 A
b0 @
b0 ?
b0 >
b0 =
bx <
1;
bx :
b11100 9
b0 8
17
b10100000000000010010011 6
b10000000000 5
04
b0 3
b0 2
01
00
b0 /
b0 .
b10011 -
1,
b0 +
b0 *
b0 )
b1111 (
0'
b0 &
0%
b0 $
b0 #
0"
b0 !
$end
#5000
b100000 }"
b1 S#
11
1S
#10000
01
0S
#15000
b100000 }"
b10 S#
11
1S
#20000
01
0S
#25000
b100000 }"
b11 S#
11
1S
#30000
01
0S
#35000
b100000 }"
b100 S#
11
1S
#40000
01
0S
#45000
b101000000000000100010011 6
b101000000000000100010011 d
b101000000000000100010011 ]"
b1000 ^"
b100 d"
b100 +
b100 c
b100 T"
b10011 S"
b10011 #"
13#
1F
1@#
13"
b10100000000000010010011 `"
b10100000000000010010011 j
b10100000000000010010011 f"
b10100000000000010010011 -
b10100000000000010010011 h
b100 a"
b11001000 T#
0;
07"
b0 S#
11
1S
#50000
01
0S
#55000
b1000001000000110110011 6
b1000001000000110110011 d
b1000001000000110110011 ]"
b1100 ^"
b1000 d"
b1000 +
b1000 c
b100 c"
b100 ("
b100 g"
b100 /
b100 %"
b101 ;"
b101 z"
b101 %#
b101 1#
b1 ,"
b1 -#
b101 "#
b101 g
b101 +#
b1000 a"
b100 b"
b101000000000000100010011 `"
b101000000000000100010011 j
b101000000000000100010011 f"
b101000000000000100010011 -
b101000000000000100010011 h
b10100000000000010010011 h"
b10100000000000010010011 i
b10100000000000010010011 ~"
1X"
15"
b100 U"
b100 *"
b1 2
b1 S#
11
1S
#60000
01
0S
#65000
b101 P#
0A"
b101 B
b101 !
b101 A
b1000000001000010000000110110011 6
b1000000001000010000000110110011 d
b1000000001000010000000110110011 ]"
b10000 ^"
b101 M
b101 #
b101 N
b101 P
b101 _"
b100 r
1v
1w
b101 @
b101 L#
b101 M#
b1010 ;"
b1010 z"
b1010 %#
b1010 1#
b10 ,"
b10 -#
b1010 "#
b1010 g
b1010 +#
b1100 d"
b1100 +
b1100 c
b1000 c"
b1000 ("
b1000 g"
b1000 /
b1000 %"
1Y"
16"
b1 =#
b1 +"
b1 ##
b101 B#
b101 :"
b101 F#
b101 7#
b101 O
b101 q
b101 f
b100 i"
b100 '"
b100 ,#
b101000000000000100010011 h"
b101000000000000100010011 i
b101000000000000100010011 ~"
b1000001000000110110011 `"
b1000001000000110110011 j
b1000001000000110110011 f"
b1000001000000110110011 -
b1000001000000110110011 h
b1100 a"
b1000 b"
b10 S#
b100 8
b10 2
11
1S
#70000
01
0S
#75000
b1000001000010001100011 6
b1000001000010001100011 d
b1000001000010001100011 ]"
b10100 ^"
b10 n"
b10 E
0o"
0G
1v"
14"
b1010 P#
b1010 B
b1010 !
b1010 A
b10000 d"
b10000 +
b10000 c
b1100 c"
b1100 ("
b1100 g"
b1100 /
b1100 %"
b110011 !#
b10 ;"
b10 z"
b10 %#
b10 1#
b1 9"
b1 y"
b1 $#
b1 0#
b11 ,"
b11 -#
b110011 $"
b110011 l"
b0 "#
b0 g
b0 +#
b1110 M
b1110 #
b1110 N
b1110 P
b1110 _"
b1010 r
b1010 @
b1010 L#
b1010 M#
b10000 a"
b1100 b"
b1000000001000010000000110110011 `"
b1000000001000010000000110110011 j
b1000000001000010000000110110011 f"
b1000000001000010000000110110011 -
b1000000001000010000000110110011 h
b1000 i"
b1000 '"
b1000 ,#
b1000001000000110110011 h"
b1000001000000110110011 i
b1000001000000110110011 ~"
b10 =#
b10 +"
b10 ##
b1010 B#
b1010 :"
b1010 F#
b100 <#
b1000 )"
b100 &"
b1010 7#
b1110 O
b1010 q
b1010 f
b1 V"
b1 -"
b1 C#
b101 D"
b101 C
b101 $
b101 T
b1000 8
b11 2
b11 S#
11
1S
#80000
01
0S
#85000
b110010 N#
b110010 O#
b101 ?
b101 J#
b101 K#
b101 C"
b101 @"
b101 {"
b1111 P#
0A"
b1111 B
b1111 !
b1111 A
b1 m"
b1 >
b10 n"
b10 E
1v"
14"
b100000000001000010011 6
b100000000001000010011 d
b100000000001000010011 ]"
b11000 ^"
b101 ?"
b1010 H"
b10 H#
b10 ]
b10 *
b10 ^
b1 G#
b1 [
b1 )
b1 \
b1000 M
b1000 #
b1000 N
b1000 P
b1000 _"
b100 r
1v
1w
b1010 @
b1010 L#
b1010 M#
b100000 b
b100000 k"
b100000 *#
b10 9"
b10 y"
b10 $#
b10 0#
b10100 d"
b10100 +
b10100 c
b10000 c"
b10000 ("
b10000 g"
b10000 /
b10000 %"
b1 W"
b1 ."
b1 |"
b1 D#
b101 E"
b101 D
b1000 T"
b10 V"
b10 -"
b10 C#
b1010 D"
b1010 C
b1010 $
b1010 T
b110011 S"
b110011 #"
b11 =#
b11 +"
b11 ##
b10 B#
b10 :"
b10 F#
b1 A#
b1 8"
b1 E#
b1000 <#
b1100 )"
b1000 &"
b0 7#
b1000 O
b101 q
b0 f
03#
0F
b1100 i"
b1100 '"
b1100 ,#
b1000000001000010000000110110011 h"
b1000000001000010000000110110011 i
b1000000001000010000000110110011 ~"
b1000001000010001100011 `"
b1000001000010001100011 j
b1000001000010001100011 f"
b1000001000010001100011 -
b1000001000010001100011 h
b10100 a"
b10000 b"
b100 S#
b1100 8
b100 2
11
1S
#90000
01
0S
#95000
b1010 ?
b1010 J#
b1010 K#
b1010 2"
b1010 x"
b1010 /#
b1010 r
b101 0"
b101 w"
b101 .#
1A"
b1010 C"
b1010 q
b100001000010001100011 6
b100001000010001100011 d
b100001000010001100011 ]"
b11100 ^"
b1000 "#
b1000 g
b1000 +#
1p"
1J
b1 m"
b1 >
b0 n"
b0 E
0v"
04"
b1100100 N#
b1100100 O#
0v
0w
b1010 @
b1010 L#
b1010 M#
b1010 @"
b1010 {"
b11000 d"
b11000 +
b11000 c
b10100 c"
b10100 ("
b10100 g"
b10100 /
b10100 %"
b1100011 !#
b0 b
b0 k"
b0 *#
b1 9"
b1 y"
b1 $#
b1 0#
b1000 ,"
b1000 -#
b1100011 $"
b1100011 l"
b1100 M
b1100 #
b1100 N
b1100 P
b1100 _"
b0 P#
b0 B
b0 !
b0 A
b1010 Z"
b1010 &
b1010 W
b1010 H"
b1 H#
b1 ]
b1 *
b1 ^
b1 G#
b1 [
b1 )
b1 \
b1010 ?"
b11000 a"
b10100 b"
b100000000001000010011 `"
b100000000001000010011 j
b100000000001000010011 f"
b100000000001000010011 -
b100000000001000010011 h
b10000 i"
b10000 '"
b10000 ,#
b1000001000010001100011 h"
b1000001000010001100011 i
b1000001000010001100011 ~"
b100000 6#
b100000 a
b10 A#
b10 8"
b10 E#
b1100 <#
b10000 )"
b1100 O
b1100 &"
b1 B"
b1 =
b1 I#
b1100 T"
b11 V"
b11 -"
b11 C#
b1010 ["
b1111 D"
b1111 C
b1111 $
b1111 T
b10 W"
b10 ."
b10 |"
b10 D#
b1000 U"
b1000 *"
b1010 E"
b1010 D
b10000 8
b101 2
b101 S#
11
1S
#100000
01
0S
#105000
b11111111111111111111111111111011 P#
0A"
b11111111111111111111111111111011 B
b11111111111111111111111111111011 !
b11111111111111111111111111111011 A
b101 2"
b101 x"
b101 /#
b110010 N#
b110010 O#
1v
1w
b101 ?
b101 J#
b101 K#
0&#
0Y
0'#
0Z
b1111 @"
b1111 {"
b101 C"
0K
0"
0L
b0 0"
b0 w"
b0 .#
b10 n"
b10 E
1o"
1G
1v"
14"
b0 m"
b0 >
0p"
0J
b1000000000001010010011 6
b1000000000001010010011 d
b1000000000001010010011 ]"
b100000 ^"
b1111 ?"
b0 H#
b0 ]
b0 *
b0 ^
b0 G#
b0 [
b0 )
b0 \
b11000 M
b11000 #
b11000 N
b11000 P
b11000 _"
b1100 r
0R#
0H
b10011 !#
b1 ;"
b1 z"
b1 %#
b1 1#
b0 9"
b0 y"
b0 $#
b0 0#
b100 ,"
b100 -#
b10011 $"
b10011 l"
b1 "#
b1 g
b1 +#
b11100 d"
b11100 +
b11100 c
b11000 c"
b11000 ("
b11000 g"
b11000 /
b11000 %"
b11 W"
b11 ."
b11 |"
b11 D#
b1100 U"
b1100 *"
b1111 E"
b1111 D
b10000 T"
b0 D"
b0 C
b0 $
b0 T
b1100011 S"
1l
b1100011 #"
b0 6#
b0 a
b1000 =#
b1000 +"
b1000 ##
b1 A#
b1 8"
b1 E#
b10000 <#
b10100 )"
b10000 &"
b1000 7#
b11000 O
b1101 q
b1000 f
b1010 ?#
b1010 1"
b101 >#
b101 /"
14#
1I
0@#
03"
b10100 i"
b10100 '"
b10100 ,#
b100000000001000010011 h"
b100000000001000010011 i
b100000000001000010011 ~"
b100001000010001100011 `"
b100001000010001100011 j
b100001000010001100011 f"
b100001000010001100011 -
b100001000010001100011 h
b11100 a"
b11000 b"
b110 S#
b10100 8
b110 2
11
1S
#110000
01
0S
#115000
b0 ?
b0 J#
b0 K#
b1100000000001100010011 6
b1100000000001100010011 d
b1100000000001100010011 ]"
b100100 ^"
b1000 "#
b1000 g
b1000 +#
b101 0"
b101 w"
b101 .#
b1 m"
b1 >
1p"
1J
b0 n"
b0 E
0o"
0G
0v"
04"
b0 N#
b0 O#
1v
1w
b1 @
b1 L#
b1 M#
b0 @"
b0 {"
b100000 d"
b100000 +
b100000 c
b11100 c"
b11100 ("
b11100 g"
b11100 /
b11100 %"
b1100011 !#
b1 9"
b1 y"
b1 $#
b1 0#
b1000 ,"
b1000 -#
b1100011 $"
b1100011 l"
b10101 M
b10101 #
b10101 N
b10101 P
b10101 _"
b0 r
b1 P#
b1 B
b1 !
b1 A
b101 H"
b0 C"
b0 ?"
b100000 a"
b11100 b"
b1000000000001010010011 `"
b1000000000001010010011 j
b1000000000001010010011 f"
b1000000000001010010011 -
b1000000000001010010011 h
b11000 i"
b11000 '"
b11000 ,#
b100001000010001100011 h"
b100001000010001100011 i
b100001000010001100011 ~"
b100 =#
b100 +"
b100 ##
b1 B#
b1 :"
b1 F#
b0 A#
b0 8"
b0 E#
b10100 <#
b11000 )"
b10100 &"
b1 7#
b10101 O
b1 q
b1 f
b101 ?#
b101 1"
b0 >#
b0 /"
04#
0I
13#
1F
1@#
13"
b10011 S"
0l
b10011 #"
b0 B"
b0 =
b0 I#
b10100 T"
b1000 V"
b1000 -"
b1000 C#
b11111111111111111111111111111011 D"
b11111111111111111111111111111011 C
b11111111111111111111111111111011 $
b11111111111111111111111111111011 T
0X"
05"
b10000 U"
b10000 *"
b0 E"
b0 D
b11000 8
b111 2
b111 S#
11
1S
#120000
01
0S
#125000
1&#
1Y
1'#
1Z
1K
1"
1L
1R#
1H
1A"
b11001 N#
b11001 O#
0v
0w
b101 ?
b101 J#
b101 K#
b1010 2"
b1010 x"
b1010 /#
b11111111111111111111111111111011 @"
b11111111111111111111111111111011 {"
b0 0"
b0 w"
b0 .#
b10 n"
b10 E
1o"
1G
1v"
14"
b0 m"
b0 >
0p"
0J
b1000001001010001100011 6
b1000001001010001100011 d
b1000001001010001100011 ]"
b100000 ^"
b11111111111111111111111111111011 ?"
b101 Z"
b101 &
b101 W
b0 P#
b0 B
b0 !
b0 A
b100000 M
b100000 #
b100000 N
b100000 P
b100000 _"
b1100 r
b101 @
b101 L#
b101 M#
b101 C"
b10011 !#
b10 ;"
b10 z"
b10 %#
b10 1#
b0 9"
b0 y"
b0 $#
b0 0#
b101 ,"
b101 -#
b10011 $"
b10011 l"
b10 "#
b10 g
b10 +#
b100100 d"
b100100 +
b100100 c
b100000 c"
b100000 ("
b100000 g"
b100000 /
b100000 %"
b1000 W"
b1000 ."
b1000 |"
b1000 D#
b10100 U"
b10100 *"
b11111111111111111111111111111011 E"
b11111111111111111111111111111011 D
0Y"
06"
b11000 T"
b100 V"
b100 -"
b100 C#
b101 ["
b1 D"
b1 C
b1 $
b1 T
1X"
15"
b1100011 S"
1l
b1100011 #"
b1 B"
b1 =
b1 I#
b1000 =#
b1000 +"
b1000 ##
b1 A#
b1 8"
b1 E#
b11000 <#
b11100 )"
b11000 &"
b1000 7#
b100000 O
b1101 q
b1000 f
b101 >#
b101 /"
14#
1I
03#
0F
0@#
03"
b11100 i"
b11100 '"
b11100 ,#
b1000000000001010010011 h"
b1000000000001010010011 i
b1000000000001010010011 ~"
b1100000000001100010011 `"
b1100000000001100010011 j
b1100000000001100010011 f"
b1100000000001100010011 -
b1100000000001100010011 h
b100100 a"
b100000 b"
b1000 S#
b11100 8
b1000 2
11
1S
#130000
01
0S
#135000
b100100 ^"
b0 ?
b0 J#
b0 K#
b1100000000001100010011 6
b1100000000001100010011 d
b1100000000001100010011 ]"
b0 2"
b0 x"
b0 /#
0K
0"
0L
b0 N#
b0 O#
b0 @
b0 L#
b0 M#
b1 @"
b1 {"
b100000 d"
b100000 +
b100000 c
b100100 c"
b100100 ("
b100100 g"
b100100 /
b100100 %"
b0 ;"
b0 z"
b0 %#
b0 1#
b0 ,"
b0 -#
b0 "#
b0 g
b0 +#
0&#
0Y
0'#
0Z
b0 M
b0 #
b0 N
b0 P
b0 _"
b0 r
0R#
0H
b0 P#
1A"
b0 B
b0 !
b0 A
b0 H"
b0 C"
b1 ?"
b100000 a"
b100100 b"
b1000001001010001100011 `"
b1000001001010001100011 j
b1000001001010001100011 f"
b1000001001010001100011 -
b1000001001010001100011 h
b0 i"
b0 '"
b0 ,#
b10011 h"
b10011 i
b10011 ~"
b0 =#
b0 +"
b0 ##
b0 B#
b0 :"
b0 F#
b0 A#
b0 8"
b0 E#
b0 <#
b100 )"
b0 &"
b0 7#
b0 O
b0 q
b0 f
b0 ?#
b0 1"
b0 >#
b0 /"
04#
0I
b0 S"
0l
b0 #"
b0 B"
b0 =
b0 I#
b11100 T"
b1000 V"
b1000 -"
b1000 C#
b0 D"
b0 C
b0 $
b0 T
0X"
05"
b100 W"
b100 ."
b100 |"
b100 D#
b11000 U"
b11000 *"
b1 E"
b1 D
1Y"
16"
b100000 8
b1001 2
b1001 S#
11
1S
#140000
01
0S
#145000
b0 @"
b0 {"
b1010 2"
b1010 x"
b1010 /#
b101 0"
b101 w"
b101 .#
b1 m"
b1 >
1p"
1J
b0 n"
b0 E
0o"
0G
0v"
04"
b1000001001010001100011 6
b1000001001010001100011 d
b1000001001010001100011 ]"
b101000 ^"
b0 ?"
b0 Z"
b0 &
b0 W
b1100011 !#
b10 ;"
b10 z"
b10 %#
b10 1#
b1 9"
b1 y"
b1 $#
b1 0#
b1 `
b1 j"
b1 )#
b1000 ,"
b1000 -#
b1100011 $"
b1100011 l"
b1000 "#
b1000 g
b1000 +#
b100100 d"
b100100 +
b100100 c
b100000 c"
b100000 ("
b100000 g"
b100000 /
b100000 %"
b1000 W"
b1000 ."
b1000 |"
b1000 D#
b11100 U"
b11100 *"
b0 E"
b0 D
0Y"
06"
b100 T"
b0 V"
b0 -"
b0 C#
b0 ["
b10011 S"
b10011 #"
13#
1F
1@#
13"
b100100 i"
b100100 '"
b100100 ,#
b1000001001010001100011 h"
b1000001001010001100011 i
b1000001001010001100011 ~"
b1100000000001100010011 `"
b1100000000001100010011 j
b1100000000001100010011 f"
b1100000000001100010011 -
b1100000000001100010011 h
b100100 a"
b100000 b"
b1010 S#
b100100 8
b1010 2
11
1S
#150000
01
0S
