cpu/riscv_cpu_tb.vcd
$date
	Wed Feb 04 20:20:58 2026
$end
$version
	Icarus Verilog
$end
$timescale
	1ps
$end
$scope module riscv_cpu_tb $end
$var wire 32 ! dmem_addr [31:0] $end
$var wire 1 " dmem_valid $end
$var wire 32 # dmem_wdata [31:0] $end
$var wire 1 $ dmem_we $end
$var wire 4 % dmem_wstrb [3:0] $end
$var wire 32 & imem_addr [31:0] $end
$var wire 1 ' imem_valid $end
$var reg 1 ( clk $end
$var integer 32 ) cycle_count [31:0] $end
$var reg 32 * dmem_rdata [31:0] $end
$var reg 32 + dmem_rdata_next [31:0] $end
$var reg 1 , dmem_ready $end
$var integer 32 - i [31:0] $end
$var reg 32 . imem_addr_reg [31:0] $end
$var reg 32 / imem_rdata [31:0] $end
$var reg 1 0 imem_ready $end
$var reg 1 1 rst $end
$scope module cpu $end
$var wire 4 2 alu_control_ex [3:0] $end
$var wire 4 3 alu_control_id [3:0] $end
$var wire 32 4 alu_in1 [31:0] $end
$var wire 32 5 alu_in1_forwarded [31:0] $end
$var wire 32 6 alu_in2 [31:0] $end
$var wire 32 7 alu_in2_imm [31:0] $end
$var wire 32 8 alu_in2_pre_mux [31:0] $end
$var wire 32 9 alu_result_ex [31:0] $end
$var wire 32 : alu_result_mem [31:0] $end
$var wire 32 ; alu_result_wb [31:0] $end
$var wire 1 < alusrc_ex $end
$var wire 1 = alusrc_id $end
$var wire 1 > branch_ex $end
$var wire 1 ? branch_id $end
$var wire 1 @ branch_taken_ex $end
$var wire 32 A branch_target [31:0] $end
$var wire 2 B byte_size_ex [1:0] $end
$var wire 2 C byte_size_id [1:0] $end
$var wire 2 D byte_size_mem [1:0] $end
$var wire 1 E clk $end
$var wire 32 F dmem_addr [31:0] $end
$var wire 32 G dmem_rdata [31:0] $end
$var wire 1 H dmem_ready $end
$var wire 1 " dmem_valid $end
$var wire 32 I dmem_wdata [31:0] $end
$var wire 1 $ dmem_we $end
$var wire 4 J dmem_wstrb [3:0] $end
$var wire 1 K flush_id_ex $end
$var wire 1 L flush_if_id $end
$var wire 2 M forward_a [1:0] $end
$var wire 2 N forward_b [1:0] $end
$var wire 3 O funct3_ex [2:0] $end
$var wire 3 P funct3_id [2:0] $end
$var wire 3 Q funct3_mem [2:0] $end
$var wire 7 R funct7_ex [6:0] $end
$var wire 7 S funct7_id [6:0] $end
$var wire 32 T imem_addr [31:0] $end
$var wire 32 U imem_rdata [31:0] $end
$var wire 1 V imem_ready $end
$var wire 1 ' imem_valid $end
$var wire 32 W imm_ex [31:0] $end
$var wire 32 X imm_id [31:0] $end
$var wire 32 Y instr_id [31:0] $end
$var wire 32 Z instr_if [31:0] $end
$var wire 32 [ jal_target [31:0] $end
$var wire 32 \ jalr_target [31:0] $end
$var wire 1 ] jump_ex $end
$var wire 1 ^ jump_id $end
$var wire 1 _ jump_mem $end
$var wire 1 ` jump_wb $end
$var wire 1 a less_than_ex $end
$var wire 1 b less_than_u_ex $end
$var wire 32 c mem_data_wb [31:0] $end
$var wire 32 d mem_read_data_extended [31:0] $end
$var wire 1 e memread_ex $end
$var wire 1 f memread_id $end
$var wire 1 g memread_mem $end
$var wire 1 h memtoreg_ex $end
$var wire 1 i memtoreg_id $end
$var wire 1 j memtoreg_mem $end
$var wire 1 k memtoreg_wb $end
$var wire 1 l memwrite_ex $end
$var wire 1 m memwrite_id $end
$var wire 1 n memwrite_mem $end
$var wire 7 o opcode_ex [6:0] $end
$var wire 7 p opcode_id [6:0] $end
$var wire 32 q pc_ex [31:0] $end
$var wire 32 r pc_id [31:0] $end
$var wire 32 s pc_if [31:0] $end
$var wire 32 t pc_plus_4_ex [31:0] $end
$var wire 32 u pc_plus_4_mem [31:0] $end
$var wire 32 v pc_plus_4_wb [31:0] $end
$var wire 1 w pc_src_ex $end
$var wire 5 x rd_ex [4:0] $end
$var wire 5 y rd_id [4:0] $end
$var wire 5 z rd_mem [4:0] $end
$var wire 5 { rd_wb [4:0] $end
$var wire 32 | read_data1_ex [31:0] $end
$var wire 32 } read_data1_id [31:0] $end
$var wire 32 ~ read_data2_ex [31:0] $end
$var wire 32 !" read_data2_id [31:0] $end
$var wire 1 "" regwrite_ex $end
$var wire 1 #" regwrite_id $end
$var wire 1 $" regwrite_mem $end
$var wire 1 %" regwrite_wb $end
$var wire 5 &" rs1_ex [4:0] $end
$var wire 5 '" rs1_id [4:0] $end
$var wire 5 (" rs2_ex [4:0] $end
$var wire 5 )" rs2_id [4:0] $end
$var wire 1 *" rst $end
$var wire 1 +" stall $end
$var wire 32 ," target_pc_ex [31:0] $end
$var wire 32 -" wb_data_before_jump [31:0] $end
$var wire 32 ." write_back_data_wb [31:0] $end
$var wire 32 /" write_data_mem [31:0] $end
$var wire 1 0" zero_flag_ex $end
$var reg 4 1" alu_control_id_ex [3:0] $end
$var reg 32 2" alu_result_ex_mem [31:0] $end
$var reg 32 3" alu_result_mem_wb [31:0] $end
$var reg 1 4" alusrc_id_ex $end
$var reg 1 5" branch_id_ex $end
$var reg 2 6" byte_size_ex_mem [1:0] $end
$var reg 2 7" byte_size_id_ex [1:0] $end
$var reg 4 8" dmem_wstrb_reg [3:0] $end
$var reg 3 9" funct3_ex_mem [2:0] $end
$var reg 3 :" funct3_id_ex [2:0] $end
$var reg 7 ;" funct7_id_ex [6:0] $end
$var reg 32 <" imm_id_ex [31:0] $end
$var reg 1 =" jump_ex_mem $end
$var reg 1 >" jump_id_ex $end
$var reg 1 ?" jump_mem_snapshot $end
$var reg 1 @" jump_mem_wb $end
$var reg 32 A" mem_data_mem_wb [31:0] $end
$var reg 32 B" mem_read_extended [31:0] $end
$var reg 1 C" mem_req_pending $end
$var reg 1 D" memread_ex_mem $end
$var reg 1 E" memread_id_ex $end
$var reg 1 F" memtoreg_ex_mem $end
$var reg 1 G" memtoreg_id_ex $end
$var reg 1 H" memtoreg_mem_snapshot $end
$var reg 1 I" memtoreg_mem_wb $end
$var reg 1 J" memwrite_ex_mem $end
$var reg 1 K" memwrite_id_ex $end
$var reg 7 L" opcode_id_ex [6:0] $end
$var reg 32 M" pc_id_ex [31:0] $end
$var reg 32 N" pc_plus_4_ex_mem [31:0] $end
$var reg 32 O" pc_plus_4_mem_wb [31:0] $end
$var reg 5 P" rd_ex_mem [4:0] $end
$var reg 5 Q" rd_id_ex [4:0] $end
$var reg 5 R" rd_mem_snapshot [4:0] $end
$var reg 5 S" rd_mem_wb [4:0] $end
$var reg 32 T" read_data1_id_ex [31:0] $end
$var reg 32 U" read_data2_id_ex [31:0] $end
$var reg 1 V" regwrite_ex_mem $end
$var reg 1 W" regwrite_id_ex $end
$var reg 1 X" regwrite_mem_snapshot $end
$var reg 1 Y" regwrite_mem_wb $end
$var reg 5 Z" rs1_id_ex [4:0] $end
$var reg 5 [" rs2_id_ex [4:0] $end
$var reg 1 \" wb_done $end
$var reg 32 ]" write_data_ex_mem [31:0] $end
$scope module instruction_fetch $end
$var wire 1 E clock $end
$var wire 32 ^" imem_rdata [31:0] $end
$var wire 1 V imem_ready $end
$var wire 32 _" next_pc [31:0] $end
$var wire 1 w pc_src $end
$var wire 1 *" reset $end
$var wire 1 +" stall $end
$var wire 32 `" target_pc [31:0] $end
$var reg 32 a" Instruction_Code [31:0] $end
$var reg 32 b" PC [31:0] $end
$var reg 32 c" PC_out [31:0] $end
$var reg 32 d" imem_addr [31:0] $end
$var reg 1 e" imem_valid $end
$upscope $end
$scope module if_id_reg $end
$var wire 1 E clock $end
$var wire 1 L flush $end
$var wire 32 f" instr_in [31:0] $end
$var wire 32 g" pc_in [31:0] $end
$var wire 1 *" reset $end
$var wire 1 +" stall $end
$var reg 32 h" instr_out [31:0] $end
$var reg 32 i" pc_out [31:0] $end
$upscope $end
$scope module control_unit $end
$var wire 3 j" funct3 [2:0] $end
$var wire 7 k" funct7 [6:0] $end
$var wire 7 l" opcode [6:0] $end
$var reg 4 m" alu_control [3:0] $end
$var reg 2 n" aluop [1:0] $end
$var reg 1 o" alusrc $end
$var reg 1 p" branch $end
$var reg 2 q" byte_size [1:0] $end
$var reg 1 r" jump $end
$var reg 1 s" memread $end
$var reg 1 t" memtoreg $end
$var reg 1 u" memwrite $end
$var reg 1 v" regwrite $end
$upscope $end
$scope module register_file $end
$var wire 1 E clock $end
$var wire 32 w" read_data1 [31:0] $end
$var wire 32 x" read_data2 [31:0] $end
$var wire 5 y" read_reg_num1 [4:0] $end
$var wire 5 z" read_reg_num2 [4:0] $end
$var wire 1 %" regwrite $end
$var wire 1 *" reset $end
$var wire 32 {" write_data [31:0] $end
$var wire 5 |" write_reg [4:0] $end
$var integer 32 }" i [31:0] $end
$upscope $end
$scope module immediate_generator $end
$var wire 32 ~" instr [31:0] $end
$var wire 7 !# opcode [6:0] $end
$var reg 32 "# imm [31:0] $end
$upscope $end
$scope module fwd_unit $end
$var wire 5 ## rd_mem [4:0] $end
$var wire 5 $# rd_wb [4:0] $end
$var wire 1 $" regwrite_mem $end
$var wire 1 %" regwrite_wb $end
$var wire 5 %# rs1_ex [4:0] $end
$var wire 5 &# rs2_ex [4:0] $end
$var reg 2 '# forward_a [1:0] $end
$var reg 2 (# forward_b [1:0] $end
$upscope $end
$scope module arithmetic_logic_unit $end
$var wire 4 )# alu_control [3:0] $end
$var wire 32 *# in1 [31:0] $end
$var wire 32 +# in1_signed [31:0] $end
$var wire 32 ,# in2 [31:0] $end
$var wire 32 -# in2_signed [31:0] $end
$var wire 1 a less_than $end
$var wire 1 b less_than_u $end
$var wire 64 .# mul_result_signed [63:0] $end
$var wire 64 /# mul_result_unsigned [63:0] $end
$var wire 1 0" zero_flag $end
$var reg 32 0# alu_result [31:0] $end
$upscope $end
$scope module branch_unit $end
$var wire 1 > branch $end
$var wire 3 1# funct3 [2:0] $end
$var wire 1 a less_than $end
$var wire 1 b less_than_u $end
$var wire 1 0" zero_flag $end
$var reg 1 2# taken $end
$upscope $end
$scope module hazard_unit $end
$var wire 1 w branch_taken $end
$var wire 1 H dmem_ready $end
$var wire 1 3# dmem_stall $end
$var wire 1 " dmem_valid $end
$var wire 1 K flush_id_ex $end
$var wire 1 L flush_if_id $end
$var wire 1 V imem_ready $end
$var wire 1 4# imem_stall $end
$var wire 1 5# load_use_hazard $end
$var wire 1 e memread_id_ex $end
$var wire 5 6# rd_id_ex [4:0] $end
$var wire 5 7# rs1_id [4:0] $end
$var wire 5 8# rs2_id [4:0] $end
$var wire 1 +" stall $end
$upscope $end
$upscope $end
$upscope $end
$enddefinitions $end
#0
$dumpvars
b0 8#
b0 7#
b0 6#
05#
x4#
03#
02#
b0 1#
b0 0#
b0 /#
b0 .#
b0 -#
b0 ,#
b0 +#
b0 *#
b0 )#
b0 (#
b0 '#
b0 &#
b0 %#
b0 $#
b0 ##
b0 "#
b10011 !#
b10011 ~"
b100000 }"
b0 |"
b0 {"
b0 z"
b0 y"
b0 x"
b0 w"
1v"
0u"
0t"
0s"
0r"
b10 q"
0p"
1o"
b10 n"
b0 m"
b10011 l"
b0 k"
b0 j"
b0 i"
b10011 h"
b0 g"
b10011 f"
1e"
b0 d"
b0 c"
b0 b"
b10011 a"
b0 `"
b100 _"
bx ^"
b0 ]"
0\"
b0 ["
b0 Z"
0Y"
0X"
0W"
0V"
b0 U"
b0 T"
b0 S"
b0 R"
b0 Q"
b0 P"
b0 O"
b0 N"
b0 M"
b0 L"
0K"
0J"
0I"
0H"
0G"
0F"
0E"
0D"
0C"
bx B"
b0 A"
0@"
0?"
0>"
0="
b0 <"
b0 ;"
b0 :"
b0 9"
b1 8"
b0 7"
b0 6"
05"
04"
b0 3"
b0 2"
b0 1"
10"
b0 /"
b0 ."
b0 -"
b0 ,"
x+"
1*"
b0 )"
b0 ("
b0 '"
b0 &"
0%"
0$"
1#"
0""
b0 !"
b0 ~
b0 }
b0 |
b0 {
b0 z
b0 y
b0 x
0w
b0 v
b0 u
b100 t
b0 s
b0 r
b0 q
b10011 p
b0 o
0n
0m
0l
0k
0j
0i
0h
0g
0f
0e
bx d
b0 c
0b
0a
0`
0_
0^
0]
b0 \
b0 [
b10011 Z
b10011 Y
b0 X
b0 W
xV
bx U
b0 T
b0 S
b0 R
b0 Q
b0 P
b0 O
b0 N
b0 M
0L
0K
b1 J
b0 I
xH
bx G
b0 F
0E
b0 D
b10 C
b0 B
b0 A
0@
0?
0>
1=
0<
b0 ;
b0 :
b0 9
b0 8
b0 7
b0 6
b0 5
b0 4
b0 3
b0 2
11
x0
bx /
bx .
b10000000000 -
x,
bx +
bx *
b0 )
0(
1'
b0 &
b1 %
0$
b0 #
0"
b0 !
$end
#5000
1+"
b0 B"
b0 d
b10011 /
b10011 U
b10011 ^"
00
0V
14#
b0 *
b0 G
0,
0H
b100000 }"
1(
1E
#10000
0(
0E
#15000
b100000 }"
1(
1E
#20000
0(
0E
#25000
b100000 }"
1(
1E
#30000
0(
0E
#35000
b100000 }"
1(
1E
#40000
0(
0E
#45000
0+"
b100 N"
b100 u
10
1V
04#
b10100000000000010010011 /
b10100000000000010010011 U
b10100000000000010010011 ^"
b0 .
b1 )
01
0*"
1(
1E
#50000
0(
0E
#55000
b100 d"
b100 &
b100 T
b100 c"
b100 s
b100 g"
b1000 _"
b100 b"
b10100000000000010010011 a"
b10100000000000010010011 Z
b10100000000000010010011 f"
b10011 L"
b10011 o
b10 7"
b10 B
14"
1<
1W"
1""
b100 O"
b100 v
b10 )
1(
1E
#60000
0(
0E
#65000
b1111 8"
b1111 %
b1111 J
b101 )"
b101 z"
b101 8#
b1 y
b101 "#
b101 X
b1000 c"
b1000 s
b1000 g"
b1000 d"
b1000 &
b1000 T
b1100 _"
b10 6"
b10 D
1V"
1$"
b100 i"
b100 r
b10100000000000010010011 h"
b10100000000000010010011 Y
b10100000000000010010011 ~"
b1000 b"
b1100000000000100010011 /
b1100000000000100010011 U
b1100000000000100010011 ^"
b100 .
b11 )
1(
1E
#70000
0(
0E
#75000
b1001 ,"
b1001 `"
b101 0#
00"
b101 9
b1100 d"
b1100 &
b1100 T
b1100 c"
b1100 s
b1100 g"
b10000 _"
b100 \
1a
1b
b101 6
b101 ,#
b101 -#
b1100 b"
b1100000000000100010011 a"
b1100000000000100010011 Z
b1100000000000100010011 f"
b1000 i"
b1000 r
b1 Q"
b1 x
b1 6#
b101 ["
b101 ("
b101 &#
b100 M"
b1000 t
b100 q
b101 <"
b1001 A
b1001 [
b101 W
b101 7
1Y"
1%"
b1000001000000110110011 /
b1000001000000110110011 U
b1000001000000110110011 ^"
b1000 .
b100 )
1(
1E
#80000
0(
0E
#85000
b1101 ,"
b1101 `"
b11 )"
b11 z"
b11 8#
b10 y
b11 "#
b11 X
b10000 c"
b10000 s
b10000 g"
b10000 d"
b10000 &
b10000 T
b10100 _"
b1 P"
b1 z
b1 ##
b1000 N"
b1000 u
b101 2"
b101 :
b101 !
b101 F
b1000 M"
b1100 t
b1101 A
b1101 [
b1000 q
b1100 i"
b1100 r
b1100000000000100010011 h"
b1100000000000100010011 Y
b1100000000000100010011 ~"
b1000001000000110110011 a"
b1000001000000110110011 Z
b1000001000000110110011 f"
b10000 b"
b1000000001000001000001000110011 /
b1000000001000001000001000110011 U
b1000000001000001000001000110011 ^"
b1100 .
b101 )
1(
1E
#90000
0(
0E
#95000
b101 }
b101 w"
b10 n"
0o"
0=
1v"
1#"
b1111 ,"
b1111 `"
b11 0#
b11 9
b101 ."
b101 {"
b10100 d"
b10100 &
b10100 T
b10100 c"
b10100 s
b10100 g"
b11000 _"
b110011 !#
b10 )"
b10 z"
b10 8#
b1 '"
b1 y"
b1 7#
b11 y
b110011 p
b110011 l"
b0 "#
b0 X
b10 \
b11 6
b11 ,#
b11 -#
b101 -"
b10100 b"
b1000000001000001000001000110011 a"
b1000000001000001000001000110011 Z
b1000000001000001000001000110011 f"
b10000 i"
b10000 r
b1000001000000110110011 h"
b1000001000000110110011 Y
b1000001000000110110011 ~"
b10 Q"
b10 x
b10 6#
b11 ["
b11 ("
b11 &#
b1100 M"
b10000 t
b1100 q
b11 <"
b1111 A
b1111 [
b11 W
b11 7
b1100 N"
b1100 u
b1 S"
b1 {
b1 |"
b1 $#
b1000 O"
b1000 v
b101 3"
b101 ;
b1000001111001010110011 /
b1000001111001010110011 U
b1000001111001010110011 ^"
b10000 .
b110 )
1(
1E
#100000
0(
0E
#105000
b1111 .#
b1111 /#
b101 4
b101 *#
b101 +#
b11 8
b10000 ,"
b10000 `"
b101 5
b1000 0#
00"
b1000 9
b1 m"
b1 3
b10 n"
1v"
1#"
b10 (#
b10 N
b1 '#
b1 M
b100 \
0a
0b
b11 6
b11 ,#
b11 -#
b100000 S
b100000 k"
b100 y
b11000 c"
b11000 s
b11000 g"
b11000 d"
b11000 &
b11000 T
b11100 _"
b1100 O"
b1100 v
b10 P"
b10 z
b10 ##
b10000 N"
b10000 u
b11 2"
b11 :
b11 !
b11 F
b110011 L"
b110011 o
b11 Q"
b11 x
b11 6#
b10 ["
b10 ("
b10 &#
b1 Z"
b1 &"
b1 %#
b10000 M"
b10100 t
b10000 q
b0 <"
b10000 A
b10000 [
b0 W
b0 7
b101 T"
b101 |
04"
0<
b10100 i"
b10100 r
b1000000001000001000001000110011 h"
b1000000001000001000001000110011 Y
b1000000001000001000001000110011 ~"
b1000001111001010110011 a"
b1000001111001010110011 Z
b1000001111001010110011 f"
b11000 b"
b1000001110001100110011 /
b1000001110001100110011 U
b1000001110001100110011 ^"
b10100 .
b111 )
1(
1E
#110000
0(
0E
#115000
b11 !"
b11 x"
b10 m"
b10 3
b10 n"
1v"
1#"
b10100 ,"
b10100 `"
b1111 .#
b1111 /#
b11 6
b11 ,#
b11 -#
b11 ."
b11 {"
b11100 d"
b11100 &
b11100 T
b11100 c"
b11100 s
b11100 g"
b100000 _"
b0 S
b0 k"
b111 P
b111 j"
b101 y
b10 0#
b10 9
b11 8
b1 (#
b1 N
b0 '#
b0 M
b11 -"
b11100 b"
b1000001110001100110011 a"
b1000001110001100110011 Z
b1000001110001100110011 f"
b11000 i"
b11000 r
b1000001111001010110011 h"
b1000001111001010110011 Y
b1000001111001010110011 ~"
b1 1"
b1 2
b1 )#
b100000 ;"
b100000 R
b100 Q"
b100 x
b100 6#
b10100 M"
b11000 t
b10100 A
b10100 [
b10100 q
b11 P"
b11 z
b11 ##
b10100 N"
b10100 u
b11 ]"
b11 /"
b11 #
b11 I
b1000 2"
b1000 :
b1000 !
b1000 F
b10 S"
b10 {
b10 |"
b10 $#
b10000 O"
b10000 v
b11 3"
b11 ;
b1000001100001110110011 /
b1000001100001110110011 U
b1000001100001110110011 ^"
b11000 .
b1000 )
1(
1E
#120000
0(
0E
#125000
b1000 ."
b1000 {"
b11000 ,"
b11000 `"
b11 m"
b11 3
b10 n"
1v"
1#"
b1000 -"
b0 (#
b0 N
b1 0#
b1 9
b110 P
b110 j"
b110 y
b100000 c"
b100000 s
b100000 g"
b100000 d"
b100000 &
b100000 T
b100100 _"
b11 S"
b11 {
b11 |"
b11 $#
b10100 O"
b10100 v
b1000 3"
b1000 ;
b100 P"
b100 z
b100 ##
b11000 N"
b11000 u
b10 2"
b10 :
b10 !
b10 F
b10 1"
b10 2
b10 )#
b0 ;"
b0 R
b111 :"
b111 O
b111 1#
b101 Q"
b101 x
b101 6#
b11000 M"
b11100 t
b11000 A
b11000 [
b11000 q
b11 U"
b11 ~
b11100 i"
b11100 r
b1000001110001100110011 h"
b1000001110001100110011 Y
b1000001110001100110011 ~"
b1000001100001110110011 a"
b1000001100001110110011 Z
b1000001100001110110011 f"
b100000 b"
b1000001001010000010011 /
b1000001001010000010011 U
b1000001001010000010011 ^"
b11100 .
b1001 )
1(
1E
#130000
0(
0E
#135000
b100 m"
b100 3
b10 n"
1v"
1#"
b11100 ,"
b11100 `"
b10 ."
b10 {"
b100100 d"
b100100 &
b100100 T
b100100 c"
b100100 s
b100100 g"
b101000 _"
b100 P
b100 j"
b111 y
b111 0#
b111 9
b10 -"
b100100 b"
b1000001001010000010011 a"
b1000001001010000010011 Z
b1000001001010000010011 f"
b100000 i"
b100000 r
b1000001100001110110011 h"
b1000001100001110110011 Y
b1000001100001110110011 ~"
b11 1"
b11 2
b11 )#
b110 :"
b110 O
b110 1#
b110 Q"
b110 x
b110 6#
b11100 M"
b100000 t
b11100 A
b11100 [
b11100 q
b111 9"
b111 Q
b101 P"
b101 z
b101 ##
b11100 N"
b11100 u
b1 2"
b1 :
b1 !
b1 F
b100 S"
b100 {
b100 |"
b100 $#
b11000 O"
b11000 v
b10 3"
b10 ;
b1000001101010010010011 /
b1000001101010010010011 U
b1000001101010010010011 ^"
b100000 .
b1010 )
1(
1E
#140000
0(
0E
#145000
b1 ."
b1 {"
b100000 ,"
b100000 `"
b10 "#
b10 X
1o"
1=
b101 m"
b101 3
b10 n"
1v"
1#"
b1 -"
b110 0#
b110 9
b10011 !#
b1 P
b1 j"
b1000 y
b10011 p
b10011 l"
b101000 c"
b101000 s
b101000 g"
b101000 d"
b101000 &
b101000 T
b101100 _"
b101 S"
b101 {
b101 |"
b101 $#
b11100 O"
b11100 v
b1 3"
b1 ;
b110 9"
b110 Q
b110 P"
b110 z
b110 ##
b100000 N"
b100000 u
b111 2"
b111 :
b111 !
b111 F
b100 1"
b100 2
b100 )#
b100 :"
b100 O
b100 1#
b111 Q"
b111 x
b111 6#
b100000 M"
b100100 t
b100000 A
b100000 [
b100000 q
b100100 i"
b100100 r
b1000001001010000010011 h"
b1000001001010000010011 Y
b1000001001010000010011 ~"
b1000001101010010010011 a"
b1000001101010010010011 Z
b1000001101010010010011 f"
b101000 b"
b1000001010010100110011 /
b1000001010010100110011 U
b1000001010010100110011 ^"
b100100 .
b1011 )
1(
1E
#150000
0(
0E
#155000
b110 m"
b110 3
b10 n"
1o"
1=
1v"
1#"
b100110 ,"
b100110 `"
b111 ."
b111 {"
b101100 d"
b101100 &
b101100 T
b101100 c"
b101100 s
b101100 g"
b110000 _"
b101 P
b101 j"
b1001 y
b10100 0#
b10100 9
b110 \
b1010 .#
b1010 /#
b10 6
b10 ,#
b10 -#
b111 -"
b101100 b"
b1000001010010100110011 a"
b1000001010010100110011 Z
b1000001010010100110011 f"
b101000 i"
b101000 r
b1000001101010010010011 h"
b1000001101010010010011 Y
b1000001101010010010011 ~"
b10011 L"
b10011 o
b101 1"
b101 2
b101 )#
b1 :"
b1 O
b1 1#
b1000 Q"
b1000 x
b1000 6#
b100100 M"
b101000 t
b100100 q
b10 <"
b100110 A
b100110 [
b10 W
b10 7
14"
1<
b100 9"
b100 Q
b111 P"
b111 z
b111 ##
b100100 N"
b100100 u
b110 2"
b110 :
b110 !
b110 F
b110 S"
b110 {
b110 |"
b110 $#
b100000 O"
b100000 v
b111 3"
b111 ;
b100010010010110010011 /
b100010010010110010011 U
b100010010010110010011 ^"
b101000 .
b1100 )
1(
1E
#160000
0(
0E
#165000
b110 ."
b110 {"
b101010 ,"
b101010 `"
b0 "#
b0 X
b1000 m"
b1000 3
b10 n"
0o"
0=
1v"
1#"
b110 -"
b1 0#
b1 9
b110011 !#
b10 P
b10 j"
b1010 y
b110011 p
b110011 l"
b110000 c"
b110000 s
b110000 g"
b110000 d"
b110000 &
b110000 T
b110100 _"
b111 S"
b111 {
b111 |"
b111 $#
b100100 O"
b100100 v
b110 3"
b110 ;
b1 9"
b1 Q
b1000 P"
b1000 z
b1000 ##
b101000 N"
b101000 u
b10100 2"
b10100 :
b10100 !
b10100 F
b110 1"
b110 2
b110 )#
b101 :"
b101 O
b101 1#
b1001 Q"
b1001 x
b1001 6#
b101000 M"
b101100 t
b101010 A
b101010 [
b101000 q
b101100 i"
b101100 r
b1000001010010100110011 h"
b1000001010010100110011 Y
b1000001010010100110011 ~"
b100010010010110010011 a"
b100010010010110010011 Z
b100010010010110010011 f"
b110000 b"
b100000010000000100011 /
b100000010000000100011 U
b100000010000000100011 ^"
b101100 .
b1101 )
1(
1E
#170000
0(
0E
#175000
b101 !"
b101 x"
b11 }
b11 w"
b1 "#
b1 X
1o"
1=
b1000 m"
b1000 3
b10 n"
1v"
1#"
b101100 ,"
b101100 `"
b10100 ."
b10100 {"
b110100 d"
b110100 &
b110100 T
b110100 c"
b110100 s
b110100 g"
b111000 _"
b10011 !#
b1 )"
b1 z"
b1 8#
b10 '"
b10 y"
b10 7#
b1011 y
b10011 p
b10011 l"
b0 0#
10"
b0 9
b100 \
b1111 .#
b1111 /#
b11 6
b11 ,#
b11 -#
b10100 -"
b110100 b"
b100000010000000100011 a"
b100000010000000100011 Z
b100000010000000100011 f"
b110000 i"
b110000 r
b100010010010110010011 h"
b100010010010110010011 Y
b100010010010110010011 ~"
b110011 L"
b110011 o
b1000 1"
b1000 2
b1000 )#
b10 :"
b10 O
b10 1#
b1010 Q"
b1010 x
b1010 6#
b101100 M"
b110000 t
b101100 q
b0 <"
b101100 A
b101100 [
b0 W
b0 7
04"
0<
b101 9"
b101 Q
b1001 P"
b1001 z
b1001 ##
b101100 N"
b101100 u
b1 2"
b1 :
b1 !
b1 F
b1000 S"
b1000 {
b1000 |"
b1000 $#
b101000 O"
b101000 v
b10100 3"
b10100 ;
b1000000001001000100011 /
b1000000001001000100011 U
b1000000001001000100011 ^"
b110000 .
b1110 )
1(
1E
#180000
0(
0E
#185000
b11 4
b11 *#
b11 +#
b1 ."
b1 {"
b110001 ,"
b110001 `"
b101 8
b11 5
b0 "#
b0 X
b0 }
b0 w"
1u"
1m
b0 m"
b0 3
b0 n"
1o"
1=
0v"
0#"
b1 -"
b100 \
b11 .#
b11 /#
b1 6
b1 ,#
b1 -#
b100011 !#
b0 '"
b0 y"
b0 7#
b0 y
b100011 p
b100011 l"
b111000 c"
b111000 s
b111000 g"
b111000 d"
b111000 &
b111000 T
b111100 _"
b1001 S"
b1001 {
b1001 |"
b1001 $#
b101100 O"
b101100 v
b1 3"
b1 ;
b10 9"
b10 Q
b1010 P"
b1010 z
b1010 ##
b110000 N"
b110000 u
b0 2"
b0 :
b0 !
b0 F
b10011 L"
b10011 o
b1011 Q"
b1011 x
b1011 6#
b1 ["
b1 ("
b1 &#
b10 Z"
b10 &"
b10 %#
b110000 M"
b110100 t
b110000 q
b1 <"
b110001 A
b110001 [
b1 W
b1 7
b101 U"
b101 ~
b11 T"
b11 |
14"
1<
b110100 i"
b110100 r
b100000010000000100011 h"
b100000010000000100011 Y
b100000010000000100011 ~"
b1000000001001000100011 a"
b1000000001001000100011 Z
b1000000001001000100011 f"
b111000 b"
b1100000000010000100011 /
b1100000000010000100011 U
b1100000000010000100011 ^"
b110100 .
b1111 )
1(
1E
#190000
0(
0E
#195000
b0 4
b0 *#
b0 +#
b11 !"
b11 x"
b1 q"
b1 C
1u"
1m
1o"
1=
b110100 ,"
b110100 `"
b0 5
b0 ."
b0 {"
b111100 d"
b111100 &
b111100 T
b111100 c"
b111100 s
b111100 g"
b1000000 _"
b10 )"
b10 z"
b10 8#
b1 P
b1 j"
b100 y
b100 "#
b100 X
b0 0#
10"
b0 9
b0 \
b0 .#
b0 /#
b0 6
b0 ,#
b0 -#
b0 -"
b111100 b"
b1100000000010000100011 a"
b1100000000010000100011 Z
b1100000000010000100011 f"
b111000 i"
b111000 r
b1000000001001000100011 h"
b1000000001001000100011 Y
b1000000001001000100011 ~"
b100011 L"
b100011 o
b0 1"
b0 2
b0 )#
b0 Q"
b0 x
b0 6#
b0 Z"
b0 &"
b0 %#
b110100 M"
b111000 t
b110100 q
b0 <"
b110100 A
b110100 [
b0 W
b0 7
b0 T"
b0 |
1K"
1l
0W"
0""
b1011 P"
b1011 z
b1011 ##
b110100 N"
b110100 u
b101 ]"
b101 /"
b101 #
b101 I
b1010 S"
b1010 {
b1010 |"
b1010 $#
b110000 O"
b110000 v
b0 3"
b0 ;
b10011 /
b10011 U
b10011 ^"
b111000 .
b10000 )
1(
1E
#200000
0(
0E
#205000
1+"
13#
b1000 !"
b1000 x"
1"
b111100 ,"
b111100 `"
b100 0#
00"
b100 9
b11 8
b0 q"
b0 C
1u"
1m
1o"
1=
b100 \
1a
1b
b100 6
b100 ,#
b100 -#
b11 )"
b11 z"
b11 8#
b0 P
b0 j"
b1000 y
b1000 "#
b1000 X
b1000000 c"
b1000000 s
b1000000 g"
b1000000 d"
b1000000 &
b1000000 T
b1000100 _"
b1011 S"
b1011 {
b1011 |"
b1011 $#
b110100 O"
b110100 v
b0 P"
b0 z
b0 ##
1J"
1n
1$
0V"
0$"
b111000 N"
b111000 u
b1 7"
b1 B
b1 :"
b1 O
b1 1#
b100 Q"
b100 x
b100 6#
b10 ["
b10 ("
b10 &#
b111000 M"
b111100 t
b111000 q
b100 <"
b111100 A
b111100 [
b100 W
b100 7
b11 U"
b11 ~
b111100 i"
b111100 r
b1100000000010000100011 h"
b1100000000010000100011 Y
b1100000000010000100011 ~"
b10011 a"
b10011 Z
b10011 f"
b1000000 b"
b111100 .
b10001 )
1(
1E
#210000
0(
0E
#215000
0+"
03#
b111100 N"
b111100 u
b11 ]"
b11 /"
b11 #
b11 I
b100 2"
b100 :
b100 !
b100 F
1,
1H
b10011000000011 /
b10011000000011 U
b10011000000011 ^"
b1000000 .
b10010 )
1(
1E
#220000
0(
0E
