cpu/riscv_core_axi.vcd
$date
	Mon Jan 19 01:27:11 2026
$end
$version
	Icarus Verilog
$end
$timescale
	1ps
$end
$scope module tb_riscv_core_axi $end
$var wire 32 ! M_AXI_ARADDR [31:0] $end
$var wire 3 " M_AXI_ARPROT [2:0] $end
$var wire 1 # M_AXI_ARVALID $end
$var wire 32 $ M_AXI_AWADDR [31:0] $end
$var wire 3 % M_AXI_AWPROT [2:0] $end
$var wire 1 & M_AXI_AWVALID $end
$var wire 1 ' M_AXI_BREADY $end
$var wire 1 ( M_AXI_RREADY $end
$var wire 32 ) M_AXI_WDATA [31:0] $end
$var wire 4 * M_AXI_WSTRB [3:0] $end
$var wire 1 + M_AXI_WVALID $end
$var wire 32 , debug_alu_result [31:0] $end
$var wire 1 - debug_branch_taken $end
$var wire 32 . debug_branch_target [31:0] $end
$var wire 2 / debug_forward_a [1:0] $end
$var wire 2 0 debug_forward_b [1:0] $end
$var wire 32 1 debug_instr [31:0] $end
$var wire 32 2 debug_mem_data [31:0] $end
$var wire 32 3 debug_pc [31:0] $end
$var wire 1 4 debug_stall $end
$var reg 1 5 M_AXI_ARREADY $end
$var reg 1 6 M_AXI_AWREADY $end
$var reg 2 7 M_AXI_BRESP [1:0] $end
$var reg 1 8 M_AXI_BVALID $end
$var reg 32 9 M_AXI_RDATA [31:0] $end
$var reg 2 : M_AXI_RRESP [1:0] $end
$var reg 1 ; M_AXI_RVALID $end
$var reg 1 < M_AXI_WREADY $end
$var reg 32 = axi_read_addr [31:0] $end
$var integer 32 > axi_read_count [31:0] $end
$var reg 32 ? axi_write_addr [31:0] $end
$var integer 32 @ axi_write_count [31:0] $end
$var reg 32 A axi_write_data [31:0] $end
$var reg 4 B axi_write_strb [3:0] $end
$var reg 1 C clk $end
$var integer 32 D cycle_count [31:0] $end
$var integer 32 E fail_count [31:0] $end
$var integer 32 F instruction_count [31:0] $end
$var integer 32 G pass_count [31:0] $end
$var reg 1 H read_pending $end
$var reg 1 I rst_n $end
$var reg 1600 J temp_string [1600:1] $end
$var integer 32 K test_num [31:0] $end
$var integer 32 L test_start_time [31:0] $end
$var reg 1 M test_timeout $end
$var reg 1 N write_pending $end
$scope function read_memory $end
$var reg 32 O addr [31:0] $end
$var reg 32 P data [31:0] $end
$var integer 32 Q offset [31:0] $end
$var reg 32 R read_memory [31:0] $end
$upscope $end
$scope module dut $end
$var wire 32 S M_AXI_ARADDR [31:0] $end
$var wire 3 T M_AXI_ARPROT [2:0] $end
$var wire 1 U M_AXI_ARREADY $end
$var wire 1 # M_AXI_ARVALID $end
$var wire 32 V M_AXI_AWADDR [31:0] $end
$var wire 3 W M_AXI_AWPROT [2:0] $end
$var wire 1 X M_AXI_AWREADY $end
$var wire 1 & M_AXI_AWVALID $end
$var wire 1 ' M_AXI_BREADY $end
$var wire 2 Y M_AXI_BRESP [1:0] $end
$var wire 1 Z M_AXI_BVALID $end
$var wire 32 [ M_AXI_RDATA [31:0] $end
$var wire 1 ( M_AXI_RREADY $end
$var wire 2 \ M_AXI_RRESP [1:0] $end
$var wire 1 ] M_AXI_RVALID $end
$var wire 32 ^ M_AXI_WDATA [31:0] $end
$var wire 1 _ M_AXI_WREADY $end
$var wire 4 ` M_AXI_WSTRB [3:0] $end
$var wire 1 + M_AXI_WVALID $end
$var wire 1 a clk $end
$var wire 32 b debug_alu_result [31:0] $end
$var wire 1 - debug_branch_taken $end
$var wire 32 c debug_branch_target [31:0] $end
$var wire 2 d debug_forward_a [1:0] $end
$var wire 2 e debug_forward_b [1:0] $end
$var wire 32 f debug_instr [31:0] $end
$var wire 32 g debug_mem_data [31:0] $end
$var wire 32 h debug_pc [31:0] $end
$var wire 1 4 debug_stall $end
$var wire 32 i if_addr [31:0] $end
$var wire 32 j if_data [31:0] $end
$var wire 1 k if_error $end
$var wire 1 l if_ready $end
$var wire 1 m if_req $end
$var wire 32 n mem_addr [31:0] $end
$var wire 1 o mem_error $end
$var wire 32 p mem_rdata [31:0] $end
$var wire 1 q mem_ready $end
$var wire 1 r mem_req $end
$var wire 32 s mem_wdata [31:0] $end
$var wire 1 t mem_wr $end
$var wire 4 u mem_wstrb [3:0] $end
$var wire 1 v reset $end
$var wire 1 w rst_n $end
$scope module cpu_core $end
$var wire 4 x alu_control_ex [3:0] $end
$var wire 4 y alu_control_id [3:0] $end
$var wire 32 z alu_in1 [31:0] $end
$var wire 32 { alu_in2 [31:0] $end
$var wire 32 | alu_result_debug [31:0] $end
$var wire 32 } alu_result_ex [31:0] $end
$var wire 32 ~ alu_result_mem [31:0] $end
$var wire 32 !" alu_result_wb [31:0] $end
$var wire 2 "" aluop_id [1:0] $end
$var wire 1 #" alusrc_ex $end
$var wire 1 $" alusrc_id $end
$var wire 1 %" branch_decision $end
$var wire 1 &" branch_ex $end
$var wire 1 '" branch_id $end
$var wire 1 - branch_taken_debug $end
$var wire 1 (" branch_taken_detected $end
$var wire 1 )" branch_taken_reg $end
$var wire 32 *" branch_target_calc [31:0] $end
$var wire 32 +" branch_target_debug [31:0] $end
$var wire 32 ," branch_target_pc_based [31:0] $end
$var wire 32 -" branch_target_reg [31:0] $end
$var wire 2 ." byte_size_ex [1:0] $end
$var wire 2 /" byte_size_id [1:0] $end
$var wire 2 0" byte_size_wb [1:0] $end
$var wire 1 a clk $end
$var wire 32 1" dmem_addr [31:0] $end
$var wire 32 2" dmem_rdata [31:0] $end
$var wire 1 q dmem_ready $end
$var wire 1 r dmem_req $end
$var wire 32 3" dmem_wdata [31:0] $end
$var wire 1 t dmem_wr $end
$var wire 4 4" dmem_wstrb [3:0] $end
$var wire 1 5" flush_id_ex $end
$var wire 1 6" flush_if_id $end
$var wire 2 7" forward_a [1:0] $end
$var wire 2 8" forward_a_debug [1:0] $end
$var wire 2 9" forward_b [1:0] $end
$var wire 2 :" forward_b_debug [1:0] $end
$var wire 3 ;" funct3_ex [2:0] $end
$var wire 3 <" funct3_id [2:0] $end
$var wire 3 =" funct3_wb [2:0] $end
$var wire 7 >" funct7_ex [6:0] $end
$var wire 7 ?" funct7_id [6:0] $end
$var wire 1 @" hazard_stall $end
$var wire 32 A" imem_addr [31:0] $end
$var wire 32 B" imem_data [31:0] $end
$var wire 1 l imem_ready $end
$var wire 1 m imem_req $end
$var wire 32 C" imm_ex [31:0] $end
$var wire 32 D" imm_id [31:0] $end
$var wire 32 E" instruction_current [31:0] $end
$var wire 32 F" instruction_id [31:0] $end
$var wire 32 G" instruction_if [31:0] $end
$var wire 1 H" is_auipc $end
$var wire 1 I" is_branch $end
$var wire 1 J" is_jal $end
$var wire 1 K" is_jalr $end
$var wire 1 L" is_lui $end
$var wire 32 M" jalr_target [31:0] $end
$var wire 1 N" jump_ex $end
$var wire 1 O" jump_id $end
$var wire 1 P" jump_wb $end
$var wire 1 Q" less_than $end
$var wire 1 R" less_than_u $end
$var wire 32 S" mem_data_wb [31:0] $end
$var wire 32 T" mem_out_debug [31:0] $end
$var wire 1 U" mem_stall $end
$var wire 1 V" memread_ex $end
$var wire 1 W" memread_id $end
$var wire 1 X" memtoreg_ex $end
$var wire 1 Y" memtoreg_id $end
$var wire 1 Z" memtoreg_wb $end
$var wire 1 [" memwrite_ex $end
$var wire 1 \" memwrite_id $end
$var wire 7 ]" opcode_ex [6:0] $end
$var wire 7 ^" opcode_id [6:0] $end
$var wire 32 _" pc_current [31:0] $end
$var wire 32 `" pc_ex [31:0] $end
$var wire 32 a" pc_id [31:0] $end
$var wire 32 b" pc_if [31:0] $end
$var wire 32 c" pc_plus_4_ex [31:0] $end
$var wire 32 d" pc_plus_4_wb [31:0] $end
$var wire 5 e" rd_ex [4:0] $end
$var wire 5 f" rd_id [4:0] $end
$var wire 5 g" rd_mem [4:0] $end
$var wire 5 h" rd_wb [4:0] $end
$var wire 32 i" read_data1_ex [31:0] $end
$var wire 32 j" read_data1_id [31:0] $end
$var wire 32 k" read_data2_ex [31:0] $end
$var wire 32 l" read_data2_id [31:0] $end
$var wire 1 m" regwrite_ex $end
$var wire 1 n" regwrite_id $end
$var wire 1 o" regwrite_mem $end
$var wire 1 p" regwrite_wb $end
$var wire 1 v reset $end
$var wire 5 q" rs1_ex [4:0] $end
$var wire 5 r" rs1_id [4:0] $end
$var wire 5 s" rs2_ex [4:0] $end
$var wire 5 t" rs2_id [4:0] $end
$var wire 1 u" stall $end
$var wire 1 4 stall_debug $end
$var wire 32 v" wb_data_temp [31:0] $end
$var wire 32 w" write_data_wb [31:0] $end
$var wire 1 x" zero_flag $end
$var reg 32 y" aligned_write_data [31:0] $end
$var reg 4 z" alu_control_ex_reg [3:0] $end
$var reg 32 {" alu_in1_forwarded [31:0] $end
$var reg 32 |" alu_result_mem_reg [31:0] $end
$var reg 32 }" alu_result_wb_reg [31:0] $end
$var reg 1 ~" branch_taken_reg_reg $end
$var reg 32 !# branch_target_reg_reg [31:0] $end
$var reg 2 "# byte_size_ex_reg [1:0] $end
$var reg 2 ## byte_size_mem [1:0] $end
$var reg 2 $# byte_size_wb_reg [1:0] $end
$var reg 4 %# byte_strobe [3:0] $end
$var reg 32 &# extended_mem_data [31:0] $end
$var reg 32 '# forwarded_data2 [31:0] $end
$var reg 3 (# funct3_mem [2:0] $end
$var reg 3 )# funct3_wb_reg [2:0] $end
$var reg 1 *# jump_mem $end
$var reg 1 +# jump_wb_reg $end
$var reg 32 ,# mem_data_wb_reg [31:0] $end
$var reg 1 -# memread_mem $end
$var reg 1 .# memtoreg_mem $end
$var reg 1 /# memtoreg_wb_reg $end
$var reg 1 0# memwrite_mem $end
$var reg 7 1# opcode_ex_reg [6:0] $end
$var reg 32 2# pc_plus_4_mem [31:0] $end
$var reg 32 3# pc_plus_4_wb_reg [31:0] $end
$var reg 32 4# pc_reg [31:0] $end
$var reg 5 5# rd_mem_reg [4:0] $end
$var reg 5 6# rd_wb_reg [4:0] $end
$var reg 1 7# regwrite_mem_reg $end
$var reg 1 8# regwrite_wb_reg $end
$var reg 32 9# write_data_mem [31:0] $end
$scope module if_id_reg $end
$var wire 1 a clock $end
$var wire 1 6" flush $end
$var wire 32 :# instr_in [31:0] $end
$var wire 32 ;# pc_in [31:0] $end
$var wire 1 v reset $end
$var wire 1 u" stall $end
$var reg 32 <# instr_out [31:0] $end
$var reg 32 =# pc_out [31:0] $end
$upscope $end
$scope module control_unit $end
$var wire 3 ># funct3 [2:0] $end
$var wire 7 ?# funct7 [6:0] $end
$var wire 7 @# opcode [6:0] $end
$var reg 4 A# alu_control [3:0] $end
$var reg 2 B# aluop [1:0] $end
$var reg 1 C# alusrc $end
$var reg 1 D# branch $end
$var reg 2 E# byte_size [1:0] $end
$var reg 1 F# jump $end
$var reg 1 G# memread $end
$var reg 1 H# memtoreg $end
$var reg 1 I# memwrite $end
$var reg 1 J# regwrite $end
$upscope $end
$scope module register_file $end
$var wire 1 a clock $end
$var wire 32 K# read_data1 [31:0] $end
$var wire 32 L# read_data2 [31:0] $end
$var wire 5 M# read_reg_num1 [4:0] $end
$var wire 5 N# read_reg_num2 [4:0] $end
$var wire 1 p" regwrite $end
$var wire 1 v reset $end
$var wire 32 O# write_data [31:0] $end
$var wire 5 P# write_reg [4:0] $end
$var integer 32 Q# i [31:0] $end
$upscope $end
$scope module immediate_gen $end
$var wire 32 R# instr [31:0] $end
$var wire 7 S# opcode [6:0] $end
$var reg 32 T# imm [31:0] $end
$upscope $end
$scope module hazard_unit $end
$var wire 1 )" branch_taken $end
$var wire 1 V" memread_id_ex $end
$var wire 5 U# rd_id_ex [4:0] $end
$var wire 5 V# rs1_id [4:0] $end
$var wire 5 W# rs2_id [4:0] $end
$var reg 1 X# flush_id_ex $end
$var reg 1 Y# flush_if_id $end
$var reg 1 Z# stall $end
$upscope $end
$scope module id_ex_reg $end
$var wire 1 $" alusrc_in $end
$var wire 1 '" branch_in $end
$var wire 1 a clock $end
$var wire 1 5" flush $end
$var wire 3 [# funct3_in [2:0] $end
$var wire 7 \# funct7_in [6:0] $end
$var wire 32 ]# imm_in [31:0] $end
$var wire 1 O" jump_in $end
$var wire 1 W" memread_in $end
$var wire 1 Y" memtoreg_in $end
$var wire 1 \" memwrite_in $end
$var wire 32 ^# pc_in [31:0] $end
$var wire 5 _# rd_in [4:0] $end
$var wire 32 `# read_data1_in [31:0] $end
$var wire 32 a# read_data2_in [31:0] $end
$var wire 1 n" regwrite_in $end
$var wire 1 v reset $end
$var wire 5 b# rs1_in [4:0] $end
$var wire 5 c# rs2_in [4:0] $end
$var wire 1 d# stall $end
$var reg 1 e# alusrc_out $end
$var reg 1 f# branch_out $end
$var reg 3 g# funct3_out [2:0] $end
$var reg 7 h# funct7_out [6:0] $end
$var reg 32 i# imm_out [31:0] $end
$var reg 1 j# jump_out $end
$var reg 1 k# memread_out $end
$var reg 1 l# memtoreg_out $end
$var reg 1 m# memwrite_out $end
$var reg 32 n# pc_out [31:0] $end
$var reg 5 o# rd_out [4:0] $end
$var reg 32 p# read_data1_out [31:0] $end
$var reg 32 q# read_data2_out [31:0] $end
$var reg 1 r# regwrite_out $end
$var reg 5 s# rs1_out [4:0] $end
$var reg 5 t# rs2_out [4:0] $end
$upscope $end
$scope module forward_unit $end
$var wire 5 u# rd_mem [4:0] $end
$var wire 5 v# rd_wb [4:0] $end
$var wire 1 o" regwrite_mem $end
$var wire 1 p" regwrite_wb $end
$var wire 5 w# rs1_ex [4:0] $end
$var wire 5 x# rs2_ex [4:0] $end
$var reg 2 y# forward_a [1:0] $end
$var reg 2 z# forward_b [1:0] $end
$upscope $end
$scope module alu_unit $end
$var wire 4 {# alu_control [3:0] $end
$var wire 32 |# in1 [31:0] $end
$var wire 32 }# in1_signed [31:0] $end
$var wire 32 ~# in2 [31:0] $end
$var wire 32 !$ in2_signed [31:0] $end
$var wire 1 Q" less_than $end
$var wire 1 R" less_than_u $end
$var wire 64 "$ mul_result_signed [63:0] $end
$var wire 64 #$ mul_result_unsigned [63:0] $end
$var wire 1 x" zero_flag $end
$var reg 32 $$ alu_result [31:0] $end
$upscope $end
$scope module branch_unit $end
$var wire 1 &" branch $end
$var wire 3 %$ funct3 [2:0] $end
$var wire 1 Q" less_than $end
$var wire 1 R" less_than_u $end
$var wire 1 x" zero_flag $end
$var reg 1 &$ taken $end
$upscope $end
$upscope $end
$scope module mau $end
$var wire 32 '$ M_AXI_ARADDR [31:0] $end
$var wire 3 ($ M_AXI_ARPROT [2:0] $end
$var wire 1 U M_AXI_ARREADY $end
$var wire 1 # M_AXI_ARVALID $end
$var wire 32 )$ M_AXI_AWADDR [31:0] $end
$var wire 3 *$ M_AXI_AWPROT [2:0] $end
$var wire 1 X M_AXI_AWREADY $end
$var wire 1 & M_AXI_AWVALID $end
$var wire 1 ' M_AXI_BREADY $end
$var wire 2 +$ M_AXI_BRESP [1:0] $end
$var wire 1 Z M_AXI_BVALID $end
$var wire 32 ,$ M_AXI_RDATA [31:0] $end
$var wire 1 ( M_AXI_RREADY $end
$var wire 2 -$ M_AXI_RRESP [1:0] $end
$var wire 1 ] M_AXI_RVALID $end
$var wire 32 .$ M_AXI_WDATA [31:0] $end
$var wire 1 _ M_AXI_WREADY $end
$var wire 4 /$ M_AXI_WSTRB [3:0] $end
$var wire 1 + M_AXI_WVALID $end
$var wire 32 0$ axi_cpu_addr [31:0] $end
$var wire 1 1$ axi_cpu_error $end
$var wire 32 2$ axi_cpu_rdata [31:0] $end
$var wire 1 3$ axi_cpu_ready $end
$var wire 1 4$ axi_cpu_req $end
$var wire 32 5$ axi_cpu_wdata [31:0] $end
$var wire 1 6$ axi_cpu_wr $end
$var wire 4 7$ axi_cpu_wstrb [3:0] $end
$var wire 1 a clk $end
$var wire 32 8$ if_addr [31:0] $end
$var wire 1 m if_req $end
$var wire 32 9$ mem_addr [31:0] $end
$var wire 1 r mem_req $end
$var wire 32 :$ mem_wdata [31:0] $end
$var wire 1 t mem_wr $end
$var wire 4 ;$ mem_wstrb [3:0] $end
$var wire 1 w rst_n $end
$var reg 2 <$ arb_next [1:0] $end
$var reg 2 =$ arb_state [1:0] $end
$var reg 32 >$ if_data [31:0] $end
$var reg 1 ?$ if_error $end
$var reg 1 @$ if_ready $end
$var reg 1 A$ mem_error $end
$var reg 32 B$ mem_rdata [31:0] $end
$var reg 1 C$ mem_ready $end
$var reg 32 D$ mux_addr [31:0] $end
$var reg 1 E$ mux_req $end
$var reg 32 F$ mux_wdata [31:0] $end
$var reg 1 G$ mux_wr $end
$var reg 4 H$ mux_wstrb [3:0] $end
$scope module axi_master $end
$var wire 3 I$ M_AXI_ARPROT [2:0] $end
$var wire 1 U M_AXI_ARREADY $end
$var wire 3 J$ M_AXI_AWPROT [2:0] $end
$var wire 1 X M_AXI_AWREADY $end
$var wire 2 K$ M_AXI_BRESP [1:0] $end
$var wire 1 Z M_AXI_BVALID $end
$var wire 32 L$ M_AXI_RDATA [31:0] $end
$var wire 2 M$ M_AXI_RRESP [1:0] $end
$var wire 1 ] M_AXI_RVALID $end
$var wire 1 _ M_AXI_WREADY $end
$var wire 1 a clk $end
$var wire 32 N$ cpu_addr [31:0] $end
$var wire 1 4$ cpu_req $end
$var wire 32 O$ cpu_wdata [31:0] $end
$var wire 1 6$ cpu_wr $end
$var wire 4 P$ cpu_wstrb [3:0] $end
$var wire 1 w rst_n $end
$var reg 32 Q$ M_AXI_ARADDR [31:0] $end
$var reg 1 R$ M_AXI_ARVALID $end
$var reg 32 S$ M_AXI_AWADDR [31:0] $end
$var reg 1 T$ M_AXI_AWVALID $end
$var reg 1 U$ M_AXI_BREADY $end
$var reg 1 V$ M_AXI_RREADY $end
$var reg 32 W$ M_AXI_WDATA [31:0] $end
$var reg 4 X$ M_AXI_WSTRB [3:0] $end
$var reg 1 Y$ M_AXI_WVALID $end
$var reg 32 Z$ addr_reg [31:0] $end
$var reg 1 [$ cpu_error $end
$var reg 32 \$ cpu_rdata [31:0] $end
$var reg 1 ]$ cpu_ready $end
$var reg 3 ^$ next_state [2:0] $end
$var reg 1 _$ req_pending $end
$var reg 3 `$ state [2:0] $end
$var reg 32 a$ wdata_reg [31:0] $end
$var reg 1 b$ wr_reg $end
$var reg 4 c$ wstrb_reg [3:0] $end
$upscope $end
$upscope $end
$upscope $end
$scope task init_memory $end
$var integer 32 d$ i [31:0] $end
$upscope $end
$scope task log_test_fail $end
$var reg 1280 e$ details [1280:1] $end
$var reg 640 f$ test_name [640:1] $end
$upscope $end
$scope task log_test_pass $end
$var reg 1280 g$ details [1280:1] $end
$var reg 640 h$ test_name [640:1] $end
$upscope $end
$scope task log_test_start $end
$var reg 640 i$ test_name [640:1] $end
$upscope $end
$scope task test_alu_operations $end
$var integer 32 j$ alu_ops_detected [31:0] $end
$var integer 32 k$ i [31:0] $end
$upscope $end
$scope task test_axi_interface $end
$var integer 32 l$ i [31:0] $end
$var integer 32 m$ read_transactions [31:0] $end
$var integer 32 n$ write_transactions [31:0] $end
$upscope $end
$scope task test_instruction_fetch $end
$var integer 32 o$ fetch_count [31:0] $end
$var integer 32 p$ i [31:0] $end
$upscope $end
$scope task test_memory_access $end
$var integer 32 q$ timeout_counter [31:0] $end
$upscope $end
$scope task test_reset $end
$var integer 32 r$ i [31:0] $end
$var integer 32 s$ reset_time [31:0] $end
$upscope $end
$scope task write_memory $end
$var reg 32 t$ addr [31:0] $end
$var reg 32 u$ data [31:0] $end
$var integer 32 v$ offset [31:0] $end
$var reg 4 w$ strb [3:0] $end
$upscope $end
$upscope $end
$enddefinitions $end
#0
$dumpvars
bx w$
bx v$
bx u$
bx t$
bx s$
bx r$
bx q$
bx p$
bx o$
bx n$
bx m$
bx l$
bx k$
bx j$
bx i$
bx h$
bx g$
bx f$
bx e$
b10000000000000000 d$
bx c$
xb$
bx a$
bx `$
x_$
b0 ^$
x]$
bx \$
x[$
bx Z$
xY$
bx X$
bx W$
xV$
xU$
xT$
bx S$
xR$
bx Q$
b0 P$
b0 O$
b0 N$
b0 M$
b0 L$
b0 K$
b0 J$
b0 I$
b0 H$
0G$
b0 F$
0E$
b0 D$
xC$
bx B$
xA$
x@$
x?$
bx >$
bx =$
b0 <$
bx ;$
bx :$
bx 9$
bx 8$
b0 7$
06$
b0 5$
04$
x3$
bx 2$
x1$
b0 0$
bx /$
bx .$
b0 -$
b0 ,$
b0 +$
b0 *$
bx )$
b0 ($
bx '$
0&$
bx %$
b0 $$
bx #$
bx "$
bx !$
bx ~#
bx }#
bx |#
bx {#
bx z#
bx y#
bx x#
bx w#
bx v#
bx u#
bx t#
bx s#
xr#
bx q#
bx p#
bx o#
bx n#
xm#
xl#
xk#
xj#
bx i#
bx h#
bx g#
xf#
xe#
0d#
bx c#
bx b#
bx a#
bx `#
bx _#
bx ^#
b0 ]#
bx \#
bx [#
0Z#
0Y#
0X#
bx W#
bx V#
bx U#
b0 T#
bx S#
bx R#
bx Q#
bx P#
bx O#
bx N#
bx M#
bx L#
bx K#
0J#
0I#
0H#
0G#
0F#
b10 E#
0D#
0C#
b0 B#
b0 A#
bx @#
bx ?#
bx >#
bx =#
bx <#
bx ;#
bx :#
bx 9#
x8#
x7#
bx 6#
bx 5#
bx 4#
bx 3#
bx 2#
bx 1#
x0#
x/#
x.#
x-#
bx ,#
x+#
x*#
bx )#
bx (#
bx '#
bx &#
bx %#
bx $#
bx ##
bx "#
bx !#
x~"
bx }"
bx |"
bx {"
bx z"
bx y"
1x"
bx w"
bx v"
xu"
bx t"
bx s"
bx r"
bx q"
xp"
xo"
0n"
xm"
bx l"
bx k"
bx j"
bx i"
bx h"
bx g"
bx f"
bx e"
bx d"
bx c"
bx b"
bx a"
bx `"
bx _"
bx ^"
bx ]"
0\"
x["
xZ"
0Y"
xX"
0W"
xV"
xU"
bx T"
bx S"
xR"
xQ"
xP"
0O"
xN"
bx M"
xL"
xK"
xJ"
xI"
xH"
bx G"
bx F"
bx E"
b0 D"
bx C"
bx B"
bx A"
0@"
bx ?"
bx >"
bx ="
bx <"
bx ;"
bx :"
bx 9"
bx 8"
bx 7"
06"
05"
bx 4"
bx 3"
bx 2"
bx 1"
bx 0"
b10 /"
bx ."
bx -"
bx ,"
bx +"
bx *"
x)"
x("
0'"
x&"
0%"
0$"
x#"
b0 ""
bx !"
bx ~
b0 }
b0 |
bx {
bx z
b0 y
bx x
1w
0v
bx u
xt
bx s
xr
xq
bx p
xo
bx n
1m
xl
xk
bx j
bx i
bx h
bx g
bx f
bx e
bx d
bx c
b0 b
0a
bx `
0_
bx ^
0]
b0 \
b0 [
0Z
b0 Y
0X
b0 W
bx V
0U
b0 T
bx S
bx R
bx Q
bx P
bx O
0N
0M
b0 L
b0 K
bx J
1I
0H
b0 G
b0 F
b0 E
b0 D
0C
bx B
bx A
b0 @
bx ?
b0 >
bx =
0<
0;
b0 :
b0 9
08
b0 7
06
05
x4
bx 3
bx 2
bx 1
bx 0
bx /
bx .
x-
b0 ,
x+
bx *
bx )
x(
x'
x&
b0 %
bx $
x#
b0 "
bx !
$end
#5000
b10 <$
0("
bx $$
xx"
bx }
bx ,
bx b
bx |
b1111 %#
b1111 u
b1111 4"
b1111 ;$
1E$
14$
b1111 H$
b1111 7$
b1111 P$
bx D$
bx 0$
bx N$
b0 `$
0T$
0&
0Y$
0+
0U$
0'
0R$
0#
0V$
0(
0]$
03$
0[$
01$
b0 =$
b0 i#
b0 C"
0j#
0N"
0f#
0&"
0l#
0X"
0m#
0["
0k#
0V"
0e#
0#"
0r#
0m"
b10 "#
b10 ."
b0 z"
b0 x
b0 {#
b0 |"
b0 ~
b0 n
b0 1"
b0 9$
b1 D
1C
1a
#10000
0C
0a
#15000
14
1u"
0E$
04$
b1111 H$
b1111 7$
b1111 P$
bx D$
bx 0$
bx N$
0r
b0 z#
b0 9"
b0 0
b0 e
b0 :"
b0 y#
b0 7"
b0 /
b0 d
b0 8"
0A$
0o
0C$
0q
0?$
0k
0@$
1U"
0l
b10 =$
b0 }"
b0 !"
0*#
b10 ##
bx |"
bx ~
bx n
bx 1"
bx 9$
0.#
0-#
00#
0t
07#
0o"
0~"
0)"
0-
b10 D
1C
1a
#20000
0C
0a
#25000
b10 $#
b10 0"
bx }"
bx !"
0+#
0P"
0/#
0Z"
08#
0p"
b11 D
1C
1a
#30000
0C
0a
#35000
b100 D
1C
1a
#40000
0C
0a
#45000
b101 D
1C
1a
#50000
b0 $$
1x"
b0 }
b0 ,
b0 b
b0 |
b0 w"
b0 O#
b0 "$
b0 #$
0Q"
0R"
b0 z
b0 |#
b0 }#
b0 {
b0 ~#
b0 !$
b0 l"
b0 L#
b0 a#
b0 j"
b0 K#
b0 `#
b10 B#
b10 ""
1C#
1$"
1J#
1n"
b0 v"
b0 &#
b0 y"
b0 s
b0 3"
b0 :$
b0 *"
b0 '#
b0 {"
b0 M"
b10011 S#
b0 ?"
b0 ?#
b0 \#
b0 t"
b0 N#
b0 W#
b0 c#
b0 r"
b0 M#
b0 V#
b0 b#
b0 <"
b0 >#
b0 [#
b0 f"
b0 _#
b10011 ^"
b10011 @#
1E$
14$
b1111 H$
b1111 7$
b1111 P$
b0 D$
b0 0$
b0 N$
b10 <$
b10 )#
b10 ="
b0 6#
b0 h"
b0 P#
b0 v#
b0 3#
b0 d"
b0 ,#
b0 S"
b0 }"
b0 !"
b0 2#
b0 (#
b0 5#
b0 g"
b0 u#
b0 9#
b0 |"
b0 ~
b0 n
b0 1"
b0 9$
b0 !#
b0 -"
b0 .
b0 c
b0 +"
b0 1#
0H"
0L"
0K"
0I"
0J"
b0 ]"
b0 4#
b0 i
b0 A"
b0 8$
b0 3
b0 h
b0 _"
b0 b"
b0 ;#
b0 h#
b0 >"
b0 g#
b0 ;"
b0 %$
b0 o#
b0 e"
b0 U#
b0 t#
b0 s"
b0 x#
b0 s#
b0 q"
b0 w#
b0 n#
b100 c"
b0 ,"
b0 `"
b0 q#
b0 k"
b0 p#
b0 i"
b0 =#
b0 a"
b0 ^#
b10011 <#
b10011 F"
b10011 R#
b0 A
b0 B
b0 ?
b0 =
b0 B$
b0 2
b0 g
b0 T"
b0 p
b0 2"
b0 >$
b0 1
b0 f
b0 E"
b0 G"
b0 :#
b0 j
b0 B"
b0 =$
b0 \$
b0 2$
b0 Q$
b0 !
b0 S
b0 '$
b0 X$
b0 *
b0 `
b0 /$
b0 W$
b0 )
b0 ^
b0 .$
b0 S$
b0 $
b0 V
b0 )$
0_$
0b$
b0 c$
b0 a$
b0 Z$
b100000 Q#
1v
0C
0a
b110010 s$
0I
0w
b110010 L
b1 K
b1010010011001010111001101100101011101000010000001010100011001010111001101110100 i$
#55000
b100000 Q#
b0 D
1C
1a
#60000
0C
0a
#65000
b100000 Q#
1C
1a
#70000
0C
0a
#75000
b100000 Q#
1C
1a
#80000
0C
0a
#85000
b100000 Q#
1C
1a
#90000
0C
0a
#95000
b100000 Q#
1C
1a
#100000
0C
0a
#105000
b100000 Q#
1C
1a
#110000
0C
0a
#115000
b100000 Q#
1C
1a
#120000
0C
0a
#125000
b100000 Q#
1C
1a
#130000
0C
0a
#135000
b100000 Q#
1C
1a
#140000
0C
0a
#145000
b100000 Q#
1C
1a
#150000
0v
0C
0a
1I
1w
#155000
b100 ^$
0E$
04$
b1111 H$
b1111 7$
b1111 P$
1_$
b1111 c$
b10 =$
1e#
1#"
1r#
1m"
b10011 1#
b10011 ]"
b100 2#
b0 )#
b0 ="
b1 D
1C
1a
#160000
0C
0a
#165000
1R$
1#
b100 `$
b100 3#
b100 d"
17#
1o"
b10 D
1C
1a
#170000
0C
0a
#175000
b101 ^$
15
1U
1H
18#
1p"
b11 D
1C
1a
#180000
0C
0a
b0 r$
#185000
b0 ^$
0H
b10010011 9
b10010011 [
b10010011 ,$
b10010011 L$
1;
1]
05
0U
0R$
0#
b101 `$
b10010011 R
b0 Q
b10010011 P
b0 O
b1 r$
b1 G
b1 >
b100 D
b100001101010000010101010010000001100010011001010110001101100001011011010110010100100000011000010110001101110100011010010111011001100101001000000110000101100110011101000110010101110010001000000111001001100101011100110110010101110100 g$
b1010010011001010111001101100101011101000010000001010100011001010111001101110100 h$
1C
1a
#190000
0C
0a
#195000
b0 <$
b0 `$
0_$
1V$
1(
1]$
13$
b10010011 \$
b10010011 2$
0;
0]
b101 D
b10 r$
1C
1a
#200000
0C
0a
#205000
04
0u"
1E$
14$
b1111 H$
b1111 7$
b1111 P$
b10 <$
b10010011 >$
b10010011 1
b10010011 f
b10010011 E"
b10010011 G"
b10010011 :#
b10010011 j
b10010011 B"
1@$
0U"
1l
b0 =$
0]$
03$
0V$
0(
b11 r$
b110 D
1C
1a
#210000
0C
0a
#215000
b100 ^$
14
1u"
b1 f"
b1 _#
b100 D$
b100 0$
b100 N$
0E$
04$
b1111 H$
b1111 7$
b1111 P$
1_$
b10 =$
0@$
1U"
0l
b10010011 <#
b10010011 F"
b10010011 R#
b100 4#
b100 i
b100 A"
b100 8$
b100 3
b100 h
b100 _"
b100 b"
b100 ;#
b111 D
b100 r$
1C
1a
#220000
0C
0a
#225000
1R$
1#
b100 `$
b1 o#
b1 e"
b1 U#
b101 r$
b10 G
b1000 D
1C
1a
#230000
0C
0a
#235000
b101 ^$
15
1U
1H
b1 5#
b1 g"
b1 u#
b110 r$
b11 G
b1001 D
1C
1a
#240000
0C
0a
#245000
b0 ^$
0H
1;
1]
05
0U
0R$
0#
b101 `$
b1 6#
b1 h"
b1 P#
b1 v#
b10010011 P
b111 r$
b100 G
b10 >
b1010 D
1C
1a
#250000
0C
0a
#255000
b0 <$
b0 `$
0_$
1V$
1(
1]$
13$
0;
0]
b1000 r$
b101 G
b1011 D
1C
1a
#260000
0C
0a
