cpu/riscv_core_axi.vcd
$date
	Wed Jan 21 19:11:11 2026
$end
$version
	Icarus Verilog
$end
$timescale
	1ps
$end
$scope module tb_riscv_core_axi $end
$var wire 32 ! M_AXI_ARADDR [31:0] $end
$var wire 3 " M_AXI_ARPROT [2:0] $end
$var wire 1 # M_AXI_ARVALID $end
$var wire 32 $ M_AXI_AWADDR [31:0] $end
$var wire 3 % M_AXI_AWPROT [2:0] $end
$var wire 1 & M_AXI_AWVALID $end
$var wire 1 ' M_AXI_BREADY $end
$var wire 1 ( M_AXI_RREADY $end
$var wire 32 ) M_AXI_WDATA [31:0] $end
$var wire 4 * M_AXI_WSTRB [3:0] $end
$var wire 1 + M_AXI_WVALID $end
$var wire 32 , debug_alu_result [31:0] $end
$var wire 1 - debug_branch_taken $end
$var wire 32 . debug_instr [31:0] $end
$var wire 32 / debug_pc [31:0] $end
$var wire 1 0 debug_stall $end
$var reg 1 1 M_AXI_ARREADY $end
$var reg 1 2 M_AXI_AWREADY $end
$var reg 2 3 M_AXI_BRESP [1:0] $end
$var reg 1 4 M_AXI_BVALID $end
$var reg 32 5 M_AXI_RDATA [31:0] $end
$var reg 2 6 M_AXI_RRESP [1:0] $end
$var reg 1 7 M_AXI_RVALID $end
$var reg 1 8 M_AXI_WREADY $end
$var reg 32 9 axi_ar_addr_latched [31:0] $end
$var reg 32 : axi_aw_addr_latched [31:0] $end
$var integer 32 ; axi_rd_count [31:0] $end
$var reg 1 < axi_rd_pending $end
$var reg 32 = axi_w_data_latched [31:0] $end
$var reg 4 > axi_w_strb_latched [3:0] $end
$var reg 1 ? axi_wr_addr_done $end
$var integer 32 @ axi_wr_count [31:0] $end
$var reg 1 A axi_wr_data_done $end
$var reg 1 B clk $end
$var integer 32 C cycle_count [31:0] $end
$var integer 32 D fail_count [31:0] $end
$var integer 32 E pass_count [31:0] $end
$var reg 1 F rst_n $end
$var reg 256 G test_name [255:0] $end
$var integer 32 H test_num [31:0] $end
$scope function mem_read $end
$var reg 32 I addr [31:0] $end
$var reg 32 J mem_read [31:0] $end
$var reg 32 K word_addr [31:0] $end
$upscope $end
$scope module dut $end
$var wire 32 L M_AXI_ARADDR [31:0] $end
$var wire 3 M M_AXI_ARPROT [2:0] $end
$var wire 1 N M_AXI_ARREADY $end
$var wire 1 # M_AXI_ARVALID $end
$var wire 32 O M_AXI_AWADDR [31:0] $end
$var wire 3 P M_AXI_AWPROT [2:0] $end
$var wire 1 Q M_AXI_AWREADY $end
$var wire 1 & M_AXI_AWVALID $end
$var wire 1 ' M_AXI_BREADY $end
$var wire 2 R M_AXI_BRESP [1:0] $end
$var wire 1 S M_AXI_BVALID $end
$var wire 32 T M_AXI_RDATA [31:0] $end
$var wire 1 ( M_AXI_RREADY $end
$var wire 2 U M_AXI_RRESP [1:0] $end
$var wire 1 V M_AXI_RVALID $end
$var wire 32 W M_AXI_WDATA [31:0] $end
$var wire 1 X M_AXI_WREADY $end
$var wire 4 Y M_AXI_WSTRB [3:0] $end
$var wire 1 + M_AXI_WVALID $end
$var wire 1 Z clk $end
$var wire 32 [ debug_alu_result [31:0] $end
$var wire 1 - debug_branch_taken $end
$var wire 32 \ debug_instruction [31:0] $end
$var wire 32 ] debug_pc [31:0] $end
$var wire 1 0 debug_stall $end
$var wire 32 ^ dmem_addr [31:0] $end
$var wire 32 _ dmem_rdata [31:0] $end
$var wire 1 ` dmem_ready $end
$var wire 1 a dmem_valid $end
$var wire 32 b dmem_wdata [31:0] $end
$var wire 1 c dmem_we $end
$var wire 4 d dmem_wstrb [3:0] $end
$var wire 1 e if_error $end
$var wire 32 f imem_addr [31:0] $end
$var wire 32 g imem_rdata [31:0] $end
$var wire 1 h imem_ready $end
$var wire 1 i imem_valid $end
$var wire 1 j mem_error $end
$var wire 1 k reset $end
$var wire 1 l rst_n $end
$scope module cpu_datapath $end
$var wire 4 m alu_control_ex [3:0] $end
$var wire 4 n alu_control_id [3:0] $end
$var wire 32 o alu_in1 [31:0] $end
$var wire 32 p alu_in2 [31:0] $end
$var wire 32 q alu_result_debug [31:0] $end
$var wire 32 r alu_result_ex [31:0] $end
$var wire 32 s alu_result_mem [31:0] $end
$var wire 32 t alu_result_wb [31:0] $end
$var wire 2 u aluop_id [1:0] $end
$var wire 1 v alusrc_ex $end
$var wire 1 w alusrc_id $end
$var wire 1 x branch_decision $end
$var wire 1 y branch_ex $end
$var wire 1 z branch_id $end
$var wire 1 - branch_taken_debug $end
$var wire 1 { branch_taken_detected $end
$var wire 1 | branch_taken_reg $end
$var wire 32 } branch_target_calc [31:0] $end
$var wire 32 ~ branch_target_debug [31:0] $end
$var wire 32 !" branch_target_pc_based [31:0] $end
$var wire 32 "" branch_target_reg [31:0] $end
$var wire 2 #" byte_size_ex [1:0] $end
$var wire 2 $" byte_size_id [1:0] $end
$var wire 1 Z clock $end
$var wire 32 %" dmem_addr [31:0] $end
$var wire 32 &" dmem_rdata [31:0] $end
$var wire 1 ` dmem_ready $end
$var wire 1 a dmem_valid $end
$var wire 32 '" dmem_wdata [31:0] $end
$var wire 1 c dmem_we $end
$var wire 4 (" dmem_wstrb [3:0] $end
$var wire 1 )" flush_id_ex $end
$var wire 1 *" flush_if_id $end
$var wire 2 +" forward_a [1:0] $end
$var wire 2 ," forward_a_debug [1:0] $end
$var wire 2 -" forward_b [1:0] $end
$var wire 2 ." forward_b_debug [1:0] $end
$var wire 3 /" funct3_ex [2:0] $end
$var wire 3 0" funct3_id [2:0] $end
$var wire 7 1" funct7_ex [6:0] $end
$var wire 7 2" funct7_id [6:0] $end
$var wire 32 3" imem_addr [31:0] $end
$var wire 32 4" imem_rdata [31:0] $end
$var wire 1 h imem_ready $end
$var wire 1 i imem_valid $end
$var wire 32 5" imm_ex [31:0] $end
$var wire 32 6" imm_id [31:0] $end
$var wire 32 7" instruction_current [31:0] $end
$var wire 32 8" instruction_id [31:0] $end
$var wire 32 9" instruction_if [31:0] $end
$var wire 1 :" is_auipc $end
$var wire 1 ;" is_branch $end
$var wire 1 <" is_ecall_id $end
$var wire 1 =" is_jal $end
$var wire 1 >" is_jalr $end
$var wire 1 ?" is_lui $end
$var wire 32 @" jalr_target [31:0] $end
$var wire 32 A" jalr_target_aligned [31:0] $end
$var wire 1 B" jump_ex $end
$var wire 1 C" jump_id $end
$var wire 1 D" jump_wb $end
$var wire 1 E" less_than $end
$var wire 1 F" less_than_u $end
$var wire 32 G" mem_data_wb [31:0] $end
$var wire 32 H" mem_out_debug [31:0] $end
$var wire 1 I" memread_ex $end
$var wire 1 J" memread_id $end
$var wire 1 K" memtoreg_ex $end
$var wire 1 L" memtoreg_id $end
$var wire 1 M" memtoreg_wb $end
$var wire 1 N" memwrite_ex $end
$var wire 1 O" memwrite_id $end
$var wire 7 P" opcode_ex [6:0] $end
$var wire 7 Q" opcode_id [6:0] $end
$var wire 32 R" pc_current [31:0] $end
$var wire 32 S" pc_ex [31:0] $end
$var wire 32 T" pc_id [31:0] $end
$var wire 32 U" pc_if [31:0] $end
$var wire 32 V" pc_plus_4_ex [31:0] $end
$var wire 32 W" pc_plus_4_wb [31:0] $end
$var wire 5 X" rd_ex [4:0] $end
$var wire 5 Y" rd_id [4:0] $end
$var wire 5 Z" rd_mem [4:0] $end
$var wire 5 [" rd_wb [4:0] $end
$var wire 32 \" read_data1_ex [31:0] $end
$var wire 32 ]" read_data1_id [31:0] $end
$var wire 32 ^" read_data2_ex [31:0] $end
$var wire 32 _" read_data2_id [31:0] $end
$var wire 1 `" regwrite_ex $end
$var wire 1 a" regwrite_id $end
$var wire 1 b" regwrite_mem $end
$var wire 1 c" regwrite_wb $end
$var wire 1 k reset $end
$var wire 5 d" rs1_ex [4:0] $end
$var wire 5 e" rs1_id [4:0] $end
$var wire 5 f" rs2_ex [4:0] $end
$var wire 5 g" rs2_id [4:0] $end
$var wire 1 h" sign_ext $end
$var wire 1 i" stall $end
$var wire 1 0 stall_debug $end
$var wire 1 j" stall_with_halt $end
$var wire 32 k" wb_data_temp [31:0] $end
$var wire 32 l" write_data_wb [31:0] $end
$var wire 1 m" zero_flag $end
$var reg 4 n" alu_control_ex_reg [3:0] $end
$var reg 32 o" alu_in1_forwarded [31:0] $end
$var reg 32 p" alu_result_mem_reg [31:0] $end
$var reg 32 q" alu_result_wb_reg [31:0] $end
$var reg 2 r" byte_size_ex_reg [1:0] $end
$var reg 2 s" byte_size_mem [1:0] $end
$var reg 32 t" forwarded_data2 [31:0] $end
$var reg 3 u" funct3_mem [2:0] $end
$var reg 1 v" halt $end
$var reg 1 w" jump_mem $end
$var reg 1 x" jump_wb_reg $end
$var reg 32 y" mem_data_wb_reg [31:0] $end
$var reg 32 z" mem_read_data [31:0] $end
$var reg 1 {" memread_mem $end
$var reg 1 |" memtoreg_mem $end
$var reg 1 }" memtoreg_wb_reg $end
$var reg 1 ~" memwrite_mem $end
$var reg 7 !# opcode_ex_reg [6:0] $end
$var reg 32 "# pc_plus_4_mem [31:0] $end
$var reg 32 ## pc_plus_4_wb_reg [31:0] $end
$var reg 5 $# rd_mem_reg [4:0] $end
$var reg 5 %# rd_wb_reg [4:0] $end
$var reg 1 &# regwrite_mem_reg $end
$var reg 1 '# regwrite_wb_reg $end
$var reg 32 (# wdata_aligned [31:0] $end
$var reg 32 )# write_data_mem [31:0] $end
$var reg 4 *# wstrb [3:0] $end
$scope module ifu $end
$var wire 1 Z clock $end
$var wire 32 +# imem_rdata [31:0] $end
$var wire 1 h imem_ready $end
$var wire 32 ,# next_pc [31:0] $end
$var wire 1 | pc_src $end
$var wire 1 k reset $end
$var wire 1 j" stall $end
$var wire 32 -# target_pc [31:0] $end
$var reg 32 .# Instruction_Code [31:0] $end
$var reg 32 /# PC [31:0] $end
$var reg 32 0# PC_current_instr [31:0] $end
$var reg 32 1# PC_out [31:0] $end
$var reg 32 2# imem_addr [31:0] $end
$var reg 1 3# imem_valid $end
$upscope $end
$scope module if_id_reg $end
$var wire 1 Z clock $end
$var wire 1 *" flush $end
$var wire 32 4# instr_in [31:0] $end
$var wire 32 5# pc_in [31:0] $end
$var wire 1 k reset $end
$var wire 1 i" stall $end
$var reg 32 6# instr_out [31:0] $end
$var reg 32 7# pc_out [31:0] $end
$upscope $end
$scope module control_unit $end
$var wire 3 8# funct3 [2:0] $end
$var wire 7 9# funct7 [6:0] $end
$var wire 7 :# opcode [6:0] $end
$var reg 4 ;# alu_control [3:0] $end
$var reg 2 <# aluop [1:0] $end
$var reg 1 =# alusrc $end
$var reg 1 ># branch $end
$var reg 2 ?# byte_size [1:0] $end
$var reg 1 @# jump $end
$var reg 1 A# memread $end
$var reg 1 B# memtoreg $end
$var reg 1 C# memwrite $end
$var reg 1 D# regwrite $end
$upscope $end
$scope module register_file $end
$var wire 1 Z clock $end
$var wire 32 E# read_data1 [31:0] $end
$var wire 32 F# read_data2 [31:0] $end
$var wire 5 G# read_reg_num1 [4:0] $end
$var wire 5 H# read_reg_num2 [4:0] $end
$var wire 1 c" regwrite $end
$var wire 1 k reset $end
$var wire 32 I# write_data [31:0] $end
$var wire 5 J# write_reg [4:0] $end
$var integer 32 K# i [31:0] $end
$upscope $end
$scope module immediate_gen $end
$var wire 32 L# instr [31:0] $end
$var wire 7 M# opcode [6:0] $end
$var reg 32 N# imm [31:0] $end
$upscope $end
$scope module hazard_unit $end
$var wire 1 { branch_taken $end
$var wire 1 I" memread_id_ex $end
$var wire 5 O# rd_id_ex [4:0] $end
$var wire 5 P# rs1_id [4:0] $end
$var wire 5 Q# rs2_id [4:0] $end
$var reg 1 R# flush_id_ex $end
$var reg 1 S# flush_if_id $end
$var reg 1 T# stall $end
$upscope $end
$scope module id_ex_reg $end
$var wire 1 w alusrc_in $end
$var wire 1 z branch_in $end
$var wire 1 Z clock $end
$var wire 1 )" flush $end
$var wire 3 U# funct3_in [2:0] $end
$var wire 7 V# funct7_in [6:0] $end
$var wire 32 W# imm_in [31:0] $end
$var wire 1 C" jump_in $end
$var wire 1 J" memread_in $end
$var wire 1 L" memtoreg_in $end
$var wire 1 O" memwrite_in $end
$var wire 32 X# pc_in [31:0] $end
$var wire 5 Y# rd_in [4:0] $end
$var wire 32 Z# read_data1_in [31:0] $end
$var wire 32 [# read_data2_in [31:0] $end
$var wire 1 a" regwrite_in $end
$var wire 1 k reset $end
$var wire 5 \# rs1_in [4:0] $end
$var wire 5 ]# rs2_in [4:0] $end
$var wire 1 ^# stall $end
$var reg 1 _# alusrc_out $end
$var reg 1 `# branch_out $end
$var reg 3 a# funct3_out [2:0] $end
$var reg 7 b# funct7_out [6:0] $end
$var reg 32 c# imm_out [31:0] $end
$var reg 1 d# jump_out $end
$var reg 1 e# memread_out $end
$var reg 1 f# memtoreg_out $end
$var reg 1 g# memwrite_out $end
$var reg 32 h# pc_out [31:0] $end
$var reg 5 i# rd_out [4:0] $end
$var reg 32 j# read_data1_out [31:0] $end
$var reg 32 k# read_data2_out [31:0] $end
$var reg 1 l# regwrite_out $end
$var reg 5 m# rs1_out [4:0] $end
$var reg 5 n# rs2_out [4:0] $end
$upscope $end
$scope module forward_unit $end
$var wire 5 o# rd_mem [4:0] $end
$var wire 5 p# rd_wb [4:0] $end
$var wire 1 b" regwrite_mem $end
$var wire 1 c" regwrite_wb $end
$var wire 5 q# rs1_ex [4:0] $end
$var wire 5 r# rs2_ex [4:0] $end
$var reg 2 s# forward_a [1:0] $end
$var reg 2 t# forward_b [1:0] $end
$upscope $end
$scope module alu_unit $end
$var wire 4 u# alu_control [3:0] $end
$var wire 32 v# in1 [31:0] $end
$var wire 32 w# in1_signed [31:0] $end
$var wire 32 x# in2 [31:0] $end
$var wire 32 y# in2_signed [31:0] $end
$var wire 1 E" less_than $end
$var wire 1 F" less_than_u $end
$var wire 64 z# mul_result_signed [63:0] $end
$var wire 64 {# mul_result_unsigned [63:0] $end
$var wire 1 m" zero_flag $end
$var reg 32 |# alu_result [31:0] $end
$upscope $end
$scope module branch_unit $end
$var wire 1 y branch $end
$var wire 3 }# funct3 [2:0] $end
$var wire 1 E" less_than $end
$var wire 1 F" less_than_u $end
$var wire 1 m" zero_flag $end
$var reg 1 ~# taken $end
$upscope $end
$upscope $end
$scope module mem_arbiter $end
$var wire 32 !$ M_AXI_ARADDR [31:0] $end
$var wire 3 "$ M_AXI_ARPROT [2:0] $end
$var wire 1 N M_AXI_ARREADY $end
$var wire 1 # M_AXI_ARVALID $end
$var wire 32 #$ M_AXI_AWADDR [31:0] $end
$var wire 3 $$ M_AXI_AWPROT [2:0] $end
$var wire 1 Q M_AXI_AWREADY $end
$var wire 1 & M_AXI_AWVALID $end
$var wire 1 ' M_AXI_BREADY $end
$var wire 2 %$ M_AXI_BRESP [1:0] $end
$var wire 1 S M_AXI_BVALID $end
$var wire 32 &$ M_AXI_RDATA [31:0] $end
$var wire 1 ( M_AXI_RREADY $end
$var wire 2 '$ M_AXI_RRESP [1:0] $end
$var wire 1 V M_AXI_RVALID $end
$var wire 32 ($ M_AXI_WDATA [31:0] $end
$var wire 1 X M_AXI_WREADY $end
$var wire 4 )$ M_AXI_WSTRB [3:0] $end
$var wire 1 + M_AXI_WVALID $end
$var wire 32 *$ axi_cpu_addr [31:0] $end
$var wire 1 +$ axi_cpu_error $end
$var wire 32 ,$ axi_cpu_rdata [31:0] $end
$var wire 1 -$ axi_cpu_ready $end
$var wire 1 .$ axi_cpu_req $end
$var wire 32 /$ axi_cpu_wdata [31:0] $end
$var wire 1 0$ axi_cpu_wr $end
$var wire 4 1$ axi_cpu_wstrb [3:0] $end
$var wire 1 Z clk $end
$var wire 32 2$ if_addr [31:0] $end
$var wire 1 i if_req $end
$var wire 32 3$ mem_addr [31:0] $end
$var wire 1 a mem_req $end
$var wire 32 4$ mem_wdata [31:0] $end
$var wire 1 c mem_wr $end
$var wire 4 5$ mem_wstrb [3:0] $end
$var wire 1 l rst_n $end
$var reg 2 6$ arb_next [1:0] $end
$var reg 2 7$ arb_state [1:0] $end
$var reg 32 8$ if_data [31:0] $end
$var reg 1 9$ if_error $end
$var reg 1 :$ if_ready $end
$var reg 1 ;$ mem_error $end
$var reg 32 <$ mem_rdata [31:0] $end
$var reg 1 =$ mem_ready $end
$var reg 32 >$ mux_addr [31:0] $end
$var reg 1 ?$ mux_req $end
$var reg 32 @$ mux_wdata [31:0] $end
$var reg 1 A$ mux_wr $end
$var reg 4 B$ mux_wstrb [3:0] $end
$scope module axi_master $end
$var wire 3 C$ M_AXI_ARPROT [2:0] $end
$var wire 1 N M_AXI_ARREADY $end
$var wire 3 D$ M_AXI_AWPROT [2:0] $end
$var wire 1 Q M_AXI_AWREADY $end
$var wire 2 E$ M_AXI_BRESP [1:0] $end
$var wire 1 S M_AXI_BVALID $end
$var wire 32 F$ M_AXI_RDATA [31:0] $end
$var wire 2 G$ M_AXI_RRESP [1:0] $end
$var wire 1 V M_AXI_RVALID $end
$var wire 1 X M_AXI_WREADY $end
$var wire 1 Z clk $end
$var wire 32 H$ cpu_addr [31:0] $end
$var wire 1 .$ cpu_req $end
$var wire 32 I$ cpu_wdata [31:0] $end
$var wire 1 0$ cpu_wr $end
$var wire 4 J$ cpu_wstrb [3:0] $end
$var wire 1 l rst_n $end
$var reg 32 K$ M_AXI_ARADDR [31:0] $end
$var reg 1 L$ M_AXI_ARVALID $end
$var reg 32 M$ M_AXI_AWADDR [31:0] $end
$var reg 1 N$ M_AXI_AWVALID $end
$var reg 1 O$ M_AXI_BREADY $end
$var reg 1 P$ M_AXI_RREADY $end
$var reg 32 Q$ M_AXI_WDATA [31:0] $end
$var reg 4 R$ M_AXI_WSTRB [3:0] $end
$var reg 1 S$ M_AXI_WVALID $end
$var reg 32 T$ addr_reg [31:0] $end
$var reg 1 U$ cpu_error $end
$var reg 32 V$ cpu_rdata [31:0] $end
$var reg 1 W$ cpu_ready $end
$var reg 3 X$ next_state [2:0] $end
$var reg 1 Y$ req_pending $end
$var reg 3 Z$ state [2:0] $end
$var reg 32 [$ wdata_reg [31:0] $end
$var reg 1 \$ wr_reg $end
$var reg 4 ]$ wstrb_reg [3:0] $end
$upscope $end
$upscope $end
$upscope $end
$scope task apply_reset $end
$upscope $end
$scope task fail_test $end
$var reg 256 ^$ msg [255:0] $end
$upscope $end
$scope task load_memory_test_program $end
$var integer 32 _$ i [31:0] $end
$upscope $end
$scope task load_program $end
$var integer 32 `$ i [31:0] $end
$upscope $end
$scope task mem_write $end
$var reg 32 a$ addr [31:0] $end
$var reg 32 b$ data [31:0] $end
$var reg 32 c$ new_data [31:0] $end
$var reg 32 d$ old_data [31:0] $end
$var reg 4 e$ strb [3:0] $end
$var reg 32 f$ word_addr [31:0] $end
$upscope $end
$scope task pass_test $end
$var reg 256 g$ msg [255:0] $end
$upscope $end
$scope task start_test $end
$var reg 256 h$ name [255:0] $end
$upscope $end
$scope task test_alu_operations $end
$upscope $end
$scope task test_axi_protocol $end
$var integer 32 i$ i [31:0] $end
$var reg 1 j$ protocol_error $end
$upscope $end
$scope task test_instruction_fetch $end
$var integer 32 k$ fetch_count [31:0] $end
$var integer 32 l$ i [31:0] $end
$upscope $end
$scope task test_memory_operations $end
$var integer 32 m$ i [31:0] $end
$var reg 32 n$ load_addr [31:0] $end
$var integer 32 o$ load_detected [31:0] $end
$var reg 32 p$ store_addr [31:0] $end
$var integer 32 q$ store_detected [31:0] $end
$upscope $end
$scope task test_reset $end
$var reg 32 r$ pc_at_reset [31:0] $end
$upscope $end
$scope task wait_cycles $end
$var integer 32 s$ i [31:0] $end
$var integer 32 t$ n [31:0] $end
$upscope $end
$upscope $end
$enddefinitions $end
#0
$dumpvars
b101 t$
b0 s$
bx r$
bx q$
bx p$
bx o$
bx n$
bx m$
bx l$
bx k$
xj$
bx i$
bx h$
bx g$
bx f$
bx e$
bx d$
bx c$
bx b$
bx a$
bx `$
bx _$
bx ^$
bx ]$
x\$
bx [$
bx Z$
xY$
b0 X$
xW$
bx V$
xU$
bx T$
xS$
bx R$
bx Q$
xP$
xO$
xN$
bx M$
xL$
bx K$
b0 J$
b0 I$
b0 H$
b0 G$
b0 F$
b0 E$
b0 D$
b0 C$
b0 B$
0A$
b0 @$
0?$
b0 >$
x=$
bx <$
x;$
x:$
x9$
bx 8$
bx 7$
b0 6$
bx 5$
bx 4$
bx 3$
bx 2$
b0 1$
00$
b0 /$
0.$
x-$
bx ,$
x+$
b0 *$
bx )$
bx ($
b0 '$
b0 &$
b0 %$
b0 $$
bx #$
b0 "$
bx !$
0~#
bx }#
b0 |#
bx {#
bx z#
bx y#
bx x#
bx w#
bx v#
bx u#
bx t#
bx s#
bx r#
bx q#
bx p#
bx o#
bx n#
bx m#
xl#
bx k#
bx j#
bx i#
bx h#
xg#
xf#
xe#
xd#
bx c#
bx b#
bx a#
x`#
x_#
0^#
bx ]#
bx \#
bx [#
bx Z#
bx Y#
bx X#
b0 W#
bx V#
bx U#
0T#
0S#
0R#
bx Q#
bx P#
bx O#
b0 N#
bx M#
bx L#
bx K#
bx J#
bx I#
bx H#
bx G#
bx F#
bx E#
0D#
0C#
0B#
0A#
0@#
b10 ?#
0>#
0=#
b0 <#
b0 ;#
bx :#
bx 9#
bx 8#
bx 7#
bx 6#
bx 5#
bx 4#
x3#
bx 2#
bx 1#
bx 0#
bx /#
bx .#
bx -#
bx ,#
bx +#
bx *#
bx )#
bx (#
x'#
x&#
bx %#
bx $#
bx ##
bx "#
bx !#
x~"
x}"
x|"
x{"
bx z"
bx y"
xx"
xw"
xv"
bx u"
bx t"
bx s"
bx r"
bx q"
bx p"
bx o"
bx n"
1m"
bx l"
bx k"
xj"
0i"
xh"
bx g"
bx f"
bx e"
bx d"
xc"
xb"
0a"
x`"
bx _"
bx ^"
bx ]"
bx \"
bx ["
bx Z"
bx Y"
bx X"
bx W"
bx V"
bx U"
bx T"
bx S"
bx R"
bx Q"
bx P"
0O"
xN"
xM"
0L"
xK"
0J"
xI"
bx H"
bx G"
xF"
xE"
xD"
0C"
xB"
bx0 A"
bx @"
x?"
x>"
x="
x<"
x;"
x:"
bx 9"
bx 8"
bx 7"
b0 6"
bx 5"
bx 4"
bx 3"
bx 2"
bx 1"
bx 0"
bx /"
bx ."
bx -"
bx ,"
bx +"
0*"
0)"
bx ("
bx '"
bx &"
bx %"
b10 $"
bx #"
bx ""
bx !"
bx ~
bx }
x|
x{
0z
xy
0x
0w
xv
b0 u
bx t
bx s
b0 r
b0 q
bx p
bx o
b0 n
bx m
1l
0k
xj
xi
xh
bx g
bx f
xe
bx d
xc
bx b
xa
x`
bx _
bx ^
bx ]
bx \
b0 [
0Z
bx Y
0X
bx W
0V
b0 U
b0 T
0S
b0 R
0Q
b0 P
bx O
0N
b0 M
bx L
bx K
bx J
bx I
b0 H
bx G
1F
b0 E
b0 D
b0 C
0B
0A
b0 @
0?
bx >
bx =
0<
b0 ;
bx :
bx 9
08
07
b0 6
b0 5
04
b0 3
02
01
00
bx /
bx .
x-
b0 ,
x+
bx *
bx )
x(
x'
x&
b0 %
bx $
x#
b0 "
bx !
$end
#5000
0{
0-
0|
bx |#
xm"
bx r
bx ,
bx [
bx q
b1111 *#
b1111 d
b1111 ("
b1111 5$
b0 Z$
0N$
0&
0S$
0+
0O$
0'
0L$
0#
0P$
0(
0W$
0-$
0U$
0+$
b0 7$
b0 c#
b0 5"
0d#
0B"
0`#
0y
0f#
0K"
0g#
0N"
0e#
0I"
0_#
0v
0l#
0`"
b10 r"
b10 #"
b0 n"
b0 m
b0 u#
b0 p"
b0 s
b0 ^
b0 %"
b0 3$
b1 C
b1 s$
1B
1Z
#10000
0B
0Z
#15000
0a
b0 t#
b0 -"
b0 ."
b0 s#
b0 +"
b0 ,"
0;$
0j
0=$
0`
09$
0e
0:$
0h
b0 q"
b0 t
0w"
b10 s"
bx p"
bx s
bx ^
bx %"
bx 3$
0|"
0{"
0~"
0c
0&#
0b"
b10 C
b10 s$
1B
1Z
#20000
0B
0Z
#25000
bx q"
bx t
0x"
0D"
0}"
0M"
0'#
0c"
b11 C
b11 s$
1B
1Z
#30000
0B
0Z
#35000
b100 C
b100 s$
1B
1Z
#40000
0B
0Z
#45000
b0 |#
1m"
b0 r
b0 ,
b0 [
b0 q
b0 l"
b0 I#
b0 z#
b0 {#
0E"
0F"
b0 o
b0 v#
b0 w#
b0 p
b0 x#
b0 y#
b0 A"
b0 _"
b0 F#
b0 [#
b0 ]"
b0 E#
b0 Z#
b10 <#
b10 u
1=#
1w
1D#
1a"
b10 6$
b100 ,#
b0 k"
1h"
b0 (#
b0 b
b0 '"
b0 4$
1?$
1.$
b1111 B$
b1111 1$
b1111 J$
0j"
b0 }
b0 ~
b0 ""
b0 -#
b0 t"
b0 o"
b0 @"
b10011 M#
b0 2"
b0 9#
b0 V#
b0 g"
b0 H#
b0 Q#
b0 ]#
b0 e"
b0 G#
b0 P#
b0 \#
b0 0"
b0 8#
b0 U#
b0 Y"
b0 Y#
b10011 Q"
b10011 :#
b0 1#
b0 U"
b0 5#
b0 /
b0 ]
b0 R"
13#
1i
b0 2#
b0 f
b0 3"
b0 2$
b0 z"
b0 H"
b0 %#
b0 ["
b0 J#
b0 p#
b0 ##
b0 W"
b0 y"
b0 G"
b0 q"
b0 t
b0 "#
b0 u"
b0 $#
b0 Z"
b0 o#
b0 )#
b0 p"
b0 s
b0 ^
b0 %"
b0 3$
b0 !#
0:"
0?"
0>"
0;"
0="
b0 P"
0v"
b0 b#
b0 1"
b0 a#
b0 /"
b0 }#
b0 i#
b0 X"
b0 O#
b0 n#
b0 f"
b0 r#
b0 m#
b0 d"
b0 q#
b0 h#
b100 V"
b0 !"
b0 S"
b0 k#
b0 ^"
b0 j#
b0 \"
b0 7#
b0 T"
b0 X#
b10011 6#
0<"
b10011 8"
b10011 L#
b10011 .#
b10011 9"
b10011 4#
b10011 .
b10011 \
b10011 7"
b0 0#
b0 /#
0Y$
0\$
b0 ]$
b0 [$
b0 T$
b0 M$
b0 $
b0 O
b0 #$
b0 R$
b0 *
b0 Y
b0 )$
b0 Q$
b0 )
b0 W
b0 ($
b0 K$
b0 !
b0 L
b0 !$
b0 V$
b0 ,$
b0 8$
b0 g
b0 4"
b0 +#
b0 <$
b0 _
b0 &"
b0 9
b0 :
b0 >
b0 =
b101 C
b100000 K#
1k
b1010 t$
0F
0l
b1010010011001010111001101100101011101000010000001000110011101010110111001100011011101000110100101101111011011100110000101101100011010010111010001111001 G
b1 H
b1010010011001010111001101100101011101000010000001000110011101010110111001100011011101000110100101101111011011100110000101101100011010010111010001111001 h$
b0 s$
1B
1Z
#50000
0B
0Z
#55000
b100000 K#
b1 s$
1B
1Z
#60000
0B
0Z
#65000
b100000 K#
b10 s$
1B
1Z
#70000
0B
0Z
#75000
b100000 K#
b11 s$
1B
1Z
#80000
0B
0Z
#85000
b100000 K#
b100 s$
1B
1Z
#90000
0B
0Z
#95000
b100000 K#
b101 s$
1B
1Z
#100000
0B
0Z
#105000
b100000 K#
b110 s$
1B
1Z
#110000
0B
0Z
#115000
b100000 K#
b111 s$
1B
1Z
#120000
0B
0Z
#125000
b100000 K#
b1000 s$
1B
1Z
#130000
0B
0Z
#135000
b100000 K#
b1001 s$
1B
1Z
#140000
0B
0Z
#145000
b100000 K#
b1010 s$
1B
1Z
#150000
0B
0Z
#155000
0?$
0.$
b1111 B$
b1111 1$
b1111 J$
b100 X$
b10 7$
1Y$
b1111 ]$
b110 C
0k
b100000 K#
b0 s$
b1 t$
1F
1l
b0 r$
1B
1Z
#160000
0B
0Z
#165000
b0 X$
1?$
1.$
b1111 B$
b1111 1$
b1111 J$
b10 6$
0Y$
b0 ]$
b0 7$
b0 "#
b0 !#
b0 P"
0_#
0v
0l#
0`"
b10011 .#
b10011 9"
b10011 4#
b10011 .
b10011 \
b10011 7"
b0 /#
b111 C
b100000 K#
1k
b1010 t$
0F
0l
b1001001011011100111001101110100011100100111010101100011011101000110100101101111011011100010000001000110011001010111010001100011011010000010000001110110011010010110000100100000010000010101100001001001 G
b10 H
b1001001011011100111001101110100011100100111010101100011011101000110100101101111011011100010000001000110011001010111010001100011011010000010000001110110011010010110000100100000010000010101100001001001 h$
b1 E
b110010101110100001000000110001101101111011011010111000001101100011001010111010001100101011001000010000000101101001000000101000001000011001000000110100101101110001000000111011001100001011011000110100101100100001000000111001001100001011011100110011101100101 g$
b0 s$
1B
1Z
#170000
0B
0Z
#175000
b100000 K#
b1 s$
1B
1Z
#180000
0B
0Z
#185000
b100000 K#
b10 s$
1B
1Z
#190000
0B
0Z
#195000
b100000 K#
b11 s$
1B
1Z
#200000
0B
0Z
#205000
b100000 K#
b100 s$
1B
1Z
#210000
0B
0Z
#215000
b100000 K#
b101 s$
1B
1Z
#220000
0B
0Z
#225000
b100000 K#
b110 s$
1B
1Z
#230000
0B
0Z
#235000
b100000 K#
b111 s$
1B
1Z
#240000
0B
0Z
#245000
b100000 K#
b1000 s$
1B
1Z
#250000
0B
0Z
#255000
b100000 K#
b1001 s$
1B
1Z
#260000
0B
0Z
#265000
b100 X$
0?$
0.$
b1111 B$
b1111 1$
b1111 J$
1Y$
b1111 ]$
b10 7$
0k
b100000 K#
b10 t$
1F
1l
b0 s$
1B
1Z
#270000
0B
0Z
#275000
b100 >$
b100 *$
b100 H$
b1111 B$
b1111 1$
b1111 J$
b1000 ,#
b100 2#
b100 f
b100 3"
b100 2$
1L$
1#
b100 Z$
b100 "#
b10011 !#
b10011 P"
1_#
1v
1l#
1`"
b0 .#
b0 9"
b0 4#
b0 .
b0 \
b0 7"
b100 /#
b1000 C
b1 s$
1B
1Z
#280000
0B
0Z
