cpu/riscv_cpu.vcd
$date
	Sun Jan 25 19:14:02 2026
$end
$version
	Icarus Verilog
$end
$timescale
	1ps
$end
$scope module riscv_cpu_tb $end
$var wire 32 ! dmem_addr [31:0] $end
$var wire 1 " dmem_valid $end
$var wire 32 # dmem_wdata [31:0] $end
$var wire 1 $ dmem_we $end
$var wire 4 % dmem_wstrb [3:0] $end
$var wire 32 & imem_addr [31:0] $end
$var wire 1 ' imem_valid $end
$var reg 1 ( clk $end
$var integer 32 ) cycle_count [31:0] $end
$var reg 32 * dmem_rdata [31:0] $end
$var reg 1 + dmem_ready $end
$var integer 32 , i [31:0] $end
$var reg 32 - imem_rdata [31:0] $end
$var reg 1 . imem_ready $end
$var reg 1 / rst $end
$var integer 32 0 test_num [31:0] $end
$scope module dut $end
$var wire 4 1 alu_control_ex [3:0] $end
$var wire 4 2 alu_control_id [3:0] $end
$var wire 32 3 alu_in1 [31:0] $end
$var wire 32 4 alu_in1_forwarded [31:0] $end
$var wire 32 5 alu_in2 [31:0] $end
$var wire 32 6 alu_in2_imm [31:0] $end
$var wire 32 7 alu_in2_pre_mux [31:0] $end
$var wire 32 8 alu_result_ex [31:0] $end
$var wire 32 9 alu_result_mem [31:0] $end
$var wire 32 : alu_result_wb [31:0] $end
$var wire 1 ; alusrc_ex $end
$var wire 1 < alusrc_id $end
$var wire 1 = branch_ex $end
$var wire 1 > branch_id $end
$var wire 1 ? branch_taken_ex $end
$var wire 32 @ branch_target [31:0] $end
$var wire 2 A byte_size_ex [1:0] $end
$var wire 2 B byte_size_id [1:0] $end
$var wire 2 C byte_size_mem [1:0] $end
$var wire 1 D clk $end
$var wire 32 E dmem_addr [31:0] $end
$var wire 32 F dmem_rdata [31:0] $end
$var wire 1 G dmem_ready $end
$var wire 1 " dmem_valid $end
$var wire 32 H dmem_wdata [31:0] $end
$var wire 1 $ dmem_we $end
$var wire 4 I dmem_wstrb [3:0] $end
$var wire 1 J flush_id_ex $end
$var wire 1 K flush_if_id $end
$var wire 2 L forward_a [1:0] $end
$var wire 2 M forward_b [1:0] $end
$var wire 3 N funct3_ex [2:0] $end
$var wire 3 O funct3_id [2:0] $end
$var wire 3 P funct3_mem [2:0] $end
$var wire 7 Q funct7_ex [6:0] $end
$var wire 7 R funct7_id [6:0] $end
$var wire 32 S imem_addr [31:0] $end
$var wire 32 T imem_rdata [31:0] $end
$var wire 1 U imem_ready $end
$var wire 1 ' imem_valid $end
$var wire 32 V imm_ex [31:0] $end
$var wire 32 W imm_id [31:0] $end
$var wire 32 X instr_id [31:0] $end
$var wire 32 Y instr_if [31:0] $end
$var wire 32 Z jal_target [31:0] $end
$var wire 32 [ jalr_target [31:0] $end
$var wire 1 \ jump_ex $end
$var wire 1 ] jump_id $end
$var wire 1 ^ jump_mem $end
$var wire 1 _ jump_wb $end
$var wire 1 ` less_than_ex $end
$var wire 1 a less_than_u_ex $end
$var wire 32 b mem_data_wb [31:0] $end
$var wire 32 c mem_read_data_extended [31:0] $end
$var wire 1 d memread_ex $end
$var wire 1 e memread_id $end
$var wire 1 f memread_mem $end
$var wire 1 g memtoreg_ex $end
$var wire 1 h memtoreg_id $end
$var wire 1 i memtoreg_mem $end
$var wire 1 j memtoreg_wb $end
$var wire 1 k memwrite_ex $end
$var wire 1 l memwrite_id $end
$var wire 1 m memwrite_mem $end
$var wire 7 n opcode_ex [6:0] $end
$var wire 7 o opcode_id [6:0] $end
$var wire 32 p pc_ex [31:0] $end
$var wire 32 q pc_id [31:0] $end
$var wire 32 r pc_if [31:0] $end
$var wire 32 s pc_plus_4_ex [31:0] $end
$var wire 32 t pc_plus_4_mem [31:0] $end
$var wire 32 u pc_plus_4_wb [31:0] $end
$var wire 1 v pc_src_ex $end
$var wire 5 w rd_ex [4:0] $end
$var wire 5 x rd_id [4:0] $end
$var wire 5 y rd_mem [4:0] $end
$var wire 5 z rd_wb [4:0] $end
$var wire 32 { read_data1_ex [31:0] $end
$var wire 32 | read_data1_id [31:0] $end
$var wire 32 } read_data2_ex [31:0] $end
$var wire 32 ~ read_data2_id [31:0] $end
$var wire 1 !" regwrite_ex $end
$var wire 1 "" regwrite_id $end
$var wire 1 #" regwrite_mem $end
$var wire 1 $" regwrite_wb $end
$var wire 5 %" rs1_ex [4:0] $end
$var wire 5 &" rs1_id [4:0] $end
$var wire 5 '" rs2_ex [4:0] $end
$var wire 5 (" rs2_id [4:0] $end
$var wire 1 )" rst $end
$var wire 1 *" stall $end
$var wire 32 +" target_pc_ex [31:0] $end
$var wire 32 ," wb_data_before_jump [31:0] $end
$var wire 32 -" write_back_data_wb [31:0] $end
$var wire 32 ." write_data_mem [31:0] $end
$var wire 1 /" zero_flag_ex $end
$var reg 4 0" alu_control_id_ex [3:0] $end
$var reg 32 1" alu_result_ex_mem [31:0] $end
$var reg 32 2" alu_result_mem_wb [31:0] $end
$var reg 1 3" alusrc_id_ex $end
$var reg 1 4" branch_id_ex $end
$var reg 2 5" byte_size_ex_mem [1:0] $end
$var reg 2 6" byte_size_id_ex [1:0] $end
$var reg 4 7" dmem_wstrb_reg [3:0] $end
$var reg 3 8" funct3_ex_mem [2:0] $end
$var reg 3 9" funct3_id_ex [2:0] $end
$var reg 7 :" funct7_id_ex [6:0] $end
$var reg 32 ;" imm_id_ex [31:0] $end
$var reg 1 <" jump_ex_mem $end
$var reg 1 =" jump_id_ex $end
$var reg 1 >" jump_mem_snapshot $end
$var reg 1 ?" jump_mem_wb $end
$var reg 32 @" mem_data_mem_wb [31:0] $end
$var reg 32 A" mem_read_extended [31:0] $end
$var reg 1 B" mem_req_pending $end
$var reg 1 C" memread_ex_mem $end
$var reg 1 D" memread_id_ex $end
$var reg 1 E" memtoreg_ex_mem $end
$var reg 1 F" memtoreg_id_ex $end
$var reg 1 G" memtoreg_mem_snapshot $end
$var reg 1 H" memtoreg_mem_wb $end
$var reg 1 I" memwrite_ex_mem $end
$var reg 1 J" memwrite_id_ex $end
$var reg 7 K" opcode_id_ex [6:0] $end
$var reg 32 L" pc_id_ex [31:0] $end
$var reg 32 M" pc_plus_4_ex_mem [31:0] $end
$var reg 32 N" pc_plus_4_mem_wb [31:0] $end
$var reg 5 O" rd_ex_mem [4:0] $end
$var reg 5 P" rd_id_ex [4:0] $end
$var reg 5 Q" rd_mem_snapshot [4:0] $end
$var reg 5 R" rd_mem_wb [4:0] $end
$var reg 32 S" read_data1_id_ex [31:0] $end
$var reg 32 T" read_data2_id_ex [31:0] $end
$var reg 1 U" regwrite_ex_mem $end
$var reg 1 V" regwrite_id_ex $end
$var reg 1 W" regwrite_mem_snapshot $end
$var reg 1 X" regwrite_mem_wb $end
$var reg 5 Y" rs1_id_ex [4:0] $end
$var reg 5 Z" rs2_id_ex [4:0] $end
$var reg 1 [" wb_done $end
$var reg 32 \" write_data_ex_mem [31:0] $end
$scope module instruction_fetch $end
$var wire 1 D clock $end
$var wire 32 ]" imem_rdata [31:0] $end
$var wire 1 U imem_ready $end
$var wire 32 ^" next_pc [31:0] $end
$var wire 1 v pc_src $end
$var wire 1 )" reset $end
$var wire 1 *" stall $end
$var wire 32 _" target_pc [31:0] $end
$var reg 32 `" Instruction_Code [31:0] $end
$var reg 32 a" PC [31:0] $end
$var reg 32 b" PC_out [31:0] $end
$var reg 32 c" imem_addr [31:0] $end
$var reg 1 d" imem_valid $end
$upscope $end
$scope module if_id_reg $end
$var wire 1 D clock $end
$var wire 1 K flush $end
$var wire 32 e" instr_in [31:0] $end
$var wire 32 f" pc_in [31:0] $end
$var wire 1 )" reset $end
$var wire 1 *" stall $end
$var reg 32 g" instr_out [31:0] $end
$var reg 32 h" pc_out [31:0] $end
$upscope $end
$scope module control_unit $end
$var wire 3 i" funct3 [2:0] $end
$var wire 7 j" funct7 [6:0] $end
$var wire 7 k" opcode [6:0] $end
$var reg 4 l" alu_control [3:0] $end
$var reg 2 m" aluop [1:0] $end
$var reg 1 n" alusrc $end
$var reg 1 o" branch $end
$var reg 2 p" byte_size [1:0] $end
$var reg 1 q" jump $end
$var reg 1 r" memread $end
$var reg 1 s" memtoreg $end
$var reg 1 t" memwrite $end
$var reg 1 u" regwrite $end
$upscope $end
$scope module register_file $end
$var wire 1 D clock $end
$var wire 32 v" read_data1 [31:0] $end
$var wire 32 w" read_data2 [31:0] $end
$var wire 5 x" read_reg_num1 [4:0] $end
$var wire 5 y" read_reg_num2 [4:0] $end
$var wire 1 $" regwrite $end
$var wire 1 )" reset $end
$var wire 32 z" write_data [31:0] $end
$var wire 5 {" write_reg [4:0] $end
$var integer 32 |" i [31:0] $end
$upscope $end
$scope module immediate_generator $end
$var wire 32 }" instr [31:0] $end
$var wire 7 ~" opcode [6:0] $end
$var reg 32 !# imm [31:0] $end
$upscope $end
$scope module fwd_unit $end
$var wire 5 "# rd_mem [4:0] $end
$var wire 5 ## rd_wb [4:0] $end
$var wire 1 #" regwrite_mem $end
$var wire 1 $" regwrite_wb $end
$var wire 5 $# rs1_ex [4:0] $end
$var wire 5 %# rs2_ex [4:0] $end
$var reg 2 &# forward_a [1:0] $end
$var reg 2 '# forward_b [1:0] $end
$upscope $end
$scope module arithmetic_logic_unit $end
$var wire 4 (# alu_control [3:0] $end
$var wire 32 )# in1 [31:0] $end
$var wire 32 *# in1_signed [31:0] $end
$var wire 32 +# in2 [31:0] $end
$var wire 32 ,# in2_signed [31:0] $end
$var wire 1 ` less_than $end
$var wire 1 a less_than_u $end
$var wire 64 -# mul_result_signed [63:0] $end
$var wire 64 .# mul_result_unsigned [63:0] $end
$var wire 1 /" zero_flag $end
$var reg 32 /# alu_result [31:0] $end
$upscope $end
$scope module branch_unit $end
$var wire 1 = branch $end
$var wire 3 0# funct3 [2:0] $end
$var wire 1 ` less_than $end
$var wire 1 a less_than_u $end
$var wire 1 /" zero_flag $end
$var reg 1 1# taken $end
$upscope $end
$scope module hazard_unit $end
$var wire 1 v branch_taken $end
$var wire 1 G dmem_ready $end
$var wire 1 2# dmem_stall $end
$var wire 1 " dmem_valid $end
$var wire 1 J flush_id_ex $end
$var wire 1 K flush_if_id $end
$var wire 1 U imem_ready $end
$var wire 1 3# imem_stall $end
$var wire 1 4# load_use_hazard $end
$var wire 1 d memread_id_ex $end
$var wire 5 5# rd_id_ex [4:0] $end
$var wire 5 6# rs1_id [4:0] $end
$var wire 5 7# rs2_id [4:0] $end
$var wire 1 *" stall $end
$upscope $end
$upscope $end
$scope task display_registers $end
$var integer 32 8# r [31:0] $end
$upscope $end
$scope task load_program $end
$upscope $end
$upscope $end
$enddefinitions $end
#0
$dumpvars
bx 8#
b0 7#
b0 6#
b0 5#
04#
03#
02#
01#
b0 0#
b0 /#
b0 .#
b0 -#
b0 ,#
b0 +#
b0 *#
b0 )#
b0 (#
b0 '#
b0 &#
b0 %#
b0 $#
b0 ##
b0 "#
b0 !#
b10011 ~"
b10011 }"
b100000 |"
b0 {"
b0 z"
b0 y"
b0 x"
b0 w"
b0 v"
1u"
0t"
0s"
0r"
0q"
b10 p"
0o"
1n"
b10 m"
b0 l"
b10011 k"
b0 j"
b0 i"
b0 h"
b10011 g"
b0 f"
b10011 e"
1d"
b0 c"
b0 b"
b0 a"
b10011 `"
b0 _"
b100 ^"
b10100000000000010010011 ]"
b0 \"
0["
b0 Z"
b0 Y"
0X"
0W"
0V"
0U"
b0 T"
b0 S"
b0 R"
b0 Q"
b0 P"
b0 O"
b0 N"
b0 M"
b0 L"
b0 K"
0J"
0I"
0H"
0G"
0F"
0E"
0D"
0C"
0B"
bx A"
b0 @"
0?"
0>"
0="
0<"
b0 ;"
b0 :"
b0 9"
b0 8"
b1 7"
b0 6"
b0 5"
04"
03"
b0 2"
b0 1"
b0 0"
1/"
b0 ."
b0 -"
b0 ,"
b0 +"
0*"
1)"
b0 ("
b0 '"
b0 &"
b0 %"
0$"
0#"
1""
0!"
b0 ~
b0 }
b0 |
b0 {
b0 z
b0 y
b0 x
b0 w
0v
b0 u
b0 t
b100 s
b0 r
b0 q
b0 p
b10011 o
b0 n
0m
0l
0k
0j
0i
0h
0g
0f
0e
0d
bx c
b0 b
0a
0`
0_
0^
0]
0\
b0 [
b0 Z
b10011 Y
b10011 X
b0 W
b0 V
1U
b10100000000000010010011 T
b0 S
b0 R
b0 Q
b0 P
b0 O
b0 N
b0 M
b0 L
0K
0J
b1 I
b0 H
1G
bx F
b0 E
0D
b0 C
b10 B
b0 A
b0 @
0?
0>
0=
1<
0;
b0 :
b0 9
b0 8
b0 7
b0 6
b0 5
b0 4
b0 3
b0 2
b0 1
b0 0
1/
1.
b10100000000000010010011 -
b10000000000 ,
1+
bx *
b0 )
0(
1'
b0 &
b1 %
0$
b0 #
0"
b0 !
$end
#5000
b100000 |"
1(
1D
#10000
0(
0D
#15000
b100000 |"
1(
1D
#20000
0(
0D
0/
0)"
#25000
b101000000000000100010011 -
b101000000000000100010011 T
b101000000000000100010011 ]"
b100 c"
b100 &
b100 S
b100 b"
b100 r
b100 f"
b1000 ^"
bx @"
bx b
b100 M"
b100 t
b10011 K"
b10011 n
b10 6"
b10 A
13"
1;
1V"
1!"
b10100000000000010010011 `"
b10100000000000010010011 Y
b10100000000000010010011 e"
b100 a"
b1 )
1(
1D
#30000
0(
0D
#35000
b1000001000000110110011 -
b1000001000000110110011 T
b1000001000000110110011 ]"
b1000 b"
b1000 r
b1000 f"
b1000 c"
b1000 &
b1000 S
b1100 ^"
b101 ("
b101 y"
b101 7#
b1 x
b101 !#
b101 W
b1111 7"
b1111 %
b1111 I
b1000 a"
b101000000000000100010011 `"
b101000000000000100010011 Y
b101000000000000100010011 e"
b100 h"
b100 q
b10100000000000010010011 g"
b10100000000000010010011 X
b10100000000000010010011 }"
b10 5"
b10 C
1U"
1#"
b100 N"
b100 u
b10 )
1(
1D
#40000
0(
0D
#45000
b1001 +"
b1001 _"
b101 /#
0/"
b101 8
b1000000001000001000001000110011 -
b1000000001000001000001000110011 T
b1000000001000001000001000110011 ]"
b100 [
1`
1a
b101 5
b101 +#
b101 ,#
b1010 ("
b1010 y"
b1010 7#
b10 x
b1010 !#
b1010 W
b1100 c"
b1100 &
b1100 S
b1100 b"
b1100 r
b1100 f"
b10000 ^"
1X"
1$"
b1 P"
b1 w
b1 5#
b101 Z"
b101 '"
b101 %#
b100 L"
b1000 s
b100 p
b101 ;"
b1001 @
b1001 Z
b101 V
b101 6
b1000 h"
b1000 q
b101000000000000100010011 g"
b101000000000000100010011 X
b101000000000000100010011 }"
b1000001000000110110011 `"
b1000001000000110110011 Y
b1000001000000110110011 e"
b1100 a"
b11 )
1(
1D
#50000
0(
0D
#55000
b1000001001001010110011 -
b1000001001001010110011 T
b1000001001001010110011 ]"
b10 m"
0n"
0<
1u"
1""
b10010 +"
b10010 _"
b1010 /#
b1010 8
b10000 b"
b10000 r
b10000 f"
b10000 c"
b10000 &
b10000 S
b10100 ^"
b110011 ~"
b10 ("
b10 y"
b10 7#
b1 &"
b1 x"
b1 6#
b11 x
b110011 o
b110011 k"
b0 !#
b0 W
b1010 [
b1010 5
b1010 +#
b1010 ,#
b10000 a"
b1000000001000001000001000110011 `"
b1000000001000001000001000110011 Y
b1000000001000001000001000110011 e"
b1100 h"
b1100 q
b1000001000000110110011 g"
b1000001000000110110011 X
b1000001000000110110011 }"
b10 P"
b10 w
b10 5#
b1010 Z"
b1010 '"
b1010 %#
b1000 L"
b1100 s
b1000 p
b1010 ;"
b10010 @
b10010 Z
b1010 V
b1010 6
b1 O"
b1 y
b1 "#
b1000 M"
b1000 t
b101 1"
b101 9
b101 !
b101 E
b100 )
1(
1D
#60000
0(
0D
#65000
b110010 -#
b110010 .#
b101 3
b101 )#
b101 *#
b101 |
b101 v"
b101 4
b101 -"
b101 z"
b1010 7
b1100 +"
b1100 _"
b1111 /#
0/"
b1111 8
b1 l"
b1 2
b10 m"
1u"
1""
b1000001101001100110011 -
b1000001101001100110011 T
b1000001101001100110011 ]"
b101 ,"
b10 '#
b10 M
b1 &#
b1 L
b100 [
1`
1a
b1010 5
b1010 +#
b1010 ,#
b100000 R
b100000 j"
b100 x
b10100 c"
b10100 &
b10100 S
b10100 b"
b10100 r
b10100 f"
b11000 ^"
b1 R"
b1 z
b1 {"
b1 ##
b1000 N"
b1000 u
b101 2"
b101 :
b10 O"
b10 y
b10 "#
b1100 M"
b1100 t
b1010 1"
b1010 9
b1010 !
b1010 E
b110011 K"
b110011 n
b11 P"
b11 w
b11 5#
b10 Z"
b10 '"
b10 %#
b1 Y"
b1 %"
b1 $#
b1100 L"
b10000 s
b1100 p
b0 ;"
b1100 @
b1100 Z
b0 V
b0 6
03"
0;
b10000 h"
b10000 q
b1000000001000001000001000110011 g"
b1000000001000001000001000110011 X
b1000000001000001000001000110011 }"
b1000001001001010110011 `"
b1000001001001010110011 Y
b1000001001001010110011 e"
b10100 a"
b101 )
1(
1D
#70000
0(
0D
#75000
b1010 ~
b1010 w"
b1000000001000001101001110110011 -
b1000000001000001101001110110011 T
b1000000001000001101001110110011 ]"
b101 l"
b101 2
b10 m"
1u"
1""
b10000 +"
b10000 _"
b110010 -#
b110010 .#
1`
1a
b1010 5
b1010 +#
b1010 ,#
b1010 -"
b1010 z"
b11000 b"
b11000 r
b11000 f"
b11000 c"
b11000 &
b11000 S
b11100 ^"
b0 R
b0 j"
b1 O
b1 i"
b101 x
b11111111111111111111111111111011 /#
b11111111111111111111111111111011 8
b1010 7
b1 '#
b1 M
b0 &#
b0 L
b1010 ,"
b11000 a"
b1000001101001100110011 `"
b1000001101001100110011 Y
b1000001101001100110011 e"
b10100 h"
b10100 q
b1000001001001010110011 g"
b1000001001001010110011 X
b1000001001001010110011 }"
b1 0"
b1 1
b1 (#
b100000 :"
b100000 Q
b100 P"
b100 w
b100 5#
b10000 L"
b10100 s
b10000 @
b10000 Z
b10000 p
b101 S"
b101 {
b11 O"
b11 y
b11 "#
b10000 M"
b10000 t
b1010 \"
b1010 ."
b1010 #
b1010 H
b1111 1"
b1111 9
b1111 !
b1111 E
b10 R"
b10 z
b10 {"
b10 ##
b1100 N"
b1100 u
b1010 2"
b1010 :
b110 )
1(
1D
#80000
0(
0D
#85000
b1111 -"
b1111 z"
b10100 +"
b10100 _"
b110 l"
b110 2
b10 m"
1u"
1""
b1000001111010000010011 -
b1000001111010000010011 T
b1000001111010000010011 ]"
b1111 ,"
b0 '#
b0 M
b1010000000000 /#
b1010000000000 8
b101 O
b101 i"
b110 x
b11100 c"
b11100 &
b11100 S
b11100 b"
b11100 r
b11100 f"
b100000 ^"
b11 R"
b11 z
b11 {"
b11 ##
b10000 N"
b10000 u
b1111 2"
b1111 :
b100 O"
b100 y
b100 "#
b10100 M"
b10100 t
b11111111111111111111111111111011 1"
b11111111111111111111111111111011 9
b11111111111111111111111111111011 !
b11111111111111111111111111111011 E
b101 0"
b101 1
b101 (#
b0 :"
b0 Q
b1 9"
b1 N
b1 0#
b101 P"
b101 w
b101 5#
b10100 L"
b11000 s
b10100 @
b10100 Z
b10100 p
b1010 T"
b1010 }
b11000 h"
b11000 q
b1000001101001100110011 g"
b1000001101001100110011 X
b1000001101001100110011 }"
b1000000001000001101001110110011 `"
b1000000001000001101001110110011 Y
b1000000001000001101001110110011 e"
b11100 a"
b111 )
1(
1D
#90000
0(
0D
#95000
b1000001110010010010011 -
b1000001110010010010011 T
b1000001110010010010011 ]"
b111 l"
b111 2
b10 m"
1u"
1""
b11000 +"
b11000 _"
b11111111111111111111111111111011 -"
b11111111111111111111111111111011 z"
b100000 b"
b100000 r
b100000 f"
b100000 c"
b100000 &
b100000 S
b100100 ^"
b100000 R
b100000 j"
b111 x
b0 /#
1/"
b0 8
b11111111111111111111111111111011 ,"
b100000 a"
b1000001111010000010011 `"
b1000001111010000010011 Y
b1000001111010000010011 e"
b11100 h"
b11100 q
b1000000001000001101001110110011 g"
b1000000001000001101001110110011 X
b1000000001000001101001110110011 }"
b110 0"
b110 1
b110 (#
b101 9"
b101 N
b101 0#
b110 P"
b110 w
b110 5#
b11000 L"
b11100 s
b11000 @
b11000 Z
b11000 p
b1 8"
b1 P
b101 O"
b101 y
b101 "#
b11000 M"
b11000 t
b1010000000000 1"
b1010000000000 9
b1010000000000 !
b1010000000000 E
b100 R"
b100 z
b100 {"
b100 ##
b10100 N"
b10100 u
b11111111111111111111111111111011 2"
b11111111111111111111111111111011 :
b1000 )
1(
1D
#100000
0(
0D
#105000
b1010000000000 -"
b1010000000000 z"
b11100 +"
b11100 _"
b10 !#
b10 W
1n"
1<
b10 l"
b10 2
b10 m"
1u"
1""
b1000001100010100010011 -
b1000001100010100010011 T
b1000001100010100010011 ]"
b1010000000000 ,"
b0xxxxxxxxxxxxxxxx A"
b0xxxxxxxxxxxxxxxx c
b10011 ~"
b0 R
b0 j"
b111 O
b111 i"
b1000 x
b10011 o
b10011 k"
b100100 c"
b100100 &
b100100 S
b100100 b"
b100100 r
b100100 f"
b101000 ^"
b101 R"
b101 z
b101 {"
b101 ##
b11000 N"
b11000 u
b1010000000000 2"
b1010000000000 :
b101 8"
b101 P
b110 O"
b110 y
b110 "#
b11100 M"
b11100 t
b0 1"
b0 9
b0 !
b0 E
b111 0"
b111 1
b111 (#
b100000 :"
b100000 Q
b111 P"
b111 w
b111 5#
b11100 L"
b100000 s
b11100 @
b11100 Z
b11100 p
b100000 h"
b100000 q
b1000001111010000010011 g"
b1000001111010000010011 X
b1000001111010000010011 }"
b1000001110010010010011 `"
b1000001110010010010011 Y
b1000001110010010010011 e"
b100100 a"
b1001 )
1(
1D
#110000
0(
0D
#115000
b1000001010010110010011 -
b1000001010010110010011 T
b1000001010010110010011 ]"
b11 l"
b11 2
b10 m"
1n"
1<
1u"
1""
b100010 +"
b100010 _"
b0 -"
b0 z"
b101000 b"
b101000 r
b101000 f"
b101000 c"
b101000 &
b101000 S
b101100 ^"
b110 O
b110 i"
b1001 x
b110 [
b1010 -#
b1010 .#
0`
0a
b10 5
b10 +#
b10 ,#
b0 ,"
b101000 a"
b1000001100010100010011 `"
b1000001100010100010011 Y
b1000001100010100010011 e"
b100100 h"
b100100 q
b1000001110010010010011 g"
b1000001110010010010011 X
b1000001110010010010011 }"
b10011 K"
b10011 n
b10 0"
b10 1
b10 (#
b0 :"
b0 Q
b111 9"
b111 N
b111 0#
b1000 P"
b1000 w
b1000 5#
b100000 L"
b100100 s
b100000 p
b10 ;"
b100010 @
b100010 Z
b10 V
b10 6
13"
1;
b111 O"
b111 y
b111 "#
b100000 M"
b100000 t
b110 R"
b110 z
b110 {"
b110 ##
b11100 N"
b11100 u
b0xxxxxxxxxxxxxxxx @"
b0xxxxxxxxxxxxxxxx b
b0 2"
b0 :
b1010 )
1(
1D
#120000
0(
0D
#125000
b100110 +"
b100110 _"
b100 l"
b100 2
b10 m"
1n"
1<
1u"
1""
b1000001011011000010011 -
b1000001011011000010011 T
b1000001011011000010011 ]"
bx A"
bx c
b111 /#
0/"
b111 8
b100 O
b100 i"
b1010 x
b101100 c"
b101100 &
b101100 S
b101100 b"
b101100 r
b101100 f"
b110000 ^"
b111 R"
b111 z
b111 {"
b111 ##
b100000 N"
b100000 u
b111 8"
b111 P
b1000 O"
b1000 y
b1000 "#
b100100 M"
b100100 t
b11 0"
b11 1
b11 (#
b110 9"
b110 N
b110 0#
b1001 P"
b1001 w
b1001 5#
b100100 L"
b101000 s
b100110 @
b100110 Z
b100100 p
b101000 h"
b101000 q
b1000001100010100010011 g"
b1000001100010100010011 X
b1000001100010100010011 }"
b1000001010010110010011 `"
b1000001010010110010011 Y
b1000001010010110010011 e"
b101100 a"
b1011 )
1(
1D
#130000
0(
0D
#135000
b1111000001000011010010011 -
b1111000001000011010010011 T
b1111000001000011010010011 ]"
b1000 l"
b1000 2
b10 m"
1n"
1<
1u"
1""
b101010 +"
b101010 _"
b110000 b"
b110000 r
b110000 f"
b110000 c"
b110000 &
b110000 S
b110100 ^"
b10 O
b10 i"
b1011 x
b110000 a"
b1000001011011000010011 `"
b1000001011011000010011 Y
b1000001011011000010011 e"
b101100 h"
b101100 q
b1000001010010110010011 g"
b1000001010010110010011 X
b1000001010010110010011 }"
b100 0"
b100 1
b100 (#
b100 9"
b100 N
b100 0#
b1010 P"
b1010 w
b1010 5#
b101000 L"
b101100 s
b101010 @
b101010 Z
b101000 p
b110 8"
b110 P
b1001 O"
b1001 y
b1001 "#
b101000 M"
b101000 t
b111 1"
b111 9
b111 !
b111 E
b1000 R"
b1000 z
b1000 {"
b1000 ##
b100100 N"
b100100 u
bx @"
bx b
b1100 )
1(
1D
#140000
0(
0D
#145000
b111 -"
b111 z"
b101110 +"
b101110 _"
b1001 l"
b1001 2
b10 m"
1n"
1<
1u"
1""
b111100001111011100010011 -
b111100001111011100010011 T
b111100001111011100010011 ]"
b111 ,"
b0xxxxxxxx A"
b0xxxxxxxx c
b0 /#
1/"
b0 8
b11 O
b11 i"
b1100 x
b110100 c"
b110100 &
b110100 S
b110100 b"
b110100 r
b110100 f"
b111000 ^"
b1001 R"
b1001 z
b1001 {"
b1001 ##
b101000 N"
b101000 u
b111 2"
b111 :
b100 8"
b100 P
b1010 O"
b1010 y
b1010 "#
b101100 M"
b101100 t
b1000 0"
b1000 1
b1000 (#
b10 9"
b10 N
b10 0#
b1011 P"
b1011 w
b1011 5#
b101100 L"
b110000 s
b101110 @
b101110 Z
b101100 p
b110000 h"
b110000 q
b1000001011011000010011 g"
b1000001011011000010011 X
b1000001011011000010011 }"
b1111000001000011010010011 `"
b1111000001000011010010011 Y
b1111000001000011010010011 e"
b110100 a"
b1101 )
1(
1D
#150000
0(
0D
#155000
b0 ~
b0 w"
b111100001110011110010011 -
b111100001110011110010011 T
b111100001110011110010011 ]"
b0 l"
b0 2
b10 m"
1n"
1<
1u"
1""
b110010 +"
b110010 _"
b111000 b"
b111000 r
b111000 f"
b111000 c"
b111000 &
b111000 S
b111100 ^"
b11110 ("
b11110 y"
b11110 7#
b0 O
b0 i"
b1101 x
b11110 !#
b11110 W
bx A"
bx c
b111000 a"
b111100001111011100010011 `"
b111100001111011100010011 Y
b111100001111011100010011 e"
b110100 h"
b110100 q
b1111000001000011010010011 g"
b1111000001000011010010011 X
b1111000001000011010010011 }"
b1001 0"
b1001 1
b1001 (#
b11 9"
b11 N
b11 0#
b1100 P"
b1100 w
b1100 5#
b110000 L"
b110100 s
b110010 @
b110010 Z
b110000 p
b10 8"
b10 P
b1011 O"
b1011 y
b1011 "#
b110000 M"
b110000 t
b0 1"
b0 9
b0 !
b0 E
b1010 R"
b1010 z
b1010 {"
b1010 ##
b101100 N"
b101100 u
b0xxxxxxxx @"
b0xxxxxxxx b
b1110 )
1(
1D
#160000
0(
0D
#165000
b0 -"
b0 z"
b1010010 +"
b1010010 _"
b0 7
b10 l"
b10 2
b10 m"
1n"
1<
1u"
1""
b111100001100100000010011 -
b111100001100100000010011 T
b111100001100100000010011 ]"
b0 ,"
b100011 /#
0/"
b100011 8
b100010 [
b10010110 -#
b10010110 .#
1`
1a
b11110 5
b11110 +#
b11110 ,#
b1111 ("
b1111 y"
b1111 7#
b111 O
b111 i"
b1110 x
b1111 !#
b1111 W
b111100 c"
b111100 &
b111100 S
b111100 b"
b111100 r
b111100 f"
b1000000 ^"
b1011 R"
b1011 z
b1011 {"
b1011 ##
b110000 N"
b110000 u
bx @"
bx b
b0 2"
b0 :
b11 8"
b11 P
b1100 O"
b1100 y
b1100 "#
b110100 M"
b110100 t
b0 0"
b0 1
b0 (#
b0 9"
b0 N
b0 0#
b1101 P"
b1101 w
b1101 5#
b11110 Z"
b11110 '"
b11110 %#
b110100 L"
b111000 s
b110100 p
b11110 ;"
b1010010 @
b1010010 Z
b11110 V
b11110 6
b0 T"
b0 }
b111000 h"
b111000 q
b111100001111011100010011 g"
b111100001111011100010011 X
b111100001111011100010011 }"
b111100001110011110010011 `"
b111100001110011110010011 Y
b111100001110011110010011 e"
b111100 a"
b1111 )
1(
1D
#170000
0(
0D
#175000
b111100001010100010010011 -
b111100001010100010010011 T
b111100001010100010010011 ]"
b11 l"
b11 2
b10 m"
1n"
1<
1u"
1""
b1000111 +"
b1000111 _"
b1000000 b"
b1000000 r
b1000000 f"
b1000000 c"
b1000000 &
b1000000 S
b1000100 ^"
b110 O
b110 i"
b1111 x
b101 /#
b101 8
b10100 [
b1001011 -#
b1001011 .#
b1111 5
b1111 +#
b1111 ,#
b1000000 a"
b111100001100100000010011 `"
b111100001100100000010011 Y
b111100001100100000010011 e"
b111100 h"
b111100 q
b111100001110011110010011 g"
b111100001110011110010011 X
b111100001110011110010011 }"
b10 0"
b10 1
b10 (#
b111 9"
b111 N
b111 0#
b1110 P"
b1110 w
b1110 5#
b1111 Z"
b1111 '"
b1111 %#
b111000 L"
b111100 s
b111000 p
b1111 ;"
b1000111 @
b1000111 Z
b1111 V
b1111 6
b0 8"
b0 P
b1101 O"
b1101 y
b1101 "#
b111000 M"
b111000 t
b0 \"
b0 ."
b0 #
b0 H
b100011 1"
b100011 9
b100011 !
b100011 E
b1100 R"
b1100 z
b1100 {"
b1100 ##
b110100 N"
b110100 u
b10000 )
1(
1D
#180000
0(
0D
