cpu/riscv_cpu_tb.vcd
$date
	Fri Jan 23 13:53:52 2026
$end
$version
	Icarus Verilog
$end
$timescale
	1ps
$end
$scope module riscv_cpu_tb $end
$var wire 1 ! imem_valid $end
$var wire 32 " imem_addr [31:0] $end
$var wire 4 # dmem_wstrb [3:0] $end
$var wire 1 $ dmem_we $end
$var wire 32 % dmem_wdata [31:0] $end
$var wire 1 & dmem_valid $end
$var wire 32 ' dmem_addr [31:0] $end
$var reg 1 ( clk $end
$var reg 32 ) dmem_rdata [31:0] $end
$var reg 32 * dmem_rdata_next [31:0] $end
$var reg 1 + dmem_ready $end
$var reg 32 , imem_addr_reg [31:0] $end
$var reg 32 - imem_rdata [31:0] $end
$var reg 1 . imem_ready $end
$var reg 1 / rst $end
$var integer 32 0 cycle_count [31:0] $end
$var integer 32 1 i [31:0] $end
$scope module cpu $end
$var wire 4 2 alu_control_ex [3:0] $end
$var wire 32 3 alu_result_mem [31:0] $end
$var wire 32 4 alu_result_wb [31:0] $end
$var wire 2 5 byte_size_ex [1:0] $end
$var wire 2 6 byte_size_mem [1:0] $end
$var wire 1 ( clk $end
$var wire 32 7 dmem_addr [31:0] $end
$var wire 32 8 dmem_rdata [31:0] $end
$var wire 1 + dmem_ready $end
$var wire 1 & dmem_valid $end
$var wire 32 9 dmem_wdata [31:0] $end
$var wire 1 $ dmem_we $end
$var wire 4 : dmem_wstrb [3:0] $end
$var wire 3 ; funct3_ex [2:0] $end
$var wire 3 < funct3_mem [2:0] $end
$var wire 7 = funct7_ex [6:0] $end
$var wire 32 > imem_rdata [31:0] $end
$var wire 1 . imem_ready $end
$var wire 32 ? jalr_target [31:0] $end
$var wire 1 @ jump_mem $end
$var wire 1 A jump_wb $end
$var wire 32 B mem_data_wb [31:0] $end
$var wire 32 C mem_read_data_extended [31:0] $end
$var wire 1 D memread_mem $end
$var wire 1 E memtoreg_ex $end
$var wire 1 F memtoreg_mem $end
$var wire 1 G memtoreg_wb $end
$var wire 1 H memwrite_ex $end
$var wire 1 I memwrite_mem $end
$var wire 32 J pc_plus_4_mem [31:0] $end
$var wire 32 K pc_plus_4_wb [31:0] $end
$var wire 1 L pc_src_ex $end
$var wire 5 M rd_mem [4:0] $end
$var wire 5 N rd_wb [4:0] $end
$var wire 1 O regwrite_ex $end
$var wire 1 P regwrite_mem $end
$var wire 1 Q regwrite_wb $end
$var wire 5 R rs1_ex [4:0] $end
$var wire 5 S rs2_ex [4:0] $end
$var wire 1 / rst $end
$var wire 32 T write_data_mem [31:0] $end
$var wire 1 U zero_flag_ex $end
$var wire 32 V write_back_data_wb [31:0] $end
$var wire 32 W wb_data_before_jump [31:0] $end
$var wire 32 X target_pc_ex [31:0] $end
$var wire 1 Y stall $end
$var wire 5 Z rs2_id [4:0] $end
$var wire 5 [ rs1_id [4:0] $end
$var wire 1 \ regwrite_id $end
$var wire 32 ] read_data2_id [31:0] $end
$var wire 32 ^ read_data2_ex [31:0] $end
$var wire 32 _ read_data1_id [31:0] $end
$var wire 32 ` read_data1_ex [31:0] $end
$var wire 5 a rd_id [4:0] $end
$var wire 5 b rd_ex [4:0] $end
$var wire 32 c pc_plus_4_ex [31:0] $end
$var wire 32 d pc_if [31:0] $end
$var wire 32 e pc_id [31:0] $end
$var wire 32 f pc_ex [31:0] $end
$var wire 7 g opcode_id [6:0] $end
$var wire 7 h opcode_ex [6:0] $end
$var wire 1 i memwrite_id $end
$var wire 1 j memtoreg_id $end
$var wire 1 k memread_id $end
$var wire 1 l memread_ex $end
$var wire 1 m less_than_u_ex $end
$var wire 1 n less_than_ex $end
$var wire 1 o jump_id $end
$var wire 1 p jump_ex $end
$var wire 32 q jal_target [31:0] $end
$var wire 32 r instr_if [31:0] $end
$var wire 32 s instr_id [31:0] $end
$var wire 32 t imm_id [31:0] $end
$var wire 32 u imm_ex [31:0] $end
$var wire 1 ! imem_valid $end
$var wire 32 v imem_addr [31:0] $end
$var wire 7 w funct7_id [6:0] $end
$var wire 3 x funct3_id [2:0] $end
$var wire 2 y forward_b [1:0] $end
$var wire 2 z forward_a [1:0] $end
$var wire 1 { flush_if_id $end
$var wire 1 | flush_id_ex $end
$var wire 2 } byte_size_id [1:0] $end
$var wire 32 ~ branch_target [31:0] $end
$var wire 1 !" branch_taken_ex $end
$var wire 1 "" branch_id $end
$var wire 1 #" branch_ex $end
$var wire 1 $" alusrc_id $end
$var wire 1 %" alusrc_ex $end
$var wire 32 &" alu_result_ex [31:0] $end
$var wire 32 '" alu_in2_pre_mux [31:0] $end
$var wire 32 (" alu_in2_imm [31:0] $end
$var wire 32 )" alu_in2 [31:0] $end
$var wire 32 *" alu_in1_forwarded [31:0] $end
$var wire 32 +" alu_in1 [31:0] $end
$var wire 4 ," alu_control_id [3:0] $end
$var reg 4 -" alu_control_id_ex [3:0] $end
$var reg 32 ." alu_result_ex_mem [31:0] $end
$var reg 32 /" alu_result_mem_wb [31:0] $end
$var reg 1 %" alusrc_id_ex $end
$var reg 1 #" branch_id_ex $end
$var reg 2 0" byte_size_ex_mem [1:0] $end
$var reg 2 1" byte_size_id_ex [1:0] $end
$var reg 4 2" dmem_wstrb_reg [3:0] $end
$var reg 3 3" funct3_ex_mem [2:0] $end
$var reg 3 4" funct3_id_ex [2:0] $end
$var reg 7 5" funct7_id_ex [6:0] $end
$var reg 32 6" imm_id_ex [31:0] $end
$var reg 1 7" jump_ex_mem $end
$var reg 1 p jump_id_ex $end
$var reg 1 A jump_mem_wb $end
$var reg 32 8" mem_data_mem_wb [31:0] $end
$var reg 32 9" mem_read_extended [31:0] $end
$var reg 1 D memread_ex_mem $end
$var reg 1 l memread_id_ex $end
$var reg 1 :" memtoreg_ex_mem $end
$var reg 1 ;" memtoreg_id_ex $end
$var reg 1 G memtoreg_mem_wb $end
$var reg 1 I memwrite_ex_mem $end
$var reg 1 <" memwrite_id_ex $end
$var reg 7 =" opcode_id_ex [6:0] $end
$var reg 32 >" pc_id_ex [31:0] $end
$var reg 32 ?" pc_plus_4_ex_mem [31:0] $end
$var reg 32 @" pc_plus_4_mem_wb [31:0] $end
$var reg 5 A" rd_ex_mem [4:0] $end
$var reg 5 B" rd_id_ex [4:0] $end
$var reg 5 C" rd_mem_wb [4:0] $end
$var reg 32 D" read_data1_id_ex [31:0] $end
$var reg 32 E" read_data2_id_ex [31:0] $end
$var reg 1 F" regwrite_ex_mem $end
$var reg 1 G" regwrite_id_ex $end
$var reg 1 Q regwrite_mem_wb $end
$var reg 5 H" rs1_id_ex [4:0] $end
$var reg 5 I" rs2_id_ex [4:0] $end
$var reg 32 J" write_data_ex_mem [31:0] $end
$scope module arithmetic_logic_unit $end
$var wire 4 K" alu_control [3:0] $end
$var wire 32 L" in1 [31:0] $end
$var wire 32 M" in1_signed [31:0] $end
$var wire 32 N" in2 [31:0] $end
$var wire 32 O" in2_signed [31:0] $end
$var wire 1 U zero_flag $end
$var wire 64 P" mul_result_unsigned [63:0] $end
$var wire 64 Q" mul_result_signed [63:0] $end
$var wire 1 m less_than_u $end
$var wire 1 n less_than $end
$var parameter 4 R" ALU_ADD $end
$var parameter 4 S" ALU_AND $end
$var parameter 4 T" ALU_DIV $end
$var parameter 4 U" ALU_DIVU $end
$var parameter 4 V" ALU_MUL $end
$var parameter 4 W" ALU_MULH $end
$var parameter 4 X" ALU_OR $end
$var parameter 4 Y" ALU_REM $end
$var parameter 4 Z" ALU_REMU $end
$var parameter 4 [" ALU_SLL $end
$var parameter 4 \" ALU_SLT $end
$var parameter 4 ]" ALU_SLTU $end
$var parameter 4 ^" ALU_SRA $end
$var parameter 4 _" ALU_SRL $end
$var parameter 4 `" ALU_SUB $end
$var parameter 4 a" ALU_XOR $end
$var reg 32 b" alu_result [31:0] $end
$upscope $end
$scope module branch_unit $end
$var wire 1 #" branch $end
$var wire 3 c" funct3 [2:0] $end
$var wire 1 n less_than $end
$var wire 1 m less_than_u $end
$var wire 1 U zero_flag $end
$var parameter 3 d" BEQ $end
$var parameter 3 e" BGE $end
$var parameter 3 f" BGEU $end
$var parameter 3 g" BLT $end
$var parameter 3 h" BLTU $end
$var parameter 3 i" BNE $end
$var reg 1 !" taken $end
$upscope $end
$scope module control_unit $end
$var wire 3 j" funct3 [2:0] $end
$var wire 7 k" funct7 [6:0] $end
$var wire 7 l" opcode [6:0] $end
$var parameter 4 m" ALU_ADD $end
$var parameter 4 n" ALU_AND $end
$var parameter 4 o" ALU_DIV $end
$var parameter 4 p" ALU_DIVU $end
$var parameter 4 q" ALU_MUL $end
$var parameter 4 r" ALU_MULH $end
$var parameter 4 s" ALU_OR $end
$var parameter 4 t" ALU_REM $end
$var parameter 4 u" ALU_REMU $end
$var parameter 4 v" ALU_SLL $end
$var parameter 4 w" ALU_SLT $end
$var parameter 4 x" ALU_SLTU $end
$var parameter 4 y" ALU_SRA $end
$var parameter 4 z" ALU_SRL $end
$var parameter 4 {" ALU_SUB $end
$var parameter 4 |" ALU_XOR $end
$var parameter 3 }" F3_ADD_SUB $end
$var parameter 3 ~" F3_AND $end
$var parameter 3 !# F3_BEQ $end
$var parameter 3 "# F3_BGE $end
$var parameter 3 ## F3_BGEU $end
$var parameter 3 $# F3_BLT $end
$var parameter 3 %# F3_BLTU $end
$var parameter 3 &# F3_BNE $end
$var parameter 3 '# F3_BYTE $end
$var parameter 3 (# F3_BYTE_U $end
$var parameter 3 )# F3_DIV $end
$var parameter 3 *# F3_DIVU $end
$var parameter 3 +# F3_HALF $end
$var parameter 3 ,# F3_HALF_U $end
$var parameter 3 -# F3_MUL $end
$var parameter 3 .# F3_MULH $end
$var parameter 3 /# F3_OR $end
$var parameter 3 0# F3_REM $end
$var parameter 3 1# F3_REMU $end
$var parameter 3 2# F3_SLL $end
$var parameter 3 3# F3_SLT $end
$var parameter 3 4# F3_SLTU $end
$var parameter 3 5# F3_SRL_SRA $end
$var parameter 3 6# F3_WORD $end
$var parameter 3 7# F3_XOR $end
$var parameter 7 8# F7_DEFAULT $end
$var parameter 7 9# F7_MULDIV $end
$var parameter 7 :# F7_SUB_SRA $end
$var parameter 7 ;# OP_AUIPC $end
$var parameter 7 <# OP_BRANCH $end
$var parameter 7 =# OP_I_TYPE $end
$var parameter 7 ># OP_JAL $end
$var parameter 7 ?# OP_JALR $end
$var parameter 7 @# OP_LOAD $end
$var parameter 7 A# OP_LUI $end
$var parameter 7 B# OP_R_TYPE $end
$var parameter 7 C# OP_STORE $end
$var reg 4 D# alu_control [3:0] $end
$var reg 2 E# aluop [1:0] $end
$var reg 1 $" alusrc $end
$var reg 1 "" branch $end
$var reg 2 F# byte_size [1:0] $end
$var reg 1 o jump $end
$var reg 1 k memread $end
$var reg 1 j memtoreg $end
$var reg 1 i memwrite $end
$var reg 1 \ regwrite $end
$upscope $end
$scope module fwd_unit $end
$var wire 5 G# rd_mem [4:0] $end
$var wire 5 H# rd_wb [4:0] $end
$var wire 1 P regwrite_mem $end
$var wire 1 Q regwrite_wb $end
$var wire 5 I# rs1_ex [4:0] $end
$var wire 5 J# rs2_ex [4:0] $end
$var reg 2 K# forward_a [1:0] $end
$var reg 2 L# forward_b [1:0] $end
$upscope $end
$scope module hazard_unit $end
$var wire 1 L branch_taken $end
$var wire 1 + dmem_ready $end
$var wire 1 M# dmem_stall $end
$var wire 1 & dmem_valid $end
$var wire 1 . imem_ready $end
$var wire 1 N# load_use_hazard $end
$var wire 1 l memread_id_ex $end
$var wire 5 O# rd_id_ex [4:0] $end
$var wire 5 P# rs1_id [4:0] $end
$var wire 5 Q# rs2_id [4:0] $end
$var wire 1 R# imem_stall $end
$var reg 1 | flush_id_ex $end
$var reg 1 { flush_if_id $end
$var reg 1 Y stall $end
$upscope $end
$scope module if_id_reg $end
$var wire 1 ( clock $end
$var wire 1 { flush $end
$var wire 1 / reset $end
$var wire 1 Y stall $end
$var wire 32 S# pc_in [31:0] $end
$var wire 32 T# instr_in [31:0] $end
$var parameter 32 U# NOP $end
$var reg 32 V# instr_out [31:0] $end
$var reg 32 W# pc_out [31:0] $end
$upscope $end
$scope module immediate_generator $end
$var wire 32 X# instr [31:0] $end
$var wire 7 Y# opcode [6:0] $end
$var parameter 7 Z# OP_AUIPC $end
$var parameter 7 [# OP_BRANCH $end
$var parameter 7 \# OP_I_TYPE $end
$var parameter 7 ]# OP_JAL $end
$var parameter 7 ^# OP_JALR $end
$var parameter 7 _# OP_LOAD $end
$var parameter 7 `# OP_LUI $end
$var parameter 7 a# OP_R_TYPE $end
$var parameter 7 b# OP_STORE $end
$var reg 32 c# imm [31:0] $end
$upscope $end
$scope module instruction_fetch $end
$var wire 1 ( clock $end
$var wire 32 d# imem_rdata [31:0] $end
$var wire 1 . imem_ready $end
$var wire 1 L pc_src $end
$var wire 1 / reset $end
$var wire 1 Y stall $end
$var wire 32 e# target_pc [31:0] $end
$var wire 32 f# next_pc [31:0] $end
$var reg 32 g# Instruction_Code [31:0] $end
$var reg 32 h# PC [31:0] $end
$var reg 32 i# PC_out [31:0] $end
$var reg 32 j# imem_addr [31:0] $end
$var reg 1 ! imem_valid $end
$upscope $end
$scope module register_file $end
$var wire 1 ( clock $end
$var wire 5 k# read_reg_num1 [4:0] $end
$var wire 5 l# read_reg_num2 [4:0] $end
$var wire 1 Q regwrite $end
$var wire 1 / reset $end
$var wire 32 m# write_data [31:0] $end
$var wire 5 n# write_reg [4:0] $end
$var wire 32 o# read_data2 [31:0] $end
$var wire 32 p# read_data1 [31:0] $end
$var integer 32 q# i [31:0] $end
$upscope $end
$upscope $end
$upscope $end
$enddefinitions $end
$comment Show the parameter values. $end
$dumpall
b100011 b#
b110011 a#
b110111 `#
b11 _#
b1100111 ^#
b1101111 ]#
b10011 \#
b1100011 [#
b10111 Z#
b10011 U#
b100011 C#
b110011 B#
b110111 A#
b11 @#
b1100111 ?#
b1101111 >#
b10011 =#
b1100011 <#
b10111 ;#
b100000 :#
b1 9#
b0 8#
b100 7#
b10 6#
b101 5#
b11 4#
b10 3#
b1 2#
b111 1#
b110 0#
b110 /#
b1 .#
b0 -#
b101 ,#
b1 +#
b101 *#
b100 )#
b100 (#
b0 '#
b1 &#
b110 %#
b100 $#
b111 ##
b101 "#
b0 !#
b111 ~"
b0 }"
b100 |"
b1 {"
b110 z"
b111 y"
b1001 x"
b1000 w"
b101 v"
b1111 u"
b1110 t"
b11 s"
b1011 r"
b1010 q"
b1101 p"
b1100 o"
b10 n"
b0 m"
b1 i"
b110 h"
b100 g"
b111 f"
b101 e"
b0 d"
b100 a"
b1 `"
b110 _"
b111 ^"
b1001 ]"
b1000 \"
b101 ["
b1111 Z"
b1110 Y"
b11 X"
b1011 W"
b1010 V"
b1101 U"
b1100 T"
b10 S"
b0 R"
$end
#0
$dumpvars
b100000 q#
b0 p#
b0 o#
b0 n#
b0 m#
b0 l#
b0 k#
b0 j#
b0 i#
b0 h#
b10011 g#
b100 f#
b0 e#
bx d#
b0 c#
b10011 Y#
b10011 X#
b0 W#
b10011 V#
b10011 T#
b0 S#
xR#
b0 Q#
b0 P#
b0 O#
0N#
0M#
b0 L#
b0 K#
b0 J#
b0 I#
b0 H#
b0 G#
b10 F#
b10 E#
b0 D#
b10011 l"
b0 k"
b0 j"
b0 c"
b0 b"
b0 Q"
b0 P"
b0 O"
b0 N"
b0 M"
b0 L"
b0 K"
b0 J"
b0 I"
b0 H"
0G"
0F"
b0 E"
b0 D"
b0 C"
b0 B"
b0 A"
b0 @"
b0 ?"
b0 >"
b0 ="
0<"
0;"
0:"
bx 9"
b0 8"
07"
b0 6"
b0 5"
b0 4"
b0 3"
b1 2"
b0 1"
b0 0"
b0 /"
b0 ."
b0 -"
b0 ,"
b0 +"
b0 *"
b0 )"
b0 ("
b0 '"
b0 &"
0%"
1$"
0#"
0""
0!"
b0 ~
b10 }
0|
0{
b0 z
b0 y
b0 x
b0 w
b0 v
b0 u
b0 t
b10011 s
b10011 r
b0 q
0p
0o
0n
0m
0l
0k
0j
0i
b0 h
b10011 g
b0 f
b0 e
b0 d
b100 c
b0 b
b0 a
b0 `
b0 _
b0 ^
b0 ]
1\
b0 [
b0 Z
xY
b0 X
b0 W
b0 V
1U
b0 T
b0 S
b0 R
0Q
0P
0O
b0 N
b0 M
0L
b0 K
b0 J
0I
0H
0G
0F
0E
0D
bx C
b0 B
0A
0@
b0 ?
bx >
b0 =
b0 <
b0 ;
b1 :
b0 9
bx 8
b0 7
b0 6
b0 5
b0 4
b0 3
b0 2
b10000000000 1
b0 0
1/
x.
bx -
bx ,
x+
bx *
bx )
0(
b0 '
0&
b0 %
0$
b1 #
b0 "
1!
$end
#5000
1Y
b0 C
b0 9"
b10011 -
b10011 >
b10011 d#
1R#
0.
b0 )
b0 8
0+
b100000 q#
1(
#10000
0(
#15000
b100000 q#
1(
#20000
0(
#25000
b100000 q#
1(
#30000
0(
#35000
b100000 q#
1(
#40000
0(
#45000
0Y
b100 J
b100 ?"
0R#
1.
b10100000000000010010011 -
b10100000000000010010011 >
b10100000000000010010011 d#
b0 ,
b1 0
0/
1(
#50000
0(
#55000
b100 "
b100 v
b100 j#
b100 d
b100 S#
b100 i#
b1000 f#
b100 h#
b10100000000000010010011 r
b10100000000000010010011 T#
b10100000000000010010011 g#
b10011 h
b10011 ="
b10 5
b10 1"
1%"
1O
1G"
b100 K
b100 @"
b10 0
1(
#60000
0(
#65000
b1111 #
b1111 :
b1111 2"
b101 t
b101 c#
b101 Z
b101 Q#
b101 l#
b1 a
b1000 d
b1000 S#
b1000 i#
b1000 "
b1000 v
b1000 j#
b1100 f#
b10 6
b10 0"
1P
1F"
b100 e
b100 W#
b10100000000000010010011 s
b10100000000000010010011 V#
b10100000000000010010011 X#
b1000 h#
b1100000000000100010011 -
b1100000000000100010011 >
b1100000000000100010011 d#
b100 ,
b11 0
1(
#70000
0(
#75000
0U
b101 &"
b101 b"
1n
b101 O"
1m
b101 )"
b101 N"
b101 ("
b1001 X
b1001 e#
b1100 "
b1100 v
b1100 j#
b1100 d
b1100 S#
b1100 i#
b10000 f#
b100 ?
b1100 h#
b1100000000000100010011 r
b1100000000000100010011 T#
b1100000000000100010011 g#
b1000 e
b1000 W#
b1 b
b1 B"
b1 O#
b101 S
b101 J#
b101 I"
b1000 c
b100 f
b100 >"
b1001 ~
b1001 q
b101 u
b101 6"
1Q
b1000001000000110110011 -
b1000001000000110110011 >
b1000001000000110110011 d#
b1000 ,
b100 0
1(
#80000
0(
#85000
b1101 X
b1101 e#
b11 t
b11 c#
b11 Z
b11 Q#
b11 l#
b10 a
b10000 d
b10000 S#
b10000 i#
b10000 "
b10000 v
b10000 j#
b10100 f#
b1 M
b1 G#
b1 A"
b1000 J
b1000 ?"
b101 '
b101 7
b101 3
b101 ."
b1100 c
b1101 ~
b1101 q
b1000 f
b1000 >"
b1100 e
b1100 W#
b1100000000000100010011 s
b1100000000000100010011 V#
b1100000000000100010011 X#
b1000001000000110110011 r
b1000001000000110110011 T#
b1000001000000110110011 g#
b10000 h#
b1000000001000001000001000110011 -
b1000000001000001000001000110011 >
b1000000001000001000001000110011 d#
b1100 ,
b101 0
1(
#90000
0(
#95000
b11 &"
b11 b"
b11 O"
b11 )"
b11 N"
b101 _
b101 p#
b10 E#
0$"
1\
b11 ("
b1111 X
b1111 e#
b101 V
b101 m#
b10100 "
b10100 v
b10100 j#
b10100 d
b10100 S#
b10100 i#
b11000 f#
b0 t
b0 c#
b110011 Y#
b10 Z
b10 Q#
b10 l#
b1 [
b1 P#
b1 k#
b11 a
b110011 g
b110011 l"
b10 ?
b101 W
b10100 h#
b1000000001000001000001000110011 r
b1000000001000001000001000110011 T#
b1000000001000001000001000110011 g#
b10000 e
b10000 W#
b1000001000000110110011 s
b1000001000000110110011 V#
b1000001000000110110011 X#
b10 b
b10 B"
b10 O#
b11 S
b11 J#
b11 I"
b10000 c
b1100 f
b1100 >"
b1111 ~
b1111 q
b11 u
b11 6"
b1100 J
b1100 ?"
b1 N
b1 C"
b1 H#
b1 n#
b1000 K
b1000 @"
b101 4
b101 /"
b1000001111001010110011 -
b1000001111001010110011 >
b1000001111001010110011 d#
b10000 ,
b110 0
1(
#100000
0(
#105000
b1111 Q"
b101 M"
b1111 P"
b101 +"
b101 L"
b11 '"
b0 ("
b10000 X
b10000 e#
b101 *"
0U
b1000 &"
b1000 b"
b1 ,"
b1 D#
b10 E#
1\
b10 y
b10 L#
b1 z
b1 K#
b100 ?
0n
b11 O"
0m
b11 )"
b11 N"
b100000 w
b100000 k"
b100 a
b11000 d
b11000 S#
b11000 i#
b11000 "
b11000 v
b11000 j#
b11100 f#
b1100 K
b1100 @"
b10 M
b10 G#
b10 A"
b10000 J
b10000 ?"
b11 '
b11 7
b11 3
b11 ."
b110011 h
b110011 ="
b11 b
b11 B"
b11 O#
b10 S
b10 J#
b10 I"
b1 R
b1 I#
b1 H"
b10100 c
b10000 f
b10000 >"
b10000 ~
b10000 q
b0 u
b0 6"
b101 `
b101 D"
0%"
b10100 e
b10100 W#
b1000000001000001000001000110011 s
b1000000001000001000001000110011 V#
b1000000001000001000001000110011 X#
b1000001111001010110011 r
b1000001111001010110011 T#
b1000001111001010110011 g#
b11000 h#
b1000001110001100110011 -
b1000001110001100110011 >
b1000001110001100110011 d#
b10100 ,
b111 0
1(
#110000
0(
#115000
b11 ]
b11 o#
b10 ,"
b10 D#
b10 E#
1\
b10100 X
b10100 e#
b1111 Q"
b11 O"
b1111 P"
b11 )"
b11 N"
b11 V
b11 m#
b11100 "
b11100 v
b11100 j#
b11100 d
b11100 S#
b11100 i#
b100000 f#
b0 w
b0 k"
b111 x
b111 j"
b101 a
b10 &"
b10 b"
b11 '"
b1 y
b1 L#
b0 z
b0 K#
b11 W
b11100 h#
b1000001110001100110011 r
b1000001110001100110011 T#
b1000001110001100110011 g#
b11000 e
b11000 W#
b1000001111001010110011 s
b1000001111001010110011 V#
b1000001111001010110011 X#
b1 2
b1 K"
b1 -"
b100000 =
b100000 5"
b100 b
b100 B"
b100 O#
b11000 c
b10100 ~
b10100 q
b10100 f
b10100 >"
b11 M
b11 G#
b11 A"
b10100 J
b10100 ?"
b11 %
b11 9
b11 T
b11 J"
b1000 '
b1000 7
b1000 3
b1000 ."
b10 N
b10 C"
b10 H#
b10 n#
b10000 K
b10000 @"
b11 4
b11 /"
b1000001100001110110011 -
b1000001100001110110011 >
b1000001100001110110011 d#
b11000 ,
b1000 0
1(
#120000
0(
#125000
b1000 V
b1000 m#
b11000 X
b11000 e#
b11 ,"
b11 D#
b10 E#
1\
b1000 W
b0 y
b0 L#
b1 &"
b1 b"
b110 x
b110 j"
b110 a
b100000 d
b100000 S#
b100000 i#
b100000 "
b100000 v
b100000 j#
b100100 f#
b11 N
b11 C"
b11 H#
b11 n#
b10100 K
b10100 @"
b1000 4
b1000 /"
b100 M
b100 G#
b100 A"
b11000 J
b11000 ?"
b10 '
b10 7
b10 3
b10 ."
b10 2
b10 K"
b10 -"
b0 =
b0 5"
b111 ;
b111 c"
b111 4"
b101 b
b101 B"
b101 O#
b11100 c
b11000 ~
b11000 q
b11000 f
b11000 >"
b11 ^
b11 E"
b11100 e
b11100 W#
b1000001110001100110011 s
b1000001110001100110011 V#
b1000001110001100110011 X#
b1000001100001110110011 r
b1000001100001110110011 T#
b1000001100001110110011 g#
b100000 h#
b1000001001010000010011 -
b1000001001010000010011 >
b1000001001010000010011 d#
b11100 ,
b1001 0
1(
#130000
0(
#135000
b100 ,"
b100 D#
b10 E#
1\
b11100 X
b11100 e#
b10 V
b10 m#
b100100 "
b100100 v
b100100 j#
b100100 d
b100100 S#
b100100 i#
b101000 f#
b100 x
b100 j"
b111 a
b111 &"
b111 b"
b10 W
b100100 h#
b1000001001010000010011 r
b1000001001010000010011 T#
b1000001001010000010011 g#
b100000 e
b100000 W#
b1000001100001110110011 s
b1000001100001110110011 V#
b1000001100001110110011 X#
b11 2
b11 K"
b11 -"
b110 ;
b110 c"
b110 4"
b110 b
b110 B"
b110 O#
b100000 c
b11100 ~
b11100 q
b11100 f
b11100 >"
b111 <
b111 3"
b101 M
b101 G#
b101 A"
b11100 J
b11100 ?"
b1 '
b1 7
b1 3
b1 ."
b100 N
b100 C"
b100 H#
b100 n#
b11000 K
b11000 @"
b10 4
b10 /"
b1000001101010010010011 -
b1000001101010010010011 >
b1000001101010010010011 d#
b100000 ,
b1010 0
1(
#140000
0(
#145000
b1 V
b1 m#
b100000 X
b100000 e#
1$"
b101 ,"
b101 D#
b10 E#
1\
b1 W
b110 &"
b110 b"
b10 t
b10 c#
b10011 Y#
b1 x
b1 j"
b1000 a
b10011 g
b10011 l"
b101000 d
b101000 S#
b101000 i#
b101000 "
b101000 v
b101000 j#
b101100 f#
b101 N
b101 C"
b101 H#
b101 n#
b11100 K
b11100 @"
b1 4
b1 /"
b110 <
b110 3"
b110 M
b110 G#
b110 A"
b100000 J
b100000 ?"
b111 '
b111 7
b111 3
b111 ."
b100 2
b100 K"
b100 -"
b100 ;
b100 c"
b100 4"
b111 b
b111 B"
b111 O#
b100100 c
b100000 ~
b100000 q
b100000 f
b100000 >"
b100100 e
b100100 W#
b1000001001010000010011 s
b1000001001010000010011 V#
b1000001001010000010011 X#
b1000001101010010010011 r
b1000001101010010010011 T#
b1000001101010010010011 g#
b101000 h#
b1000001010010100110011 -
b1000001010010100110011 >
b1000001010010100110011 d#
b100100 ,
b1011 0
1(
#150000
0(
#155000
b110 ,"
b110 D#
b10 E#
1$"
1\
b10 ("
b100110 X
b100110 e#
b111 V
b111 m#
b101100 "
b101100 v
b101100 j#
b101100 d
b101100 S#
b101100 i#
b110000 f#
b101 x
b101 j"
b1001 a
b10100 &"
b10100 b"
b110 ?
b1010 Q"
b10 O"
b1010 P"
b10 )"
b10 N"
b111 W
b101100 h#
b1000001010010100110011 r
b1000001010010100110011 T#
b1000001010010100110011 g#
b101000 e
b101000 W#
b1000001101010010010011 s
b1000001101010010010011 V#
b1000001101010010010011 X#
b10011 h
b10011 ="
b101 2
b101 K"
b101 -"
b1 ;
b1 c"
b1 4"
b1000 b
b1000 B"
b1000 O#
b101000 c
b100100 f
b100100 >"
b100110 ~
b100110 q
b10 u
b10 6"
1%"
b100 <
b100 3"
b111 M
b111 G#
b111 A"
b100100 J
b100100 ?"
b110 '
b110 7
b110 3
b110 ."
b110 N
b110 C"
b110 H#
b110 n#
b100000 K
b100000 @"
b111 4
b111 /"
b100010010010110010011 -
b100010010010110010011 >
b100010010010110010011 d#
b101000 ,
b1100 0
1(
#160000
0(
#165000
b110 V
b110 m#
b101010 X
b101010 e#
b1000 ,"
b1000 D#
b10 E#
0$"
1\
b110 W
b1 &"
b1 b"
b0 t
b0 c#
b110011 Y#
b10 x
b10 j"
b1010 a
b110011 g
b110011 l"
b110000 d
b110000 S#
b110000 i#
b110000 "
b110000 v
b110000 j#
b110100 f#
b111 N
b111 C"
b111 H#
b111 n#
b100100 K
b100100 @"
b110 4
b110 /"
b1 <
b1 3"
b1000 M
b1000 G#
b1000 A"
b101000 J
b101000 ?"
b10100 '
b10100 7
b10100 3
b10100 ."
b110 2
b110 K"
b110 -"
b101 ;
b101 c"
b101 4"
b1001 b
b1001 B"
b1001 O#
b101100 c
b101010 ~
b101010 q
b101000 f
b101000 >"
b101100 e
b101100 W#
b1000001010010100110011 s
b1000001010010100110011 V#
b1000001010010100110011 X#
b100010010010110010011 r
b100010010010110010011 T#
b100010010010110010011 g#
b110000 h#
b100000010000000100011 -
b100000010000000100011 >
b100000010000000100011 d#
b101100 ,
b1101 0
1(
#170000
0(
#175000
b101 ]
b101 o#
b11 _
b11 p#
1$"
b1000 ,"
b1000 D#
b10 E#
1\
b0 ("
b101100 X
b101100 e#
b10100 V
b10100 m#
b110100 "
b110100 v
b110100 j#
b110100 d
b110100 S#
b110100 i#
b111000 f#
b1 t
b1 c#
b10011 Y#
b1 Z
b1 Q#
b1 l#
b10 [
b10 P#
b10 k#
b1011 a
b10011 g
b10011 l"
1U
b0 &"
b0 b"
b100 ?
b1111 Q"
b11 O"
b1111 P"
b11 )"
b11 N"
b10100 W
b110100 h#
b100000010000000100011 r
b100000010000000100011 T#
b100000010000000100011 g#
b110000 e
b110000 W#
b100010010010110010011 s
b100010010010110010011 V#
b100010010010110010011 X#
b110011 h
b110011 ="
b1000 2
b1000 K"
b1000 -"
b10 ;
b10 c"
b10 4"
b1010 b
b1010 B"
b1010 O#
b110000 c
b101100 f
b101100 >"
b101100 ~
b101100 q
b0 u
b0 6"
0%"
b101 <
b101 3"
b1001 M
b1001 G#
b1001 A"
b101100 J
b101100 ?"
b1 '
b1 7
b1 3
b1 ."
b1000 N
b1000 C"
b1000 H#
b1000 n#
b101000 K
b101000 @"
b10100 4
b10100 /"
b1000000001001000100011 -
b1000000001001000100011 >
b1000000001001000100011 d#
b110000 ,
b1110 0
1(
#180000
0(
