cpu/tb_dmem_access_unit.vcd
$date
	Thu Jan 22 06:49:45 2026
$end
$version
	Icarus Verilog
$end
$timescale
	1ps
$end
$scope module tb_dmem_access_unit $end
$var wire 32 ! M_AXI_ARADDR [31:0] $end
$var wire 3 " M_AXI_ARPROT [2:0] $end
$var wire 1 # M_AXI_ARVALID $end
$var wire 32 $ M_AXI_AWADDR [31:0] $end
$var wire 3 % M_AXI_AWPROT [2:0] $end
$var wire 1 & M_AXI_AWVALID $end
$var wire 1 ' M_AXI_BREADY $end
$var wire 1 ( M_AXI_RREADY $end
$var wire 32 ) M_AXI_WDATA [31:0] $end
$var wire 4 * M_AXI_WSTRB [3:0] $end
$var wire 1 + M_AXI_WVALID $end
$var wire 1 , mem_error $end
$var wire 32 - mem_rdata [31:0] $end
$var wire 1 . mem_ready $end
$var reg 1 / M_AXI_ARREADY $end
$var reg 1 0 M_AXI_AWREADY $end
$var reg 2 1 M_AXI_BRESP [1:0] $end
$var reg 1 2 M_AXI_BVALID $end
$var reg 32 3 M_AXI_RDATA [31:0] $end
$var reg 2 4 M_AXI_RRESP [1:0] $end
$var reg 1 5 M_AXI_RVALID $end
$var reg 1 6 M_AXI_WREADY $end
$var reg 32 7 ar_addr_latch [31:0] $end
$var reg 32 8 aw_addr_latch [31:0] $end
$var reg 1 9 aw_received $end
$var reg 1 : clk $end
$var reg 1 ; debug_enable $end
$var integer 32 < fail_count [31:0] $end
$var integer 32 = i [31:0] $end
$var reg 32 > mem_addr [31:0] $end
$var reg 1 ? mem_req $end
$var reg 32 @ mem_wdata [31:0] $end
$var reg 1 A mem_wr $end
$var reg 4 B mem_wstrb [3:0] $end
$var integer 32 C pass_count [31:0] $end
$var reg 1 D rst_n $end
$var integer 32 E test_num [31:0] $end
$scope module dut $end
$var wire 32 F M_AXI_ARADDR [31:0] $end
$var wire 3 G M_AXI_ARPROT [2:0] $end
$var wire 1 H M_AXI_ARREADY $end
$var wire 1 # M_AXI_ARVALID $end
$var wire 32 I M_AXI_AWADDR [31:0] $end
$var wire 3 J M_AXI_AWPROT [2:0] $end
$var wire 1 K M_AXI_AWREADY $end
$var wire 1 & M_AXI_AWVALID $end
$var wire 1 ' M_AXI_BREADY $end
$var wire 2 L M_AXI_BRESP [1:0] $end
$var wire 1 M M_AXI_BVALID $end
$var wire 32 N M_AXI_RDATA [31:0] $end
$var wire 1 ( M_AXI_RREADY $end
$var wire 2 O M_AXI_RRESP [1:0] $end
$var wire 1 P M_AXI_RVALID $end
$var wire 32 Q M_AXI_WDATA [31:0] $end
$var wire 1 R M_AXI_WREADY $end
$var wire 4 S M_AXI_WSTRB [3:0] $end
$var wire 1 + M_AXI_WVALID $end
$var wire 1 T axi_cpu_error $end
$var wire 32 U axi_cpu_rdata [31:0] $end
$var wire 1 V axi_cpu_ready $end
$var wire 1 W clk $end
$var wire 32 X mem_addr [31:0] $end
$var wire 1 Y mem_req $end
$var wire 32 Z mem_wdata [31:0] $end
$var wire 1 [ mem_wr $end
$var wire 4 \ mem_wstrb [3:0] $end
$var wire 1 ] rst_n $end
$var reg 32 ^ axi_cpu_addr [31:0] $end
$var reg 1 _ axi_cpu_req $end
$var reg 32 ` axi_cpu_wdata [31:0] $end
$var reg 1 a axi_cpu_wr $end
$var reg 4 b axi_cpu_wstrb [3:0] $end
$var reg 32 c mem_addr_reg [31:0] $end
$var reg 1 d mem_error $end
$var reg 32 e mem_rdata [31:0] $end
$var reg 1 f mem_ready $end
$var reg 1 g mem_req_pending $end
$var reg 32 h mem_wdata_reg [31:0] $end
$var reg 1 i mem_wr_reg $end
$var reg 4 j mem_wstrb_reg [3:0] $end
$var reg 2 k next_state [1:0] $end
$var reg 2 l state [1:0] $end
$scope module axi_master $end
$var wire 3 m M_AXI_ARPROT [2:0] $end
$var wire 1 H M_AXI_ARREADY $end
$var wire 3 n M_AXI_AWPROT [2:0] $end
$var wire 1 K M_AXI_AWREADY $end
$var wire 2 o M_AXI_BRESP [1:0] $end
$var wire 1 M M_AXI_BVALID $end
$var wire 32 p M_AXI_RDATA [31:0] $end
$var wire 2 q M_AXI_RRESP [1:0] $end
$var wire 1 P M_AXI_RVALID $end
$var wire 1 R M_AXI_WREADY $end
$var wire 1 W clk $end
$var wire 32 r cpu_addr [31:0] $end
$var wire 1 s cpu_req $end
$var wire 32 t cpu_wdata [31:0] $end
$var wire 1 u cpu_wr $end
$var wire 4 v cpu_wstrb [3:0] $end
$var wire 1 ] rst_n $end
$var reg 32 w M_AXI_ARADDR [31:0] $end
$var reg 1 x M_AXI_ARVALID $end
$var reg 32 y M_AXI_AWADDR [31:0] $end
$var reg 1 z M_AXI_AWVALID $end
$var reg 1 { M_AXI_BREADY $end
$var reg 1 | M_AXI_RREADY $end
$var reg 32 } M_AXI_WDATA [31:0] $end
$var reg 4 ~ M_AXI_WSTRB [3:0] $end
$var reg 1 !" M_AXI_WVALID $end
$var reg 32 "" addr_reg [31:0] $end
$var reg 1 #" cpu_error $end
$var reg 32 $" cpu_rdata [31:0] $end
$var reg 1 %" cpu_ready $end
$var reg 3 &" next_state [2:0] $end
$var reg 1 '" req_pending $end
$var reg 3 (" state [2:0] $end
$var reg 32 )" wdata_reg [31:0] $end
$var reg 1 *" wr_reg $end
$var reg 4 +" wstrb_reg [3:0] $end
$upscope $end
$upscope $end
$scope begin consecutive_ops $end
$var integer 32 ," errors [31:0] $end
$var integer 32 -" i [31:0] $end
$upscope $end
$upscope $end
$enddefinitions $end
#0
$dumpvars
bx -"
bx ,"
b0 +"
0*"
b0 )"
b0 ("
0'"
b0 &"
0%"
b0 $"
0#"
b0 ""
0!"
b0 ~
b0 }
0|
0{
0z
b0 y
0x
b0 w
b0 v
0u
b0 t
0s
b0 r
b0 q
b0 p
b0 o
b0 n
b0 m
b0 l
b0 k
b0 j
0i
b0 h
0g
0f
b0 e
0d
b0 c
b0 b
0a
b0 `
0_
b0 ^
0]
b0 \
0[
b0 Z
0Y
b0 X
0W
0V
b0 U
0T
b0 S
0R
b0 Q
0P
b0 O
b0 N
0M
b0 L
0K
b0 J
b0 I
0H
b0 G
b0 F
b0 E
0D
b0 C
b0 B
0A
b0 @
0?
b0 >
b100000000 =
b0 <
0;
0:
09
bx 8
bx 7
06
05
b0 4
b0 3
02
b0 1
00
0/
0.
b0 -
0,
0+
b0 *
b0 )
0(
0'
0&
b0 %
b0 $
0#
b0 "
b0 !
$end
#5000
1:
1W
#10000
0:
0W
#15000
1:
1W
#20000
0:
0W
1D
1]
#25000
1:
1W
#30000
0:
0W
#35000
1:
1W
#40000
0:
0W
1;
b1 E
#45000
b1 k
1a
1u
b1111 b
b1111 v
b11011110101011011011111011101111 `
b11011110101011011011111011101111 t
1g
1i
b1111 j
b11011110101011011011111011101111 h
1A
1[
1?
1Y
b1111 B
b1111 \
b11011110101011011011111011101111 @
b11011110101011011011111011101111 Z
1:
1W
#50000
0:
0W
#55000
1_
1s
b10 k
b1 l
0?
0Y
1:
1W
#60000
0:
0W
#65000
0_
0s
b1 &"
b10 l
1'"
1*"
b1111 +"
b11011110101011011011111011101111 )"
1:
1W
#70000
0:
0W
#75000
b1 ("
1z
1&
1!"
1+
b1111 ~
b1111 *
b1111 S
b11011110101011011011111011101111 }
b11011110101011011011111011101111 )
b11011110101011011011111011101111 Q
1:
1W
#80000
0:
0W
#85000
b10 &"
19
b0 8
10
1K
1:
1W
#90000
0:
0W
#95000
b11 &"
b10 ("
0z
0&
16
1R
00
0K
1:
1W
#100000
0:
0W
#105000
b0 &"
0!"
0+
b11 ("
12
1M
09
06
0R
1:
1W
#110000
0:
0W
#115000
b0 k
b0 ("
0'"
1{
1'
1%"
1V
1:
1W
#120000
0:
0W
#125000
1f
1.
0g
b0 l
0%"
0V
0{
0'
02
0M
1:
1W
#130000
0:
0W
#135000
0f
0.
0;
b1 C
1:
1W
#140000
0:
0W
#145000
1:
1W
#150000
0:
0W
#155000
1:
1W
#160000
0:
0W
#165000
1:
1W
#170000
0:
0W
#175000
1:
1W
#180000
0:
0W
#185000
b1 k
0a
0u
1g
0i
0A
0[
1?
1Y
1:
1W
b10 E
#190000
0:
0W
#195000
1_
1s
b10 k
b1 l
0?
0Y
1:
1W
#200000
0:
0W
#205000
0_
0s
b100 &"
b10 l
1'"
0*"
1:
1W
#210000
0:
0W
#215000
b100 ("
1x
1#
1:
1W
#220000
0:
0W
#225000
b101 &"
b0 7
1/
1H
1:
1W
#230000
0:
0W
#235000
b0 &"
b101 ("
0x
0#
15
1P
b11011110101011011011111011101111 3
b11011110101011011011111011101111 N
b11011110101011011011111011101111 p
0/
0H
1:
1W
#240000
0:
0W
#245000
b0 k
b11011110101011011011111011101111 $"
b11011110101011011011111011101111 U
1%"
1V
1|
1(
0'"
b0 ("
1:
1W
#250000
0:
0W
#255000
0|
0(
0%"
0V
b0 l
0g
b11011110101011011011111011101111 e
b11011110101011011011111011101111 -
1f
1.
05
0P
1:
1W
#260000
0:
0W
#265000
0f
0.
b10 C
1:
1W
#270000
0:
0W
#275000
1:
1W
#280000
0:
0W
#285000
1:
1W
#290000
0:
0W
#295000
1:
1W
#300000
0:
0W
#305000
1:
1W
#310000
0:
0W
#315000
b1 k
1a
1u
b11001010111111101011101010111110 `
b11001010111111101011101010111110 t
b10000 ^
b10000 r
1g
1i
b11001010111111101011101010111110 h
b10000 c
1A
1[
1?
1Y
b11001010111111101011101010111110 @
b11001010111111101011101010111110 Z
b10000 >
b10000 X
1:
1W
b11 E
#320000
0:
0W
#325000
1_
1s
b10 k
b1 l
0?
0Y
1:
1W
#330000
0:
0W
#335000
b1 &"
0_
0s
1'"
1*"
b11001010111111101011101010111110 )"
b10000 ""
b10 l
1:
1W
#340000
0:
0W
#345000
1!"
1+
b11001010111111101011101010111110 }
b11001010111111101011101010111110 )
b11001010111111101011101010111110 Q
1z
1&
b10000 y
b10000 $
b10000 I
b1 ("
1:
1W
#350000
0:
0W
#355000
b10 &"
19
b10000 8
10
1K
1:
1W
#360000
0:
0W
#365000
b11 &"
0z
0&
b10 ("
00
0K
16
1R
1:
1W
#370000
0:
0W
#375000
b0 &"
b11 ("
0!"
0+
12
1M
09
06
0R
1:
1W
#380000
0:
0W
#385000
b0 k
1%"
1V
1{
1'
0'"
b0 ("
1:
1W
#390000
0:
0W
#395000
0{
0'
0%"
0V
b0 l
0g
1f
1.
02
0M
1:
1W
#400000
0:
0W
#405000
0f
0.
1:
1W
#410000
0:
0W
#415000
1:
1W
#420000
0:
0W
#425000
b1 k
0a
0u
1g
0i
0A
0[
1?
1Y
1:
1W
#430000
0:
0W
#435000
1_
1s
b10 k
b1 l
0?
0Y
1:
1W
#440000
0:
0W
#445000
0_
0s
b100 &"
b10 l
1'"
0*"
1:
1W
#450000
0:
0W
#455000
b100 ("
1x
1#
b10000 w
b10000 !
b10000 F
1:
1W
#460000
0:
0W
#465000
b101 &"
b10000 7
1/
1H
1:
1W
#470000
0:
0W
#475000
b0 &"
b101 ("
0x
0#
15
1P
b11001010111111101011101010111110 3
b11001010111111101011101010111110 N
b11001010111111101011101010111110 p
0/
0H
1:
1W
#480000
0:
0W
#485000
b0 k
b11001010111111101011101010111110 $"
b11001010111111101011101010111110 U
1%"
1V
1|
1(
0'"
b0 ("
1:
1W
#490000
0:
0W
#495000
0|
0(
0%"
0V
b0 l
0g
b11001010111111101011101010111110 e
b11001010111111101011101010111110 -
1f
1.
05
0P
1:
1W
#500000
0:
0W
#505000
0f
0.
b11 C
1:
1W
#510000
0:
0W
#515000
1:
1W
#520000
0:
0W
#525000
1:
1W
#530000
0:
0W
#535000
1:
1W
#540000
0:
0W
#545000
1:
1W
#550000
0:
0W
#555000
b1 k
1a
1u
b10010001101000101011001111000 `
b10010001101000101011001111000 t
b100000 ^
b100000 r
1g
1i
b10010001101000101011001111000 h
b100000 c
1A
1[
1?
1Y
b10010001101000101011001111000 @
b10010001101000101011001111000 Z
b100000 >
b100000 X
1:
1W
b100 E
#560000
0:
0W
#565000
1_
1s
b10 k
b1 l
0?
0Y
1:
1W
#570000
0:
0W
#575000
b1 &"
0_
0s
1'"
1*"
b10010001101000101011001111000 )"
b100000 ""
b10 l
1:
1W
#580000
0:
0W
#585000
1!"
1+
b10010001101000101011001111000 }
b10010001101000101011001111000 )
b10010001101000101011001111000 Q
1z
1&
b100000 y
b100000 $
b100000 I
b1 ("
1:
1W
#590000
0:
0W
#595000
b10 &"
19
b100000 8
10
1K
1:
1W
#600000
0:
0W
#605000
b11 &"
0z
0&
b10 ("
00
0K
16
1R
1:
1W
#610000
0:
0W
#615000
b0 &"
b11 ("
0!"
0+
12
1M
09
06
0R
1:
1W
#620000
0:
0W
#625000
b0 k
1%"
1V
1{
1'
0'"
b0 ("
1:
1W
#630000
0:
0W
#635000
0{
0'
0%"
0V
b0 l
0g
1f
1.
02
0M
1:
1W
#640000
0:
0W
#645000
0f
0.
1:
1W
#650000
0:
0W
#655000
1:
1W
#660000
0:
0W
#665000
b1 k
b1 b
b1 v
b10101011 `
b10101011 t
1g
b1 j
b10101011 h
1?
1Y
b1 B
b1 \
b10101011 @
b10101011 Z
1:
1W
#670000
0:
0W
#675000
1_
1s
b10 k
b1 l
0?
0Y
1:
1W
#680000
0:
0W
#685000
0_
0s
b1 &"
b10 l
1'"
b1 +"
b10101011 )"
1:
1W
#690000
0:
0W
#695000
b1 ("
1z
1&
1!"
1+
b1 ~
b1 *
b1 S
b10101011 }
b10101011 )
b10101011 Q
1:
1W
#700000
0:
0W
#705000
b10 &"
19
10
1K
1:
1W
#710000
0:
0W
#715000
b11 &"
b10 ("
0z
0&
16
1R
00
0K
1:
1W
#720000
0:
0W
#725000
b0 &"
0!"
0+
b11 ("
12
1M
09
06
0R
1:
1W
#730000
0:
0W
#735000
b0 k
b0 ("
0'"
1{
1'
1%"
1V
1:
1W
#740000
0:
0W
#745000
1f
1.
0g
b0 l
0%"
0V
0{
0'
02
0M
1:
1W
#750000
0:
0W
#755000
0f
0.
1:
1W
#760000
0:
0W
#765000
1:
1W
#770000
0:
0W
#775000
b1 k
0a
0u
1g
0i
0A
0[
1?
1Y
1:
1W
#780000
0:
0W
#785000
1_
1s
b10 k
b1 l
0?
0Y
1:
1W
#790000
0:
0W
#795000
b100 &"
0_
0s
1'"
0*"
b10 l
1:
1W
#800000
0:
0W
#805000
1x
1#
b100000 w
b100000 !
b100000 F
b100 ("
1:
1W
#810000
0:
0W
#815000
b101 &"
b100000 7
1/
1H
1:
1W
#820000
0:
0W
#825000
b0 &"
0x
0#
b101 ("
15
1P
b10010001101000101011010101011 3
b10010001101000101011010101011 N
b10010001101000101011010101011 p
0/
0H
1:
1W
#830000
0:
0W
#835000
b0 k
b0 ("
0'"
1|
1(
1%"
1V
b10010001101000101011010101011 $"
b10010001101000101011010101011 U
1:
1W
#840000
0:
0W
#845000
b10010001101000101011010101011 e
b10010001101000101011010101011 -
1f
1.
0g
b0 l
0%"
0V
0|
0(
05
0P
1:
1W
#850000
0:
0W
#855000
0f
0.
b100 C
1:
1W
#860000
0:
0W
#865000
1:
1W
#870000
0:
0W
#875000
1:
1W
#880000
0:
0W
#885000
1:
1W
#890000
0:
0W
#895000
1:
1W
#900000
0:
0W
#905000
b1 k
1a
1u
b1111 b
b1111 v
b10100000000000000000000000000000 `
b10100000000000000000000000000000 t
b0 ^
b0 r
1g
1i
b1111 j
b10100000000000000000000000000000 h
b0 c
1A
1[
1?
1Y
b1111 B
b1111 \
b10100000000000000000000000000000 @
b10100000000000000000000000000000 Z
b0 >
b0 X
1:
1W
b0 -"
b0 ,"
b101 E
#910000
0:
0W
#915000
1_
1s
b10 k
b1 l
0?
0Y
1:
1W
#920000
0:
0W
#925000
0_
0s
b1 &"
b10 l
1'"
1*"
b1111 +"
b10100000000000000000000000000000 )"
b0 ""
1:
1W
#930000
0:
0W
#935000
b1 ("
1z
1&
b0 y
b0 $
b0 I
1!"
1+
b1111 ~
b1111 *
b1111 S
b10100000000000000000000000000000 }
b10100000000000000000000000000000 )
b10100000000000000000000000000000 Q
1:
1W
#940000
0:
0W
#945000
b10 &"
19
b0 8
10
1K
1:
1W
#950000
0:
0W
#955000
b11 &"
b10 ("
0z
0&
16
1R
00
0K
1:
1W
#960000
0:
0W
#965000
b0 &"
0!"
0+
b11 ("
12
1M
09
06
0R
1:
1W
#970000
0:
0W
#975000
b0 k
b0 ("
0'"
1{
1'
1%"
1V
1:
1W
#980000
0:
0W
#985000
1f
1.
0g
b0 l
0%"
0V
0{
0'
02
0M
1:
1W
#990000
0:
0W
#995000
0f
0.
1:
1W
#1000000
0:
0W
#1005000
b1 k
b10100000000000000000000000000001 `
b10100000000000000000000000000001 t
b100 ^
b100 r
1g
b10100000000000000000000000000001 h
b100 c
1?
1Y
b10100000000000000000000000000001 @
b10100000000000000000000000000001 Z
b100 >
b100 X
1:
1W
b1 -"
#1010000
0:
0W
#1015000
1_
1s
b10 k
b1 l
0?
0Y
1:
1W
#1020000
0:
0W
#1025000
0_
0s
b1 &"
b10 l
1'"
b10100000000000000000000000000001 )"
b100 ""
1:
1W
#1030000
0:
0W
#1035000
b1 ("
1z
1&
b100 y
b100 $
b100 I
1!"
1+
b10100000000000000000000000000001 }
b10100000000000000000000000000001 )
b10100000000000000000000000000001 Q
1:
1W
#1040000
0:
0W
#1045000
b10 &"
19
b100 8
10
1K
1:
1W
#1050000
0:
0W
#1055000
b11 &"
b10 ("
0z
0&
16
1R
00
0K
1:
1W
#1060000
0:
0W
#1065000
b0 &"
0!"
0+
b11 ("
12
1M
09
06
0R
1:
1W
#1070000
0:
0W
#1075000
b0 k
b0 ("
0'"
1{
1'
1%"
1V
1:
1W
#1080000
0:
0W
#1085000
1f
1.
0g
b0 l
0%"
0V
0{
0'
02
0M
1:
1W
#1090000
0:
0W
#1095000
0f
0.
1:
1W
#1100000
0:
0W
#1105000
b1 k
b10100000000000000000000000000010 `
b10100000000000000000000000000010 t
b1000 ^
b1000 r
1g
b10100000000000000000000000000010 h
b1000 c
1?
1Y
b10100000000000000000000000000010 @
b10100000000000000000000000000010 Z
b1000 >
b1000 X
1:
1W
b10 -"
#1110000
0:
0W
#1115000
1_
1s
b10 k
b1 l
0?
0Y
1:
1W
#1120000
0:
0W
#1125000
0_
0s
b1 &"
b10 l
1'"
b10100000000000000000000000000010 )"
b1000 ""
1:
1W
#1130000
0:
0W
#1135000
b1 ("
1z
1&
b1000 y
b1000 $
b1000 I
1!"
1+
b10100000000000000000000000000010 }
b10100000000000000000000000000010 )
b10100000000000000000000000000010 Q
1:
1W
#1140000
0:
0W
#1145000
b10 &"
19
b1000 8
10
1K
1:
1W
#1150000
0:
0W
#1155000
b11 &"
b10 ("
0z
0&
16
1R
00
0K
1:
1W
#1160000
0:
0W
#1165000
b0 &"
0!"
0+
b11 ("
12
1M
09
06
0R
1:
1W
#1170000
0:
0W
#1175000
b0 k
b0 ("
0'"
1{
1'
1%"
1V
1:
1W
#1180000
0:
0W
#1185000
1f
1.
0g
b0 l
0%"
0V
0{
0'
02
0M
1:
1W
#1190000
0:
0W
#1195000
0f
0.
1:
1W
#1200000
0:
0W
#1205000
b1 k
b10100000000000000000000000000011 `
b10100000000000000000000000000011 t
b1100 ^
b1100 r
1g
b10100000000000000000000000000011 h
b1100 c
1?
1Y
b10100000000000000000000000000011 @
b10100000000000000000000000000011 Z
b1100 >
b1100 X
1:
1W
b11 -"
#1210000
0:
0W
#1215000
1_
1s
b10 k
b1 l
0?
0Y
1:
1W
#1220000
0:
0W
#1225000
0_
0s
b1 &"
b10 l
1'"
b10100000000000000000000000000011 )"
b1100 ""
1:
1W
#1230000
0:
0W
#1235000
b1 ("
1z
1&
b1100 y
b1100 $
b1100 I
1!"
1+
b10100000000000000000000000000011 }
b10100000000000000000000000000011 )
b10100000000000000000000000000011 Q
1:
1W
#1240000
0:
0W
#1245000
b10 &"
19
b1100 8
10
1K
1:
1W
#1250000
0:
0W
#1255000
b11 &"
b10 ("
0z
0&
16
1R
00
0K
1:
1W
#1260000
0:
0W
#1265000
b0 &"
0!"
0+
b11 ("
12
1M
09
06
0R
1:
1W
#1270000
0:
0W
#1275000
b0 k
b0 ("
0'"
1{
1'
1%"
1V
1:
1W
#1280000
0:
0W
#1285000
1f
1.
0g
b0 l
0%"
0V
0{
0'
02
0M
1:
1W
#1290000
0:
0W
#1295000
0f
0.
1:
1W
#1300000
0:
0W
#1305000
b1 k
b10100000000000000000000000000100 `
b10100000000000000000000000000100 t
b10000 ^
b10000 r
1g
b10100000000000000000000000000100 h
b10000 c
1?
1Y
b10100000000000000000000000000100 @
b10100000000000000000000000000100 Z
b10000 >
b10000 X
1:
1W
b100 -"
#1310000
0:
0W
#1315000
1_
1s
b10 k
b1 l
0?
0Y
1:
1W
#1320000
0:
0W
#1325000
0_
0s
b1 &"
b10 l
1'"
b10100000000000000000000000000100 )"
b10000 ""
1:
1W
#1330000
0:
0W
#1335000
b1 ("
1z
1&
b10000 y
b10000 $
b10000 I
1!"
1+
b10100000000000000000000000000100 }
b10100000000000000000000000000100 )
b10100000000000000000000000000100 Q
1:
1W
#1340000
0:
0W
#1345000
b10 &"
19
b10000 8
10
1K
1:
1W
#1350000
0:
0W
#1355000
b11 &"
b10 ("
0z
0&
16
1R
00
0K
1:
1W
#1360000
0:
0W
#1365000
b0 &"
0!"
0+
b11 ("
12
1M
09
06
0R
1:
1W
#1370000
0:
0W
#1375000
b0 k
b0 ("
0'"
1{
1'
1%"
1V
1:
1W
#1380000
0:
0W
#1385000
1f
1.
0g
b0 l
0%"
0V
0{
0'
02
0M
1:
1W
#1390000
0:
0W
#1395000
0f
0.
1:
1W
#1400000
0:
0W
#1405000
b1 k
0a
0u
b0 ^
b0 r
1g
0i
b0 c
0A
0[
1?
1Y
b0 >
b0 X
1:
1W
b0 -"
#1410000
0:
0W
#1415000
1_
1s
b10 k
b1 l
0?
0Y
1:
1W
#1420000
0:
0W
#1425000
0_
0s
b100 &"
b10 l
1'"
0*"
b0 ""
1:
1W
#1430000
0:
0W
#1435000
b100 ("
1x
1#
b0 w
b0 !
b0 F
1:
1W
#1440000
0:
0W
#1445000
b101 &"
b0 7
1/
1H
1:
1W
#1450000
0:
0W
#1455000
b0 &"
b101 ("
0x
0#
15
1P
b10100000000000000000000000000000 3
b10100000000000000000000000000000 N
b10100000000000000000000000000000 p
0/
0H
1:
1W
#1460000
0:
0W
#1465000
b0 k
b10100000000000000000000000000000 $"
b10100000000000000000000000000000 U
1%"
1V
1|
1(
0'"
b0 ("
1:
1W
#1470000
0:
0W
#1475000
0|
0(
0%"
0V
b0 l
0g
b10100000000000000000000000000000 e
b10100000000000000000000000000000 -
1f
1.
05
0P
1:
1W
#1480000
0:
0W
#1485000
0f
0.
1:
1W
#1490000
0:
0W
#1495000
1:
1W
#1500000
0:
0W
#1505000
b1 k
b100 ^
b100 r
1g
b100 c
1?
1Y
b100 >
b100 X
1:
1W
b1 -"
#1510000
0:
0W
#1515000
1_
1s
b10 k
b1 l
0?
0Y
1:
1W
#1520000
0:
0W
#1525000
0_
0s
b100 &"
b10 l
1'"
b100 ""
1:
1W
#1530000
0:
0W
#1535000
b100 ("
1x
1#
b100 w
b100 !
b100 F
1:
1W
#1540000
0:
0W
#1545000
b101 &"
b100 7
1/
1H
1:
1W
#1550000
0:
0W
#1555000
b0 &"
b101 ("
0x
0#
15
1P
b10100000000000000000000000000001 3
b10100000000000000000000000000001 N
b10100000000000000000000000000001 p
0/
0H
1:
1W
#1560000
0:
0W
#1565000
b0 k
b10100000000000000000000000000001 $"
b10100000000000000000000000000001 U
1%"
1V
1|
1(
0'"
b0 ("
1:
1W
#1570000
0:
0W
#1575000
0|
0(
0%"
0V
b0 l
0g
b10100000000000000000000000000001 e
b10100000000000000000000000000001 -
1f
1.
05
0P
1:
1W
#1580000
0:
0W
#1585000
0f
0.
1:
1W
#1590000
0:
0W
#1595000
1:
1W
#1600000
0:
0W
#1605000
b1 k
b1000 ^
b1000 r
1g
b1000 c
1?
1Y
b1000 >
b1000 X
1:
1W
b10 -"
#1610000
0:
0W
#1615000
1_
1s
b10 k
b1 l
0?
0Y
1:
1W
#1620000
0:
0W
#1625000
0_
0s
b100 &"
b10 l
1'"
b1000 ""
1:
1W
#1630000
0:
0W
#1635000
b100 ("
1x
1#
b1000 w
b1000 !
b1000 F
1:
1W
#1640000
0:
0W
#1645000
b101 &"
b1000 7
1/
1H
1:
1W
#1650000
0:
0W
#1655000
b0 &"
b101 ("
0x
0#
15
1P
b10100000000000000000000000000010 3
b10100000000000000000000000000010 N
b10100000000000000000000000000010 p
0/
0H
1:
1W
#1660000
0:
0W
#1665000
b0 k
b10100000000000000000000000000010 $"
b10100000000000000000000000000010 U
1%"
1V
1|
1(
0'"
b0 ("
1:
1W
#1670000
0:
0W
#1675000
0|
0(
0%"
0V
b0 l
0g
b10100000000000000000000000000010 e
b10100000000000000000000000000010 -
1f
1.
05
0P
1:
1W
#1680000
0:
0W
#1685000
0f
0.
1:
1W
#1690000
0:
0W
#1695000
1:
1W
#1700000
0:
0W
#1705000
b1 k
b1100 ^
b1100 r
1g
b1100 c
1?
1Y
b1100 >
b1100 X
1:
1W
b11 -"
#1710000
0:
0W
#1715000
1_
1s
b10 k
b1 l
0?
0Y
1:
1W
#1720000
0:
0W
#1725000
0_
0s
b100 &"
b10 l
1'"
b1100 ""
1:
1W
#1730000
0:
0W
#1735000
b100 ("
1x
1#
b1100 w
b1100 !
b1100 F
1:
1W
#1740000
0:
0W
#1745000
b101 &"
b1100 7
1/
1H
1:
1W
#1750000
0:
0W
#1755000
b0 &"
b101 ("
0x
0#
15
1P
b10100000000000000000000000000011 3
b10100000000000000000000000000011 N
b10100000000000000000000000000011 p
0/
0H
1:
1W
#1760000
0:
0W
#1765000
b0 k
b10100000000000000000000000000011 $"
b10100000000000000000000000000011 U
1%"
1V
1|
1(
0'"
b0 ("
1:
1W
#1770000
0:
0W
#1775000
0|
0(
0%"
0V
b0 l
0g
b10100000000000000000000000000011 e
b10100000000000000000000000000011 -
1f
1.
05
0P
1:
1W
#1780000
0:
0W
#1785000
0f
0.
1:
1W
#1790000
0:
0W
#1795000
1:
1W
#1800000
0:
0W
#1805000
b1 k
b10000 ^
b10000 r
1g
b10000 c
1?
1Y
b10000 >
b10000 X
1:
1W
b100 -"
#1810000
0:
0W
#1815000
1_
1s
b10 k
b1 l
0?
0Y
1:
1W
#1820000
0:
0W
#1825000
0_
0s
b100 &"
b10 l
1'"
b10000 ""
1:
1W
#1830000
0:
0W
#1835000
b100 ("
1x
1#
b10000 w
b10000 !
b10000 F
1:
1W
#1840000
0:
0W
#1845000
b101 &"
b10000 7
1/
1H
1:
1W
#1850000
0:
0W
#1855000
b0 &"
b101 ("
0x
0#
15
1P
b10100000000000000000000000000100 3
b10100000000000000000000000000100 N
b10100000000000000000000000000100 p
0/
0H
1:
1W
#1860000
0:
0W
#1865000
b0 k
b10100000000000000000000000000100 $"
b10100000000000000000000000000100 U
1%"
1V
1|
1(
0'"
b0 ("
1:
1W
#1870000
0:
0W
#1875000
0|
0(
0%"
0V
b0 l
0g
b10100000000000000000000000000100 e
b10100000000000000000000000000100 -
1f
1.
05
0P
1:
1W
#1880000
0:
0W
#1885000
0f
0.
1:
1W
#1890000
0:
0W
#1895000
1:
1W
#1900000
0:
0W
#1905000
1:
1W
b101 C
b101 -"
