cpu_riscv/riscv5stagedemo/waveform.vcd
$date
	Tue Dec 23 14:19:25 2025
$end
$version
	Icarus Verilog
$end
$timescale
	1ps
$end
$scope module testbench $end
$var wire 1 ! stall $end
$var wire 32 " pc_current [31:0] $end
$var wire 32 # mem_out [31:0] $end
$var wire 32 $ instruction_current [31:0] $end
$var wire 2 % forward_b [1:0] $end
$var wire 2 & forward_a [1:0] $end
$var wire 32 ' branch_target [31:0] $end
$var wire 1 ( branch_taken $end
$var wire 32 ) alu_result [31:0] $end
$var reg 1 * clock $end
$var reg 32 + prev_instr [31:0] $end
$var reg 32 , prev_pc [31:0] $end
$var reg 1 - program_finished $end
$var reg 1 . reset $end
$var integer 32 / cycle_count [31:0] $end
$var integer 32 0 cycle_counter [31:0] $end
$var integer 32 1 debug_mode [31:0] $end
$var integer 32 2 instr_count [31:0] $end
$var integer 32 3 loop_detect_threshold [31:0] $end
$var integer 32 4 match_count_2 [31:0] $end
$var integer 32 5 match_count_3 [31:0] $end
$var integer 32 6 match_count_4 [31:0] $end
$var integer 32 7 pc_idx [31:0] $end
$var integer 32 8 stable_cycles [31:0] $end
$scope module dut $end
$var wire 4 9 alu_control_ex [3:0] $end
$var wire 32 : alu_result_debug [31:0] $end
$var wire 1 ( branch_taken_debug $end
$var wire 1 ; branch_taken_detected $end
$var wire 1 < branch_taken_reg $end
$var wire 32 = branch_target_debug [31:0] $end
$var wire 32 > branch_target_reg [31:0] $end
$var wire 2 ? byte_size_ex [1:0] $end
$var wire 1 * clock $end
$var wire 2 @ forward_a_debug [1:0] $end
$var wire 2 A forward_b_debug [1:0] $end
$var wire 32 B instruction_current [31:0] $end
$var wire 32 C mem_out_debug [31:0] $end
$var wire 32 D pc_current [31:0] $end
$var wire 5 E rd_mem [4:0] $end
$var wire 1 F regwrite_mem $end
$var wire 1 . reset $end
$var wire 1 G sign_ext $end
$var wire 1 ! stall_debug $end
$var wire 1 H zero_flag $end
$var wire 32 I write_data_wb [31:0] $end
$var wire 32 J wb_data_temp [31:0] $end
$var wire 1 K stall $end
$var wire 5 L rs2_id [4:0] $end
$var wire 5 M rs2_ex [4:0] $end
$var wire 5 N rs1_id [4:0] $end
$var wire 5 O rs1_ex [4:0] $end
$var wire 1 P regwrite_wb $end
$var wire 1 Q regwrite_id $end
$var wire 1 R regwrite_ex $end
$var wire 32 S read_data2_id [31:0] $end
$var wire 32 T read_data2_ex [31:0] $end
$var wire 32 U read_data1_id [31:0] $end
$var wire 32 V read_data1_ex [31:0] $end
$var wire 5 W rd_wb [4:0] $end
$var wire 5 X rd_id [4:0] $end
$var wire 5 Y rd_ex [4:0] $end
$var wire 32 Z pc_plus_4_wb [31:0] $end
$var wire 32 [ pc_plus_4_ex [31:0] $end
$var wire 32 \ pc_if [31:0] $end
$var wire 32 ] pc_id [31:0] $end
$var wire 32 ^ pc_ex [31:0] $end
$var wire 7 _ opcode_id [6:0] $end
$var wire 7 ` opcode_ex [6:0] $end
$var wire 1 a memwrite_id $end
$var wire 1 b memwrite_ex $end
$var wire 1 c memtoreg_wb $end
$var wire 1 d memtoreg_id $end
$var wire 1 e memtoreg_ex $end
$var wire 1 f memread_id $end
$var wire 1 g memread_ex $end
$var wire 32 h mem_read_data [31:0] $end
$var wire 32 i mem_data_wb [31:0] $end
$var wire 1 j less_than_u $end
$var wire 1 k less_than $end
$var wire 1 l jump_wb $end
$var wire 1 m jump_id $end
$var wire 1 n jump_ex $end
$var wire 32 o jalr_target [31:0] $end
$var wire 1 p is_lui $end
$var wire 1 q is_jalr $end
$var wire 1 r is_jal $end
$var wire 1 s is_branch $end
$var wire 1 t is_auipc $end
$var wire 32 u instruction_if [31:0] $end
$var wire 32 v instruction_id [31:0] $end
$var wire 32 w imm_id [31:0] $end
$var wire 32 x imm_ex [31:0] $end
$var wire 7 y funct7_id [6:0] $end
$var wire 7 z funct7_ex [6:0] $end
$var wire 3 { funct3_id [2:0] $end
$var wire 3 | funct3_ex [2:0] $end
$var wire 2 } forward_b [1:0] $end
$var wire 2 ~ forward_a [1:0] $end
$var wire 1 !" flush_if_id $end
$var wire 1 "" flush_id_ex $end
$var wire 2 #" byte_size_id [1:0] $end
$var wire 32 $" branch_target_pc_based [31:0] $end
$var wire 32 %" branch_target_calc [31:0] $end
$var wire 1 &" branch_id $end
$var wire 1 '" branch_ex $end
$var wire 1 (" branch_decision $end
$var wire 1 )" alusrc_id $end
$var wire 1 *" alusrc_ex $end
$var wire 2 +" aluop_id [1:0] $end
$var wire 32 ," alu_result_wb [31:0] $end
$var wire 32 -" alu_result_mem [31:0] $end
$var wire 32 ." alu_result_ex [31:0] $end
$var wire 32 /" alu_in2 [31:0] $end
$var wire 32 0" alu_in1 [31:0] $end
$var wire 4 1" alu_control_id [3:0] $end
$var reg 4 2" alu_control_ex_reg [3:0] $end
$var reg 32 3" alu_in1_forwarded [31:0] $end
$var reg 32 4" alu_result_mem_reg [31:0] $end
$var reg 32 5" alu_result_wb_reg [31:0] $end
$var reg 2 6" byte_size_ex_reg [1:0] $end
$var reg 2 7" byte_size_mem [1:0] $end
$var reg 32 8" forwarded_data2 [31:0] $end
$var reg 3 9" funct3_mem [2:0] $end
$var reg 1 :" jump_mem $end
$var reg 1 l jump_wb_reg $end
$var reg 32 ;" mem_data_wb_reg [31:0] $end
$var reg 1 <" memread_mem $end
$var reg 1 =" memtoreg_mem $end
$var reg 1 c memtoreg_wb_reg $end
$var reg 1 >" memwrite_mem $end
$var reg 7 ?" opcode_ex_reg [6:0] $end
$var reg 32 @" pc_plus_4_mem [31:0] $end
$var reg 32 A" pc_plus_4_wb_reg [31:0] $end
$var reg 5 B" rd_mem_reg [4:0] $end
$var reg 5 C" rd_wb_reg [4:0] $end
$var reg 1 D" regwrite_mem_reg $end
$var reg 1 P regwrite_wb_reg $end
$var reg 32 E" write_data_mem [31:0] $end
$scope module alu_unit $end
$var wire 4 F" alu_control [3:0] $end
$var wire 32 G" in1 [31:0] $end
$var wire 32 H" in1_signed [31:0] $end
$var wire 32 I" in2 [31:0] $end
$var wire 32 J" in2_signed [31:0] $end
$var wire 1 H zero_flag $end
$var wire 64 K" mul_result_unsigned [63:0] $end
$var wire 64 L" mul_result_signed [63:0] $end
$var wire 1 j less_than_u $end
$var wire 1 k less_than $end
$var parameter 4 M" ALU_ADD $end
$var parameter 4 N" ALU_AND $end
$var parameter 4 O" ALU_DIV $end
$var parameter 4 P" ALU_DIVU $end
$var parameter 4 Q" ALU_MUL $end
$var parameter 4 R" ALU_MULH $end
$var parameter 4 S" ALU_OR $end
$var parameter 4 T" ALU_REM $end
$var parameter 4 U" ALU_REMU $end
$var parameter 4 V" ALU_SLL $end
$var parameter 4 W" ALU_SLT $end
$var parameter 4 X" ALU_SLTU $end
$var parameter 4 Y" ALU_SRA $end
$var parameter 4 Z" ALU_SRL $end
$var parameter 4 [" ALU_SUB $end
$var parameter 4 \" ALU_XOR $end
$var reg 32 ]" alu_result [31:0] $end
$upscope $end
$scope module branch_unit $end
$var wire 1 k less_than $end
$var wire 1 j less_than_u $end
$var wire 1 H zero_flag $end
$var wire 3 ^" funct3 [2:0] $end
$var wire 1 '" branch $end
$var parameter 3 _" BEQ $end
$var parameter 3 `" BGE $end
$var parameter 3 a" BGEU $end
$var parameter 3 b" BLT $end
$var parameter 3 c" BLTU $end
$var parameter 3 d" BNE $end
$var reg 1 (" taken $end
$upscope $end
$scope module control_unit $end
$var wire 3 e" funct3 [2:0] $end
$var wire 7 f" funct7 [6:0] $end
$var wire 7 g" opcode [6:0] $end
$var parameter 4 h" ALU_ADD $end
$var parameter 4 i" ALU_AND $end
$var parameter 4 j" ALU_DIV $end
$var parameter 4 k" ALU_DIVU $end
$var parameter 4 l" ALU_MUL $end
$var parameter 4 m" ALU_MULH $end
$var parameter 4 n" ALU_OR $end
$var parameter 4 o" ALU_REM $end
$var parameter 4 p" ALU_REMU $end
$var parameter 4 q" ALU_SLL $end
$var parameter 4 r" ALU_SLT $end
$var parameter 4 s" ALU_SLTU $end
$var parameter 4 t" ALU_SRA $end
$var parameter 4 u" ALU_SRL $end
$var parameter 4 v" ALU_SUB $end
$var parameter 4 w" ALU_XOR $end
$var parameter 3 x" F3_ADD_SUB $end
$var parameter 3 y" F3_AND $end
$var parameter 3 z" F3_BEQ $end
$var parameter 3 {" F3_BGE $end
$var parameter 3 |" F3_BGEU $end
$var parameter 3 }" F3_BLT $end
$var parameter 3 ~" F3_BLTU $end
$var parameter 3 !# F3_BNE $end
$var parameter 3 "# F3_BYTE $end
$var parameter 3 ## F3_BYTE_U $end
$var parameter 3 $# F3_DIV $end
$var parameter 3 %# F3_DIVU $end
$var parameter 3 &# F3_HALF $end
$var parameter 3 '# F3_HALF_U $end
$var parameter 3 (# F3_MUL $end
$var parameter 3 )# F3_MULH $end
$var parameter 3 *# F3_OR $end
$var parameter 3 +# F3_REM $end
$var parameter 3 ,# F3_REMU $end
$var parameter 3 -# F3_SLL $end
$var parameter 3 .# F3_SLT $end
$var parameter 3 /# F3_SLTU $end
$var parameter 3 0# F3_SRL_SRA $end
$var parameter 3 1# F3_WORD $end
$var parameter 3 2# F3_XOR $end
$var parameter 7 3# F7_DEFAULT $end
$var parameter 7 4# F7_MULDIV $end
$var parameter 7 5# F7_SUB_SRA $end
$var parameter 7 6# OP_AUIPC $end
$var parameter 7 7# OP_BRANCH $end
$var parameter 7 8# OP_I_TYPE $end
$var parameter 7 9# OP_JAL $end
$var parameter 7 :# OP_JALR $end
$var parameter 7 ;# OP_LOAD $end
$var parameter 7 <# OP_LUI $end
$var parameter 7 =# OP_R_TYPE $end
$var parameter 7 ># OP_STORE $end
$var reg 4 ?# alu_control [3:0] $end
$var reg 2 @# aluop [1:0] $end
$var reg 1 )" alusrc $end
$var reg 1 &" branch $end
$var reg 2 A# byte_size [1:0] $end
$var reg 1 m jump $end
$var reg 1 f memread $end
$var reg 1 d memtoreg $end
$var reg 1 a memwrite $end
$var reg 1 Q regwrite $end
$upscope $end
$scope module data_memory $end
$var wire 32 B# address [31:0] $end
$var wire 2 C# byte_size [1:0] $end
$var wire 1 * clock $end
$var wire 1 <" memread $end
$var wire 1 >" memwrite $end
$var wire 1 G sign_ext $end
$var wire 32 D# write_data [31:0] $end
$var wire 10 E# byte_addr [9:0] $end
$var reg 32 F# read_data [31:0] $end
$var integer 32 G# i [31:0] $end
$upscope $end
$scope module forward_unit $end
$var wire 5 H# rd_mem [4:0] $end
$var wire 5 I# rd_wb [4:0] $end
$var wire 1 F regwrite_mem $end
$var wire 1 P regwrite_wb $end
$var wire 5 J# rs2_ex [4:0] $end
$var wire 5 K# rs1_ex [4:0] $end
$var reg 2 L# forward_a [1:0] $end
$var reg 2 M# forward_b [1:0] $end
$upscope $end
$scope module hazard_unit $end
$var wire 1 < branch_taken $end
$var wire 5 N# rs1_id [4:0] $end
$var wire 5 O# rs2_id [4:0] $end
$var wire 5 P# rd_id_ex [4:0] $end
$var wire 1 g memread_id_ex $end
$var reg 1 "" flush_id_ex $end
$var reg 1 !" flush_if_id $end
$var reg 1 K stall $end
$upscope $end
$scope module id_ex_reg $end
$var wire 1 )" alusrc_in $end
$var wire 1 &" branch_in $end
$var wire 1 * clock $end
$var wire 1 "" flush $end
$var wire 3 Q# funct3_in [2:0] $end
$var wire 7 R# funct7_in [6:0] $end
$var wire 1 m jump_in $end
$var wire 1 f memread_in $end
$var wire 1 d memtoreg_in $end
$var wire 1 a memwrite_in $end
$var wire 5 S# rd_in [4:0] $end
$var wire 1 Q regwrite_in $end
$var wire 1 . reset $end
$var wire 5 T# rs1_in [4:0] $end
$var wire 5 U# rs2_in [4:0] $end
$var wire 1 V# stall $end
$var wire 32 W# read_data2_in [31:0] $end
$var wire 32 X# read_data1_in [31:0] $end
$var wire 32 Y# pc_in [31:0] $end
$var wire 32 Z# imm_in [31:0] $end
$var reg 1 *" alusrc_out $end
$var reg 1 '" branch_out $end
$var reg 3 [# funct3_out [2:0] $end
$var reg 7 \# funct7_out [6:0] $end
$var reg 32 ]# imm_out [31:0] $end
$var reg 1 n jump_out $end
$var reg 1 g memread_out $end
$var reg 1 e memtoreg_out $end
$var reg 1 b memwrite_out $end
$var reg 32 ^# pc_out [31:0] $end
$var reg 5 _# rd_out [4:0] $end
$var reg 32 `# read_data1_out [31:0] $end
$var reg 32 a# read_data2_out [31:0] $end
$var reg 1 R regwrite_out $end
$var reg 5 b# rs1_out [4:0] $end
$var reg 5 c# rs2_out [4:0] $end
$upscope $end
$scope module if_id_reg $end
$var wire 1 * clock $end
$var wire 1 !" flush $end
$var wire 1 . reset $end
$var wire 1 K stall $end
$var wire 32 d# pc_in [31:0] $end
$var wire 32 e# instr_in [31:0] $end
$var parameter 32 f# NOP $end
$var reg 32 g# instr_out [31:0] $end
$var reg 32 h# pc_out [31:0] $end
$upscope $end
$scope module ifu $end
$var wire 1 * clock $end
$var wire 1 < pc_src $end
$var wire 1 . reset $end
$var wire 1 K stall $end
$var wire 32 i# target_pc [31:0] $end
$var wire 32 j# next_pc [31:0] $end
$var wire 32 k# Instruction_Code [31:0] $end
$var reg 32 l# PC [31:0] $end
$var reg 32 m# PC_out [31:0] $end
$scope module inst_memory $end
$var wire 32 n# Instruction_Code [31:0] $end
$var wire 32 o# PC [31:0] $end
$var wire 1 . reset $end
$var wire 10 p# word_addr [9:0] $end
$upscope $end
$upscope $end
$scope module immediate_gen $end
$var wire 32 q# instr [31:0] $end
$var wire 7 r# opcode [6:0] $end
$var parameter 7 s# OP_AUIPC $end
$var parameter 7 t# OP_BRANCH $end
$var parameter 7 u# OP_I_TYPE $end
$var parameter 7 v# OP_JAL $end
$var parameter 7 w# OP_JALR $end
$var parameter 7 x# OP_LOAD $end
$var parameter 7 y# OP_LUI $end
$var parameter 7 z# OP_R_TYPE $end
$var parameter 7 {# OP_STORE $end
$var reg 32 |# imm [31:0] $end
$upscope $end
$scope module register_file $end
$var wire 1 * clock $end
$var wire 5 }# read_reg_num1 [4:0] $end
$var wire 5 ~# read_reg_num2 [4:0] $end
$var wire 1 P regwrite $end
$var wire 1 . reset $end
$var wire 32 !$ write_data [31:0] $end
$var wire 5 "$ write_reg [4:0] $end
$var wire 32 #$ read_data2 [31:0] $end
$var wire 32 $$ read_data1 [31:0] $end
$var integer 32 %$ i [31:0] $end
$upscope $end
$upscope $end
$scope task print_pipeline_stats $end
$var real 1 &$ efficiency $end
$upscope $end
$scope task print_results $end
$var reg 32 '$ return_value [31:0] $end
$var real 1 ($ cpi $end
$var integer 32 )$ i [31:0] $end
$var integer 32 *$ non_zero_regs [31:0] $end
$upscope $end
$upscope $end
$enddefinitions $end
$comment Show the parameter values. $end
$dumpall
b100011 {#
b110011 z#
b110111 y#
b11 x#
b1100111 w#
b1101111 v#
b10011 u#
b1100011 t#
b10111 s#
b10011 f#
b100011 >#
b110011 =#
b110111 <#
b11 ;#
b1100111 :#
b1101111 9#
b10011 8#
b1100011 7#
b10111 6#
b100000 5#
b1 4#
b0 3#
b100 2#
b10 1#
b101 0#
b11 /#
b10 .#
b1 -#
b111 ,#
b110 +#
b110 *#
b1 )#
b0 (#
b101 '#
b1 &#
b101 %#
b100 $#
b100 ##
b0 "#
b1 !#
b110 ~"
b100 }"
b111 |"
b101 {"
b0 z"
b111 y"
b0 x"
b100 w"
b1 v"
b110 u"
b111 t"
b1001 s"
b1000 r"
b101 q"
b1111 p"
b1110 o"
b11 n"
b1011 m"
b1010 l"
b1101 k"
b1100 j"
b10 i"
b0 h"
b1 d"
b110 c"
b100 b"
b111 a"
b101 `"
b0 _"
b100 \"
b1 ["
b110 Z"
b111 Y"
b1001 X"
b1000 W"
b101 V"
b1111 U"
b1110 T"
b11 S"
b1011 R"
b1010 Q"
b1101 P"
b1100 O"
b10 N"
b0 M"
$end
#0
$dumpvars
bx *$
bx )$
r0 ($
bx '$
r0 &$
b100000 %$
b0 $$
b0 #$
b0 "$
b0 !$
b0 ~#
b0 }#
b0 |#
b10011 r#
b10011 q#
b0 p#
b0 o#
b1000100010111 n#
b0 m#
b0 l#
b1000100010111 k#
b100 j#
b0 i#
b0 h#
b10011 g#
b1000100010111 e#
b0 d#
b0 c#
b0 b#
b0 a#
b0 `#
b0 _#
b0 ^#
b0 ]#
b0 \#
b0 [#
b0 Z#
b0 Y#
b0 X#
b0 W#
0V#
b0 U#
b0 T#
b0 S#
b0 R#
b0 Q#
b0 P#
b0 O#
b0 N#
b0 M#
b0 L#
b0 K#
b0 J#
b0 I#
b0 H#
b10000000000 G#
bx F#
b0 E#
b0 D#
b10 C#
b0 B#
b10 A#
b10 @#
b0 ?#
b10011 g"
b0 f"
b0 e"
b0 ^"
b0 ]"
b0 L"
b0 K"
b0 J"
b0 I"
b0 H"
b0 G"
b0 F"
b0 E"
0D"
b0 C"
b0 B"
b0 A"
b0 @"
b0 ?"
0>"
0="
0<"
b0 ;"
0:"
b0 9"
b0 8"
b10 7"
b10 6"
b0 5"
b0 4"
b0 3"
b0 2"
b0 1"
b0 0"
b0 /"
b0 ."
b0 -"
b0 ,"
b10 +"
0*"
1)"
0("
0'"
0&"
b0 %"
b0 $"
b10 #"
0""
0!"
b0 ~
b0 }
b0 |
b0 {
b0 z
b0 y
b0 x
b0 w
b10011 v
b1000100010111 u
0t
0s
0r
0q
0p
b0 o
0n
0m
0l
0k
0j
b0 i
bx h
0g
0f
0e
0d
0c
0b
0a
b0 `
b10011 _
b0 ^
b0 ]
b0 \
b100 [
b0 Z
b0 Y
b0 X
b0 W
b0 V
b0 U
b0 T
b0 S
0R
1Q
0P
b0 O
b0 N
b0 M
b0 L
0K
b0 J
b0 I
1H
1G
0F
b0 E
b0 D
bx C
b1000100010111 B
b0 A
b0 @
b10 ?
b0 >
b0 =
0<
0;
b0 :
b0 9
b0 8
b0 7
b0 6
b0 5
b0 4
b11 3
b0 2
b0 1
b0 0
b0 /
1.
0-
b0 ,
b0 +
0*
b0 )
0(
b0 '
b0 &
b0 %
b1000100010111 $
bx #
b0 "
0!
$end
#5000
b100000 %$
1*
#10000
0*
#15000
b1000 j#
b10000000100010011 $
b10000000100010011 B
b10000000100010011 u
b10000000100010011 e#
b10000000100010011 k#
b10000000100010011 n#
b1 p#
b0 +"
b0 @#
1)"
1Q
b100 "
b100 D
b100 \
b100 d#
b100 m#
b100 o#
b1000000000000 w
b1000000000000 Z#
b1000000000000 |#
b10111 r#
b1 {
b1 e"
b1 Q#
b10 X
b10 S#
b10111 _
b10111 g"
b100 l#
b1000100010111 v
b1000100010111 g#
b1000100010111 q#
1*"
1R
b10011 `
b10011 ?"
b100 @"
bx i
bx ;"
b1000100010111 +
b1 0
b1 7
b1 2
b1 /
1*
0.
#20000
0*
#25000
0H
b1000000000000 )
b1000000000000 :
b1000000000000 ."
b1000000000000 ]"
b10 +"
b10 @#
1)"
1Q
b1100 j#
b1001010010111 $
b1001010010111 B
b1001010010111 u
b1001010010111 e#
b1001010010111 k#
b1001010010111 n#
b10 p#
b1000000000000 '
b1000000000000 =
b1000000000000 >
b1000000000000 i#
b1000000000000 %"
1k
b1000000000000 J"
1j
b1000000000000 /"
b1000000000000 I"
b0 w
b0 Z#
b0 |#
b10011 r#
b10 N
b10 N#
b10 T#
b10 }#
b0 {
b0 e"
b0 Q#
b10011 _
b10011 g"
b1000 "
b1000 D
b1000 \
b1000 d#
b1000 m#
b1000 o#
b100 Z
b100 A"
1F
1D"
1t
b10111 `
b10111 ?"
b1 |
b1 ^"
b1 [#
b10 Y
b10 P#
b10 _#
b1000000000000 $"
b1000000000000 o
b1000000000000 x
b1000000000000 ]#
b100 ]
b100 Y#
b100 h#
b10000000100010011 v
b10000000100010011 g#
b10000000100010011 q#
b1000 l#
b10 2
b10 /
b10000000100010011 +
b100 ,
b10 0
b10 7
1*
#30000
0*
#35000
b1000000000000 H"
b1000000000000 0"
b1000000000000 G"
b10000 j#
b11111111110000101000001010010011 $
b11111111110000101000001010010011 B
b11111111110000101000001010010011 u
b11111111110000101000001010010011 e#
b11111111110000101000001010010011 k#
b11111111110000101000001010010011 n#
b11 p#
b0 +"
b0 @#
1)"
1Q
0H
b1000000000000 )
b1000000000000 :
b1000000000000 ."
b1000000000000 ]"
b1100 "
b1100 D
b1100 \
b1100 d#
b1100 m#
b1100 o#
b1000000000000 w
b1000000000000 Z#
b1000000000000 |#
b10111 r#
b0 N
b0 N#
b0 T#
b0 }#
b1 {
b1 e"
b1 Q#
b101 X
b101 S#
b10111 _
b10111 g"
b100 '
b100 =
b100 >
b100 i#
b100 %"
0k
b0 J"
0j
b0 /"
b0 I"
b1000000000000 3"
b10 &
b10 @
b10 ~
b10 L#
b1100 l#
b1000 ]
b1000 Y#
b1000 h#
b1001010010111 v
b1001010010111 g#
b1001010010111 q#
b0 |
b0 ^"
b0 [#
b10 O
b10 K#
b10 b#
b1000 [
b100 ^
b100 ^#
b100 $"
b1000000000000 o
b0 x
b0 ]#
0t
b10011 `
b10011 ?"
b1 9"
b10 E
b10 H#
b10 B"
b1000000000000 -"
b1000000000000 4"
b1000000000000 B#
1P
b1001010010111 +
b1000 ,
b11 0
b11 7
b11 2
b11 /
1*
#40000
0*
#45000
b0 U
b0 X#
b0 $$
b0 S
b0 W#
b0 #$
b1000000000000 I
b1000000000000 !$
b0 3"
b1000000001000 )
b1000000001000 :
b1000000001000 ."
b1000000001000 ]"
b10 +"
b10 @#
1)"
1Q
b10100 j#
b1001100010111 $
b1001100010111 B
b1001100010111 u
b1001100010111 e#
b1001100010111 k#
b1001100010111 n#
b100 p#
b1000000000000 J
1k
b1000 H"
1j
b1000 0"
b1000 G"
b0 &
b0 @
b0 ~
b0 L#
b1000000001000 '
b1000000001000 =
b1000000001000 >
b1000000001000 i#
b1000000001000 %"
b1000000000000000 L"
b1000000000000 J"
b1000000000000000 K"
b1000000000000 /"
b1000000000000 I"
b11111111111111111111111111111100 w
b11111111111111111111111111111100 Z#
b11111111111111111111111111111100 |#
b10011 r#
b1111111 y
b1111111 f"
b1111111 R#
b11100 L
b11100 O#
b11100 U#
b11100 ~#
b101 N
b101 N#
b101 T#
b101 }#
b0 {
b0 e"
b0 Q#
b10011 _
b10011 g"
b10000 "
b10000 D
b10000 \
b10000 d#
b10000 m#
b10000 o#
b10 W
b10 C"
b10 I#
b10 "$
b1000000000000 ,"
b1000000000000 5"
b1000 @"
b0 9"
1t
b10111 `
b10111 ?"
b1 |
b1 ^"
b1 [#
b101 Y
b101 P#
b101 _#
b0 O
b0 K#
b0 b#
b1100 [
b1000 ^
b1000 ^#
b1000000001000 $"
b1000000000000 o
b1000000000000 x
b1000000000000 ]#
b1100 ]
b1100 Y#
b1100 h#
b11111111110000101000001010010011 v
b11111111110000101000001010010011 g#
b11111111110000101000001010010011 q#
b10000 l#
b100 2
b100 /
b11111111110000101000001010010011 +
b1100 ,
b100 0
b100 7
1*
#50000
0*
#55000
b11000 j#
b11010000110000001100010011 $
b11010000110000001100010011 B
b11010000110000001100010011 u
b11010000110000001100010011 e#
b11010000110000001100010011 k#
b11010000110000001100010011 n#
b101 p#
b0 +"
b0 @#
1)"
1Q
b1000000000100 )
b1000000000100 :
b1000000000100 ."
b1000000000100 ]"
b1000000001000 3"
b10100 "
b10100 D
b10100 \
b10100 d#
b10100 m#
b10100 o#
b1000000000000 w
b1000000000000 Z#
b1000000000000 |#
b10111 r#
b0 y
b0 f"
b0 R#
b0 L
b0 O#
b0 U#
b0 ~#
b0 N
b0 N#
b0 T#
b0 }#
b1 {
b1 e"
b1 Q#
b110 X
b110 S#
b10111 _
b10111 g"
b1000 '
b1000 =
b1000 >
b1000 i#
b1000 %"
0k
b11111111111111111111111111111100 J"
b11111111111111111111111111111100 /"
b11111111111111111111111111111100 I"
b1111111111111111111111111111111111111111111111111011111111100000 L"
b1000000001000 H"
b100000000011111111111111111111011111111100000 K"
b1000000001000 0"
b1000000001000 G"
b10 &
b10 @
b10 ~
b10 L#
b1000 E#
b10100 l#
b10000 ]
b10000 Y#
b10000 h#
b1001100010111 v
b1001100010111 g#
b1001100010111 q#
b1111111 z
b1111111 \#
b0 |
b0 ^"
b0 [#
b11100 M
b11100 J#
b11100 c#
b101 O
b101 K#
b101 b#
b10000 [
b1100 ^
b1100 ^#
b1000 $"
b1000000000100 o
b11111111111111111111111111111100 x
b11111111111111111111111111111100 ]#
0t
b10011 `
b10011 ?"
b1100 @"
b1 9"
b101 E
b101 H#
b101 B"
b1000000001000 -"
b1000000001000 4"
b1000000001000 B#
b1000 Z
b1000 A"
b1001100010111 +
b10000 ,
b101 0
b101 7
b101 2
b101 /
1*
#60000
0*
#65000
b1000000001000 I
b1000000001000 !$
b1000000010000 )
b1000000010000 :
b1000000010000 ."
b1000000010000 ]"
b10 +"
b10 @#
1)"
1Q
b11100 j#
b11000101101100001100011 $
b11000101101100001100011 B
b11000101101100001100011 u
b11000101101100001100011 e#
b11000101101100001100011 k#
b11000101101100001100011 n#
b110 p#
b1000000001000 J
b100 E#
b0 3"
1k
b10000 H"
b10000 0"
b10000 G"
b0 &
b0 @
b0 ~
b0 L#
b1000000010000 '
b1000000010000 =
b1000000010000 >
b1000000010000 i#
b1000000010000 %"
b10000000000000000 L"
b1000000000000 J"
b10000000000000000 K"
1j
b1000000000000 /"
b1000000000000 I"
b110100 w
b110100 Z#
b110100 |#
b10011 r#
b1 y
b1 f"
b1 R#
b10100 L
b10100 O#
b10100 U#
b10100 ~#
b110 N
b110 N#
b110 T#
b110 }#
b0 {
b0 e"
b0 Q#
b10011 _
b10011 g"
b11000 "
b11000 D
b11000 \
b11000 d#
b11000 m#
b11000 o#
b101 W
b101 C"
b101 I#
b101 "$
b1100 Z
b1100 A"
b1000000001000 ,"
b1000000001000 5"
b10000 @"
b0 9"
b1000000000100 -"
b1000000000100 4"
b1000000000100 B#
1t
b10111 `
b10111 ?"
b0 z
b0 \#
b1 |
b1 ^"
b1 [#
b110 Y
b110 P#
b110 _#
b0 M
b0 J#
b0 c#
b0 O
b0 K#
b0 b#
b10100 [
b10000 ^
b10000 ^#
b1000000010000 $"
b1000000000000 o
b1000000000000 x
b1000000000000 ]#
b10100 ]
b10100 Y#
b10100 h#
b11010000110000001100010011 v
b11010000110000001100010011 g#
b11010000110000001100010011 q#
b11000 l#
b110 2
b110 /
b11010000110000001100010011 +
b10100 ,
b110 0
b110 7
1*
#70000
0*
#75000
0k
0j
b1000000000100 U
b1000000000100 X#
b1000000000100 $$
b100000 j#
b101010000000100011 $
b101010000000100011 B
b101010000000100011 u
b101010000000100011 e#
b101010000000100011 k#
b101010000000100011 n#
b111 p#
b1 1"
b1 ?#
1&"
b0 +"
b0 @#
0)"
0Q
b1000001000100 )
b1000001000100 :
b1000001000100 ."
b1000001000100 ]"
b1000000010000 3"
b1000000000100 I
b1000000000100 !$
b11100 "
b11100 D
b11100 \
b11100 d#
b11100 m#
b11100 o#
b10000 w
b10000 Z#
b10000 |#
b1100011 r#
b0 y
b0 f"
b0 R#
b110 L
b110 O#
b110 U#
b110 ~#
b101 N
b101 N#
b101 T#
b101 }#
b101 {
b101 e"
b101 Q#
b10000 X
b10000 S#
b1100011 _
b1100011 g"
b1001000 '
b1001000 =
b1001000 >
b1001000 i#
b1001000 %"
b110100 J"
b110100 /"
b110100 I"
b110100001101000000 L"
b1000000010000 H"
b110100001101000000 K"
b1000000010000 0"
b1000000010000 G"
b10 &
b10 @
b10 ~
b10 L#
b10000 E#
b1000000000100 J
b11100 l#
b11000 ]
b11000 Y#
b11000 h#
b11000101101100001100011 v
b11000101101100001100011 g#
b11000101101100001100011 q#
b1 z
b1 \#
b0 |
b0 ^"
b0 [#
b10100 M
b10100 J#
b10100 c#
b110 O
b110 K#
b110 b#
b11000 [
b10100 ^
b10100 ^#
b1001000 $"
b1000001000100 o
b110100 x
b110100 ]#
0t
b10011 `
b10011 ?"
b10100 @"
b1 9"
b110 E
b110 H#
b110 B"
b1000000010000 -"
b1000000010000 4"
b1000000010000 B#
b10000 Z
b10000 A"
b1000000000100 ,"
b1000000000100 5"
b11000101101100001100011 +
b11000 ,
b111 0
b111 7
b111 2
b111 /
1*
#80000
0*
