cpu/interface/dcache/tb/tb_dcache_top.vcd
$date
	Wed Feb  4 08:23:28 2026
$end
$version
	Icarus Verilog
$end
$timescale
	1ps
$end
$scope module tb_dcache_top $end
$var wire 2 ! mem_arburst [1:0] $end
$var wire 8 " mem_arlen [7:0] $end
$var wire 3 # mem_arprot [2:0] $end
$var wire 3 $ mem_arsize [2:0] $end
$var wire 2 % mem_awburst [1:0] $end
$var wire 8 & mem_awlen [7:0] $end
$var wire 3 ' mem_awprot [2:0] $end
$var wire 3 ( mem_awsize [2:0] $end
$var wire 1 ) mem_wlast $end
$var wire 32 * stat_writes [31:0] $end
$var wire 32 + stat_misses [31:0] $end
$var wire 32 , stat_hits [31:0] $end
$var wire 1 - mem_wvalid $end
$var wire 4 . mem_wstrb [3:0] $end
$var wire 32 / mem_wdata [31:0] $end
$var wire 1 0 mem_rready $end
$var wire 1 1 mem_bready $end
$var wire 1 2 mem_awvalid $end
$var wire 32 3 mem_awaddr [31:0] $end
$var wire 1 4 mem_arvalid $end
$var wire 32 5 mem_araddr [31:0] $end
$var wire 1 6 cpu_ready $end
$var wire 32 7 cpu_rdata [31:0] $end
$var parameter 2 8 RD_AR $end
$var parameter 2 9 RD_IDLE $end
$var parameter 2 : RD_R $end
$var parameter 2 ; WR_AW $end
$var parameter 2 < WR_B $end
$var parameter 2 = WR_IDLE $end
$var parameter 2 > WR_W $end
$var reg 32 ? ar_addr_latched [31:0] $end
$var reg 8 @ ar_len_latched [7:0] $end
$var reg 32 A aw_addr_latched [31:0] $end
$var reg 1 B clk $end
$var reg 32 C cpu_addr [31:0] $end
$var reg 1 D cpu_req $end
$var reg 32 E cpu_wdata [31:0] $end
$var reg 1 F cpu_we $end
$var reg 4 G cpu_wstrb [3:0] $end
$var reg 1 H fence $end
$var reg 1 I mem_arready $end
$var reg 1 J mem_awready $end
$var reg 2 K mem_bresp [1:0] $end
$var reg 1 L mem_bvalid $end
$var reg 32 M mem_rdata [31:0] $end
$var reg 1 N mem_rlast $end
$var reg 2 O mem_rresp [1:0] $end
$var reg 1 P mem_rvalid $end
$var reg 1 Q mem_wready $end
$var reg 8 R rd_beat_counter [7:0] $end
$var reg 2 S rd_state [1:0] $end
$var reg 1 T rst_n $end
$var reg 2 U wr_state [1:0] $end
$var integer 32 V i [31:0] $end
$scope module dut $end
$var wire 1 B clk $end
$var wire 32 W cpu_addr [31:0] $end
$var wire 1 D cpu_req $end
$var wire 32 X cpu_wdata [31:0] $end
$var wire 1 F cpu_we $end
$var wire 4 Y cpu_wstrb [3:0] $end
$var wire 1 H fence $end
$var wire 2 Z mem_arburst [1:0] $end
$var wire 8 [ mem_arlen [7:0] $end
$var wire 3 \ mem_arprot [2:0] $end
$var wire 1 I mem_arready $end
$var wire 3 ] mem_arsize [2:0] $end
$var wire 2 ^ mem_awburst [1:0] $end
$var wire 8 _ mem_awlen [7:0] $end
$var wire 3 ` mem_awprot [2:0] $end
$var wire 1 J mem_awready $end
$var wire 3 a mem_awsize [2:0] $end
$var wire 2 b mem_bresp [1:0] $end
$var wire 1 L mem_bvalid $end
$var wire 32 c mem_rdata [31:0] $end
$var wire 1 N mem_rlast $end
$var wire 2 d mem_rresp [1:0] $end
$var wire 1 P mem_rvalid $end
$var wire 1 ) mem_wlast $end
$var wire 1 Q mem_wready $end
$var wire 1 T rst_n $end
$var wire 4 e wt_strb [3:0] $end
$var wire 1 f wt_start $end
$var wire 1 g wt_done $end
$var wire 32 h wt_data [31:0] $end
$var wire 1 i wt_busy $end
$var wire 32 j wt_addr [31:0] $end
$var wire 1 k tag_update_valid $end
$var wire 22 l tag_update_tag [21:0] $end
$var wire 6 m tag_update_index [5:0] $end
$var wire 22 n tag_lookup_tag [21:0] $end
$var wire 6 o tag_lookup_index [5:0] $end
$var wire 1 p tag_hit $end
$var wire 1 q tag_flush_all $end
$var wire 32 r stat_writes [31:0] $end
$var wire 32 s stat_misses [31:0] $end
$var wire 32 t stat_hits [31:0] $end
$var wire 2 u refill_word [1:0] $end
$var wire 1 v refill_start $end
$var wire 1 w refill_done $end
$var wire 1 x refill_data_valid $end
$var wire 32 y refill_data [31:0] $end
$var wire 1 z refill_busy $end
$var wire 32 { refill_addr [31:0] $end
$var wire 1 - mem_wvalid $end
$var wire 4 | mem_wstrb [3:0] $end
$var wire 32 } mem_wdata [31:0] $end
$var wire 1 0 mem_rready $end
$var wire 1 1 mem_bready $end
$var wire 1 2 mem_awvalid $end
$var wire 32 ~ mem_awaddr [31:0] $end
$var wire 1 4 mem_arvalid $end
$var wire 32 !" mem_araddr [31:0] $end
$var wire 4 "" data_write_strb [3:0] $end
$var wire 2 #" data_write_offset [1:0] $end
$var wire 6 $" data_write_index [5:0] $end
$var wire 1 %" data_write_enable $end
$var wire 32 &" data_write_data [31:0] $end
$var wire 2 '" data_read_offset [1:0] $end
$var wire 6 (" data_read_index [5:0] $end
$var wire 32 )" data_read_data [31:0] $end
$var wire 1 6 cpu_ready $end
$var wire 32 *" cpu_rdata [31:0] $end
$var parameter 32 +" ADDR_WIDTH $end
$var parameter 32 ," CACHE_SIZE $end
$var parameter 32 -" DATA_WIDTH $end
$var parameter 32 ." LINE_SIZE $end
$scope module axi_interface_inst $end
$var wire 2 /" M_AXI_ARBURST [1:0] $end
$var wire 8 0" M_AXI_ARLEN [7:0] $end
$var wire 3 1" M_AXI_ARPROT [2:0] $end
$var wire 1 I M_AXI_ARREADY $end
$var wire 3 2" M_AXI_ARSIZE [2:0] $end
$var wire 2 3" M_AXI_AWBURST [1:0] $end
$var wire 8 4" M_AXI_AWLEN [7:0] $end
$var wire 3 5" M_AXI_AWPROT [2:0] $end
$var wire 1 J M_AXI_AWREADY $end
$var wire 3 6" M_AXI_AWSIZE [2:0] $end
$var wire 2 7" M_AXI_BRESP [1:0] $end
$var wire 1 L M_AXI_BVALID $end
$var wire 32 8" M_AXI_RDATA [31:0] $end
$var wire 1 N M_AXI_RLAST $end
$var wire 2 9" M_AXI_RRESP [1:0] $end
$var wire 1 P M_AXI_RVALID $end
$var wire 1 ) M_AXI_WLAST $end
$var wire 1 Q M_AXI_WREADY $end
$var wire 1 B clk $end
$var wire 1 T rst_n $end
$var wire 4 :" wt_strb [3:0] $end
$var wire 1 f wt_start $end
$var wire 32 ;" wt_data [31:0] $end
$var wire 32 <" wt_addr [31:0] $end
$var wire 1 v refill_start $end
$var wire 32 =" refill_addr [31:0] $end
$var parameter 2 >" RD_AR $end
$var parameter 2 ?" RD_DONE $end
$var parameter 2 @" RD_IDLE $end
$var parameter 2 A" RD_R $end
$var parameter 2 B" WR_AW $end
$var parameter 2 C" WR_B $end
$var parameter 2 D" WR_IDLE $end
$var parameter 2 E" WR_W $end
$var reg 32 F" M_AXI_ARADDR [31:0] $end
$var reg 1 4 M_AXI_ARVALID $end
$var reg 32 G" M_AXI_AWADDR [31:0] $end
$var reg 1 2 M_AXI_AWVALID $end
$var reg 1 1 M_AXI_BREADY $end
$var reg 1 0 M_AXI_RREADY $end
$var reg 32 H" M_AXI_WDATA [31:0] $end
$var reg 4 I" M_AXI_WSTRB [3:0] $end
$var reg 1 - M_AXI_WVALID $end
$var reg 2 J" rd_state [1:0] $end
$var reg 2 K" rd_word_counter [1:0] $end
$var reg 1 z refill_busy $end
$var reg 32 L" refill_data [31:0] $end
$var reg 1 x refill_data_valid $end
$var reg 1 w refill_done $end
$var reg 2 M" refill_word [1:0] $end
$var reg 2 N" wr_state [1:0] $end
$var reg 1 i wt_busy $end
$var reg 1 g wt_done $end
$upscope $end
$scope module controller_inst $end
$var wire 1 B clk $end
$var wire 32 O" cpu_addr [31:0] $end
$var wire 32 P" cpu_rdata [31:0] $end
$var wire 1 6 cpu_ready $end
$var wire 1 D cpu_req $end
$var wire 32 Q" cpu_wdata [31:0] $end
$var wire 1 F cpu_we $end
$var wire 4 R" cpu_wstrb [3:0] $end
$var wire 6 S" data_read_index [5:0] $end
$var wire 2 T" data_read_offset [1:0] $end
$var wire 1 H fence $end
$var wire 1 z refill_busy $end
$var wire 32 U" refill_data [31:0] $end
$var wire 1 x refill_data_valid $end
$var wire 1 w refill_done $end
$var wire 2 V" refill_word [1:0] $end
$var wire 1 T rst_n $end
$var wire 6 W" tag_lookup_index [5:0] $end
$var wire 22 X" tag_lookup_tag [21:0] $end
$var wire 1 i wt_busy $end
$var wire 1 g wt_done $end
$var wire 1 p tag_hit $end
$var wire 32 Y" data_read_data [31:0] $end
$var wire 22 Z" addr_tag [21:0] $end
$var wire 2 [" addr_offset [1:0] $end
$var wire 6 \" addr_index [5:0] $end
$var reg 32 ]" cpu_rdata_int [31:0] $end
$var reg 1 ^" cpu_ready_int $end
$var reg 32 _" data_write_data [31:0] $end
$var reg 1 %" data_write_enable $end
$var reg 6 `" data_write_index [5:0] $end
$var reg 2 a" data_write_offset [1:0] $end
$var reg 4 b" data_write_strb [3:0] $end
$var reg 3 c" next_state [2:0] $end
$var reg 32 d" refill_addr [31:0] $end
$var reg 6 e" refill_index [5:0] $end
$var reg 1 v refill_start $end
$var reg 22 f" refill_tag [21:0] $end
$var reg 32 g" requested_data [31:0] $end
$var reg 1 h" requested_data_ready $end
$var reg 2 i" requested_offset [1:0] $end
$var reg 32 j" stat_hits [31:0] $end
$var reg 32 k" stat_misses [31:0] $end
$var reg 32 l" stat_writes [31:0] $end
$var reg 3 m" state [2:0] $end
$var reg 1 q tag_flush_all $end
$var reg 6 n" tag_update_index [5:0] $end
$var reg 22 o" tag_update_tag [21:0] $end
$var reg 1 k tag_update_valid $end
$var reg 32 p" wt_addr [31:0] $end
$var reg 32 q" wt_data [31:0] $end
$var reg 1 f wt_start $end
$var reg 4 r" wt_strb [3:0] $end
$upscope $end
$scope module data_array_inst $end
$var wire 1 B clk $end
$var wire 32 s" read_data [31:0] $end
$var wire 6 t" read_index [5:0] $end
$var wire 2 u" read_offset [1:0] $end
$var wire 1 T rst_n $end
$var wire 32 v" write_data [31:0] $end
$var wire 1 %" write_enable $end
$var wire 6 w" write_index [5:0] $end
$var wire 2 x" write_offset [1:0] $end
$var wire 4 y" write_strb [3:0] $end
$var wire 8 z" write_addr [7:0] $end
$var wire 8 {" read_addr [7:0] $end
$var integer 32 |" i [31:0] $end
$upscope $end
$scope module tag_array_inst $end
$var wire 1 B clk $end
$var wire 1 q flush_all $end
$var wire 1 p hit $end
$var wire 1 }" line_valid $end
$var wire 6 ~" lookup_index [5:0] $end
$var wire 22 !# lookup_tag [21:0] $end
$var wire 1 T rst_n $end
$var wire 6 "# update_index [5:0] $end
$var wire 22 ## update_tag [21:0] $end
$var wire 1 k update_valid $end
$var wire 1 $# tag_match $end
$var integer 32 %# i [31:0] $end
$upscope $end
$upscope $end
$scope task cpu_read $end
$var reg 32 &# addr [31:0] $end
$upscope $end
$scope task cpu_write $end
$var reg 32 '# addr [31:0] $end
$var reg 32 (# data [31:0] $end
$var reg 4 )# strb [3:0] $end
$upscope $end
$upscope $end
$enddefinitions $end
$comment Show the parameter values. $end
$dumpall
b10 E"
b0 D"
b11 C"
b1 B"
b10 A"
b0 @"
b11 ?"
b1 >"
b10000 ."
b100000 -"
b10000000000000 ,"
b100000 +"
b10 >
b0 =
b11 <
b1 ;
b10 :
b0 9
b1 8
$end
#0
$dumpvars
bx )#
bx (#
bx '#
bx &#
b1000000 %#
1$#
b0 ##
b0 "#
b0 !#
b0 ~"
0}"
b100000000 |"
b0 {"
b0 z"
b0 y"
b0 x"
b0 w"
b0 v"
b0 u"
b0 t"
b0 s"
b0 r"
b0 q"
b0 p"
b0 o"
b0 n"
b0 m"
b0 l"
b0 k"
b0 j"
b0 i"
0h"
b0 g"
b0 f"
b0 e"
b0 d"
b0 c"
b0 b"
b0 a"
b0 `"
b0 _"
0^"
b0 ]"
b0 \"
b0 ["
b0 Z"
b0 Y"
b0 X"
b0 W"
b0 V"
b0 U"
b0 T"
b0 S"
b0 R"
b0 Q"
b0 P"
b0 O"
b0 N"
b0 M"
b0 L"
b0 K"
b0 J"
b0 I"
b0 H"
b0 G"
b0 F"
b0 ="
b0 <"
b0 ;"
b0 :"
b0 9"
b0 8"
b0 7"
b10 6"
b0 5"
b0 4"
b1 3"
b10 2"
b0 1"
b11 0"
b1 /"
b0 *"
b0 )"
b0 ("
b0 '"
b0 &"
0%"
b0 $"
b0 #"
b0 ""
b0 !"
b0 ~
b0 }
b0 |
b0 {
0z
b0 y
0x
0w
0v
b0 u
b0 t
b0 s
b0 r
0q
0p
b0 o
b0 n
b0 m
b0 l
0k
b0 j
0i
b0 h
0g
0f
b0 e
b0 d
b0 c
b0 b
b10 a
b0 `
b0 _
b1 ^
b10 ]
b0 \
b11 [
b1 Z
b0 Y
b0 X
b0 W
b100000000 V
b0 U
0T
b0 S
b0 R
0Q
0P
b0 O
0N
b0 M
0L
b0 K
0J
0I
0H
b0 G
0F
b0 E
0D
b0 C
0B
b0 A
b0 @
b0 ?
b0 7
06
b0 5
04
b0 3
02
01
00
b0 /
b0 .
0-
b0 ,
b0 +
b0 *
1)
b10 (
b0 '
b0 &
b1 %
b10 $
b0 #
b11 "
b1 !
$end
#5000
b1000000 %#
1B
#10000
0B
#15000
b1000000 %#
1B
#20000
0B
1T
#25000
1Q
1J
1I
1B
#30000
0B
#35000
1B
#40000
b1 c"
0B
1D
b0 &#
#45000
b10 c"
b1 m"
1B
#50000
0B
#55000
b10 m"
1v
b1 +
b1 s
b1 k"
1B
#60000
0B
#65000
0v
b1 J"
1z
14
1B
#70000
0B
#75000
b10 J"
10
04
b10 S
0I
b11 @
1B
#80000
0B
#85000
1P
b10000000000000000000000000000 M
b10000000000000000000000000000 c
b10000000000000000000000000000 8"
1B
#90000
0B
#95000
b1 K"
1x
b10000000000000000000000000000 y
b10000000000000000000000000000 L"
b10000000000000000000000000000 U"
b1 R
1B
#100000
0B
#105000
b10 R
b10000000000000000000000010000 M
b10000000000000000000000010000 c
b10000000000000000000000010000 8"
1h"
b10000000000000000000000000000 g"
b1111 ""
b1111 b"
b1111 y"
b10000000000000000000000000000 &"
b10000000000000000000000000000 _"
b10000000000000000000000000000 v"
1%"
b10 K"
b1 u
b1 M"
b1 V"
1x
1B
#110000
0B
#115000
b11 K"
b10 u
b10 M"
b10 V"
b10000000000000000000000010000 y
b10000000000000000000000010000 L"
b10000000000000000000000010000 U"
1x
b1 z"
b1 #"
b1 a"
b1 x"
1%"
b11 R
b10000000000000000000000100000 M
b10000000000000000000000100000 c
b10000000000000000000000100000 8"
b10000000000000000000000000000 )"
b10000000000000000000000000000 Y"
b10000000000000000000000000000 s"
1B
#120000
0B
#125000
b100 R
1N
b10000000000000000000000110000 M
b10000000000000000000000110000 c
b10000000000000000000000110000 8"
b10000000000000000000000010000 &"
b10000000000000000000000010000 _"
b10000000000000000000000010000 v"
b10 z"
b10 #"
b10 a"
b10 x"
1%"
b0 K"
b11 u
b11 M"
b11 V"
b10000000000000000000000100000 y
b10000000000000000000000100000 L"
b10000000000000000000000100000 U"
1x
1B
#130000
0B
#135000
b11 J"
00
b0 u
b0 M"
b0 V"
b10000000000000000000000110000 y
b10000000000000000000000110000 L"
b10000000000000000000000110000 U"
1x
b10000000000000000000000100000 &"
b10000000000000000000000100000 _"
b10000000000000000000000100000 v"
b11 z"
b11 #"
b11 a"
b11 x"
1%"
b0 S
0N
b10000000000000000000001000000 M
b10000000000000000000001000000 c
b10000000000000000000001000000 8"
1B
#140000
0B
#145000
b10000000000000000000000000000 7
b10000000000000000000000000000 *"
b10000000000000000000000000000 P"
b10000000000000000000000000000 ]"
16
1^"
b0 c"
0P
1I
b10000000000000000000000110000 &"
b10000000000000000000000110000 _"
b10000000000000000000000110000 v"
b0 z"
b0 #"
b0 a"
b0 x"
1%"
b0 J"
1w
0x
1B
#150000
0B
#155000
0z
0w
b0 m"
1k
0%"
b10000000000000000000000110000 )"
b10000000000000000000000110000 Y"
b10000000000000000000000110000 s"
b0 7
b0 *"
b0 P"
b0 ]"
06
0^"
b0 c"
0D
1B
#160000
0B
#165000
1p
0h"
0k
1}"
b1 c"
b10000000000000000000000000000 )"
b10000000000000000000000000000 Y"
b10000000000000000000000000000 s"
b1 {"
b1 '"
b1 T"
b1 u"
b1 ["
1D
b100 C
b100 W
b100 O"
b100 &#
1B
#170000
0B
#175000
b10000000000000000000000000000 7
b10000000000000000000000000000 *"
b10000000000000000000000000000 P"
b10000000000000000000000000000 ]"
16
1^"
b0 c"
b1 m"
1B
#180000
0B
#185000
b0 m"
b0 7
b0 *"
b0 P"
b0 ]"
06
0^"
b0 c"
0D
1B
#190000
0B
#195000
b1 c"
b10000000000000000000000010000 )"
b10000000000000000000000010000 Y"
b10000000000000000000000010000 s"
b10 {"
b10 '"
b10 T"
b10 u"
b10 ["
1D
b1000 C
b1000 W
b1000 O"
b1000 &#
1B
#200000
0B
#205000
b10000000000000000000000010000 7
b10000000000000000000000010000 *"
b10000000000000000000000010000 P"
b10000000000000000000000010000 ]"
16
1^"
b0 c"
b1 m"
1B
#210000
0B
#215000
b0 m"
b0 7
b0 *"
b0 P"
b0 ]"
06
0^"
b0 c"
0D
1B
#220000
0B
#225000
b1 c"
b10000000000000000000000100000 )"
b10000000000000000000000100000 Y"
b10000000000000000000000100000 s"
b11 {"
b11 '"
b11 T"
b11 u"
b11 ["
1D
b1100 C
b1100 W
b1100 O"
b1100 &#
1B
#230000
0B
#235000
b10000000000000000000000100000 7
b10000000000000000000000100000 *"
b10000000000000000000000100000 P"
b10000000000000000000000100000 ]"
16
1^"
b0 c"
b1 m"
1B
#240000
0B
#245000
b0 m"
b0 7
b0 *"
b0 P"
b0 ]"
06
0^"
b0 c"
0D
1B
#250000
0B
#255000
b1 c"
b10000000000000000000000110000 )"
b10000000000000000000000110000 Y"
b10000000000000000000000110000 s"
b0 {"
b0 '"
b0 T"
b0 u"
b0 ["
1F
1D
b1111 G
b1111 Y
b1111 R"
b11011110101011011011111011101111 E
b11011110101011011011111011101111 X
b11011110101011011011111011101111 Q"
b0 C
b0 W
b0 O"
b1111 )#
b11011110101011011011111011101111 (#
b0 '#
1B
#260000
0B
#265000
b11 c"
b1 m"
1B
#270000
0B
#275000
b11 m"
b11011110101011011011111011101111 &"
b11011110101011011011111011101111 _"
b11011110101011011011111011101111 v"
1%"
1f
b1111 e
b1111 :"
b1111 r"
b11011110101011011011111011101111 h
b11011110101011011011111011101111 ;"
b11011110101011011011111011101111 q"
b1 *
b1 r
b1 l"
1B
#280000
0B
#285000
0%"
0f
b1 N"
1i
1-
12
b1111 .
b1111 |
b1111 I"
b11011110101011011011111011101111 /
b11011110101011011011111011101111 }
b11011110101011011011111011101111 H"
b11011110101011011011111011101111 )"
b11011110101011011011111011101111 Y"
b11011110101011011011111011101111 s"
1B
#290000
0B
#295000
b11 N"
11
0-
02
b11 U
0Q
0J
1B
#300000
0B
#305000
b0 U
1L
1B
#310000
0B
#315000
16
1^"
b0 c"
b0 N"
1g
01
0L
1Q
1J
1B
#320000
0B
#325000
b0 m"
0i
0g
06
0^"
b0 c"
0D
1B
#330000
0B
#335000
b1 c"
0F
1D
b0 &#
1B
#340000
0B
#345000
b11011110101011011011111011101111 7
b11011110101011011011111011101111 *"
b11011110101011011011111011101111 P"
b11011110101011011011111011101111 ]"
16
1^"
b0 c"
b1 m"
1B
#350000
0B
#355000
b0 m"
b0 7
b0 *"
b0 P"
b0 ]"
06
0^"
b0 c"
0D
1B
#360000
0B
#365000
0p
b1 c"
b0 )"
b0 Y"
b0 s"
b1000000 {"
b10000 ("
b10000 S"
b10000 t"
0}"
b10000 o
b10000 W"
b10000 ~"
b10000 \"
1F
1D
b10010001101000101011001111000 E
b10010001101000101011001111000 X
b10010001101000101011001111000 Q"
b100000000 C
b100000000 W
b100000000 O"
b10010001101000101011001111000 (#
b100000000 '#
1B
#370000
0B
#375000
b11 c"
b1 m"
1B
#380000
0B
#385000
1f
b10010001101000101011001111000 h
b10010001101000101011001111000 ;"
b10010001101000101011001111000 q"
b100000000 j
b100000000 <"
b100000000 p"
b10 *
b10 r
b10 l"
b11 m"
1B
#390000
0B
#395000
b1 N"
1i
1-
12
b10010001101000101011001111000 /
b10010001101000101011001111000 }
b10010001101000101011001111000 H"
b100000000 3
b100000000 ~
b100000000 G"
0f
1B
#400000
0B
#405000
b11 U
0Q
0J
b100000000 A
b11 N"
11
0-
02
1B
#410000
0B
#415000
b0 U
1L
1B
#420000
0B
#425000
16
1^"
b0 c"
0L
1Q
1J
b0 N"
1g
01
1B
#430000
0B
#435000
0i
0g
b0 m"
06
0^"
b0 c"
0D
1B
#440000
0B
#445000
b1 c"
0F
1D
b100000000 &#
1B
#450000
0B
#455000
b10 c"
b1 m"
1B
#460000
0B
#465000
1v
b10 +
b10 s
b10 k"
b10000 e"
b100000000 {
b100000000 ="
b100000000 d"
b10 m"
1B
#470000
0B
#475000
b1 J"
1z
14
b100000000 5
b100000000 !"
b100000000 F"
0v
1B
#480000
0B
#485000
b10 S
0I
b0 R
b100000000 ?
b10 J"
10
04
1B
#490000
0B
#495000
1P
b10000000000000000010000000000 M
b10000000000000000010000000000 c
b10000000000000000010000000000 8"
1B
#500000
0B
#505000
b1 R
b1 K"
1x
b10000000000000000010000000000 y
b10000000000000000010000000000 L"
b10000000000000000010000000000 U"
1B
#510000
0B
#515000
b10 K"
b1 u
b1 M"
b1 V"
1x
1h"
b10000000000000000010000000000 g"
b10000000000000000010000000000 &"
b10000000000000000010000000000 _"
b10000000000000000010000000000 v"
b1000000 z"
b10000 $"
b10000 `"
b10000 w"
1%"
b10 R
b10000000000000000010000010000 M
b10000000000000000010000010000 c
b10000000000000000010000010000 8"
1B
#520000
0B
#525000
b11 R
b10000000000000000010000100000 M
b10000000000000000010000100000 c
b10000000000000000010000100000 8"
b1000001 z"
b1 #"
b1 a"
b1 x"
1%"
b11 K"
b10 u
b10 M"
b10 V"
b10000000000000000010000010000 y
b10000000000000000010000010000 L"
b10000000000000000010000010000 U"
1x
b10000000000000000010000000000 )"
b10000000000000000010000000000 Y"
b10000000000000000010000000000 s"
1B
#530000
0B
#535000
b0 K"
b11 u
b11 M"
b11 V"
b10000000000000000010000100000 y
b10000000000000000010000100000 L"
b10000000000000000010000100000 U"
1x
b10000000000000000010000010000 &"
b10000000000000000010000010000 _"
b10000000000000000010000010000 v"
b1000010 z"
b10 #"
b10 a"
b10 x"
1%"
b100 R
1N
b10000000000000000010000110000 M
b10000000000000000010000110000 c
b10000000000000000010000110000 8"
1B
#540000
0B
#545000
b0 S
0N
b10000000000000000010001000000 M
b10000000000000000010001000000 c
b10000000000000000010001000000 8"
b10000000000000000010000100000 &"
b10000000000000000010000100000 _"
b10000000000000000010000100000 v"
b1000011 z"
b11 #"
b11 a"
b11 x"
1%"
b11 J"
00
b0 u
b0 M"
b0 V"
b10000000000000000010000110000 y
b10000000000000000010000110000 L"
b10000000000000000010000110000 U"
1x
1B
#550000
0B
#555000
b10000000000000000010000000000 7
b10000000000000000010000000000 *"
b10000000000000000010000000000 P"
b10000000000000000010000000000 ]"
16
1^"
b0 c"
b0 J"
1w
0x
b10000000000000000010000110000 &"
b10000000000000000010000110000 _"
b10000000000000000010000110000 v"
b1000000 z"
b0 #"
b0 a"
b0 x"
1%"
0P
1I
1B
#560000
0B
#565000
b10000 m
b10000 n"
b10000 "#
1k
0%"
b0 m"
0z
0w
b10000000000000000010000110000 )"
b10000000000000000010000110000 Y"
b10000000000000000010000110000 s"
b0 7
b0 *"
b0 P"
b0 ]"
06
0^"
b0 c"
0D
1B
#570000
0B
#575000
0h"
0k
1p
b1 c"
b11011110101011011011111011101111 )"
b11011110101011011011111011101111 Y"
b11011110101011011011111011101111 s"
b0 {"
b0 ("
b0 S"
b0 t"
1}"
b0 o
b0 W"
b0 ~"
b0 \"
1F
1D
b1 G
b1 Y
b1 R"
b10101010 E
b10101010 X
b10101010 Q"
b0 C
b0 W
b0 O"
b1 )#
b10101010 (#
b0 '#
1B
#580000
0B
#585000
b11 c"
b1 m"
1B
#590000
0B
#595000
b11 m"
b1 ""
b1 b"
b1 y"
b10101010 &"
b10101010 _"
b10101010 v"
b0 z"
b0 $"
b0 `"
b0 w"
1%"
1f
b1 e
b1 :"
b1 r"
b10101010 h
b10101010 ;"
b10101010 q"
b0 j
b0 <"
b0 p"
b11 *
b11 r
b11 l"
1B
#600000
0B
#605000
0%"
0f
b1 N"
1i
1-
12
b1 .
b1 |
b1 I"
b10101010 /
b10101010 }
b10101010 H"
b0 3
b0 ~
b0 G"
b11011110101011011011111010101010 )"
b11011110101011011011111010101010 Y"
b11011110101011011011111010101010 s"
1B
#610000
0B
#615000
b11 N"
11
0-
02
b11 U
0Q
0J
b0 A
1B
#620000
0B
#625000
b0 U
1L
1B
#630000
0B
#635000
16
1^"
b0 c"
b0 N"
1g
01
0L
1Q
1J
1B
#640000
0B
#645000
b0 m"
0i
0g
06
0^"
b0 c"
0D
1B
#650000
0B
#655000
b1 c"
0F
1D
b0 &#
1B
#660000
0B
#665000
b11011110101011011011111010101010 7
b11011110101011011011111010101010 *"
b11011110101011011011111010101010 P"
b11011110101011011011111010101010 ]"
16
1^"
b0 c"
b1 m"
1B
#670000
0B
#675000
b0 m"
b0 7
b0 *"
b0 P"
b0 ]"
06
0^"
b0 c"
0D
1B
#680000
0B
#685000
b1 c"
b10000000000000000000000000000 )"
b10000000000000000000000000000 Y"
b10000000000000000000000000000 s"
b1 {"
b1 '"
b1 T"
b1 u"
b1 ["
1F
1D
b11 G
b11 Y
b11 R"
b1011101111001100 E
b1011101111001100 X
b1011101111001100 Q"
b100 C
b100 W
b100 O"
b11 )#
b1011101111001100 (#
b100 '#
1B
#690000
0B
#695000
b11 c"
b1 m"
1B
#700000
0B
#705000
b11 ""
b11 b"
b11 y"
b1011101111001100 &"
b1011101111001100 _"
b1011101111001100 v"
b1 z"
b1 #"
b1 a"
b1 x"
1%"
1f
b11 e
b11 :"
b11 r"
b1011101111001100 h
b1011101111001100 ;"
b1011101111001100 q"
b100 j
b100 <"
b100 p"
b100 *
b100 r
b100 l"
b11 m"
1B
#710000
0B
#715000
b1 N"
1i
1-
12
b11 .
b11 |
b11 I"
b1011101111001100 /
b1011101111001100 }
b1011101111001100 H"
b100 3
b100 ~
b100 G"
0%"
0f
b10000000000001011101111001100 )"
b10000000000001011101111001100 Y"
b10000000000001011101111001100 s"
1B
#720000
0B
#725000
b11 U
0Q
0J
b100 A
b11 N"
11
0-
02
1B
#730000
0B
#735000
b0 U
1L
1B
#740000
0B
#745000
16
1^"
b0 c"
0L
1Q
1J
b0 N"
1g
01
1B
#750000
0B
#755000
0i
0g
b0 m"
06
0^"
b0 c"
0D
1B
#760000
0B
#765000
b1 c"
0F
1D
b100 &#
1B
#770000
0B
#775000
b10000000000001011101111001100 7
b10000000000001011101111001100 *"
b10000000000001011101111001100 P"
b10000000000001011101111001100 ]"
16
1^"
b0 c"
b1 m"
1B
#780000
0B
#785000
b0 m"
b0 7
b0 *"
b0 P"
b0 ]"
06
0^"
b0 c"
0D
1B
#790000
0B
#795000
0p
b1 c"
b100 ("
b100 S"
b100 t"
0}"
b100 o
b100 W"
b100 ~"
b100 \"
b0 )"
b0 Y"
b0 s"
b10000 {"
b0 '"
b0 T"
b0 u"
b0 ["
1D
b1000000 C
b1000000 W
b1000000 O"
b1000000 &#
1B
#800000
0B
#805000
b10 c"
b1 m"
1B
#810000
0B
#815000
b10 m"
1v
b11 +
b11 s
b11 k"
b100 e"
b1000000 {
b1000000 ="
b1000000 d"
1B
#820000
0B
#825000
0v
b1 J"
1z
14
b1000000 5
b1000000 !"
b1000000 F"
1B
#830000
0B
#835000
b10 J"
10
04
b10 S
0I
b0 R
b1000000 ?
1B
#840000
0B
#845000
1P
b10000000000000000000100000000 M
b10000000000000000000100000000 c
b10000000000000000000100000000 8"
1B
#850000
0B
#855000
b1 K"
1x
b10000000000000000000100000000 y
b10000000000000000000100000000 L"
b10000000000000000000100000000 U"
b1 R
1B
#860000
0B
#865000
b10 R
b10000000000000000000100010000 M
b10000000000000000000100010000 c
b10000000000000000000100010000 8"
1h"
b10000000000000000000100000000 g"
b1111 ""
b1111 b"
b1111 y"
b10000000000000000000100000000 &"
b10000000000000000000100000000 _"
b10000000000000000000100000000 v"
b0 #"
b0 a"
b0 x"
b10000 z"
b100 $"
b100 `"
b100 w"
1%"
b10 K"
b1 u
b1 M"
b1 V"
1x
1B
#870000
0B
#875000
b11 K"
b10 u
b10 M"
b10 V"
b10000000000000000000100010000 y
b10000000000000000000100010000 L"
b10000000000000000000100010000 U"
1x
b10001 z"
b1 #"
b1 a"
b1 x"
1%"
b11 R
b10000000000000000000100100000 M
b10000000000000000000100100000 c
b10000000000000000000100100000 8"
b10000000000000000000100000000 )"
b10000000000000000000100000000 Y"
b10000000000000000000100000000 s"
1B
#880000
0B
#885000
b100 R
1N
b10000000000000000000100110000 M
b10000000000000000000100110000 c
b10000000000000000000100110000 8"
b10000000000000000000100010000 &"
b10000000000000000000100010000 _"
b10000000000000000000100010000 v"
b10010 z"
b10 #"
b10 a"
b10 x"
1%"
b0 K"
b11 u
b11 M"
b11 V"
b10000000000000000000100100000 y
b10000000000000000000100100000 L"
b10000000000000000000100100000 U"
1x
1B
#890000
0B
#895000
b11 J"
00
b0 u
b0 M"
b0 V"
b10000000000000000000100110000 y
b10000000000000000000100110000 L"
b10000000000000000000100110000 U"
1x
b10000000000000000000100100000 &"
b10000000000000000000100100000 _"
b10000000000000000000100100000 v"
b10011 z"
b11 #"
b11 a"
b11 x"
1%"
b0 S
0N
b10000000000000000000101000000 M
b10000000000000000000101000000 c
b10000000000000000000101000000 8"
1B
#900000
0B
